{
    "code": 200,
    "data": {
        "records": [
            {
                "zhuanlisqh": "2024101540481",
                "famingzlsqgbg": "CN118175178A",
                "shouquanggh": null,
                "zhuanlimc": "一种配电站室智能监测系统及装置",
                "shenqingrxm": "xxxxxxxxxxxxxxxxxxxxxxxx有限公司",
                "zhuanlilx": "1",
                "shenqingr": "2024-02-02",
                "gongkaiggh": null,
                "falvzt": null,
                "gongkaiggr": null,
                "shouquanggr": null,
                "zhufenlh": "H04L67/12",
                "anjianbh": null,
                "mingcheng": null,
                "anjianjlwz": null,
                "anjianywzt": "等待实审提案",
                "attention": false
            },
            {
                "zhuanlisqh": "202311845911X",
                "famingzlsqgbg": "CN117783940A",
                "shouquanggh": null,
                "zhuanlimc": "基于智能断路器的小电流接地故障分析方法、设备和介质",
                "shenqingrxm": "xxxxxxxxxxxx公司,xxxxxxxxxxxxxxxxxxxxxxxx有限公司,xxxxxxxxxxxxxxxxxxxxxxxx有限公司,xxxxxxxxxxxxxxxxxxxxxxxx有限公司",
                "zhuanlilx": "1",
                "shenqingr": "2023-12-28",
                "gongkaiggh": null,
                "falvzt": null,
                "gongkaiggr": null,
                "shouquanggr": null,
                "zhufenlh": "G01R31/52",
                "anjianbh": null,
                "mingcheng": null,
                "anjianjlwz": null,
                "anjianywzt": "等待实审提案",
                "attention": false
            },
            {
                "zhuanlisqh": "2023307735174",
                "famingzlsqgbg": null,
                "shouquanggh": "CN308680783S",
                "zhuanlimc": "双电源测控装置实训屏",
                "shenqingrxm": "xxxxxxxxxxxxxxxxxxxxxxxx有限公司,北京首电人才服务xxxxxxxxxxxx有限公司",
                "zhuanlilx": "3",
                "shenqingr": "2023-11-24",
                "gongkaiggh": null,
                "falvzt": "专利权有效",
                "gongkaiggr": "2024-06-11",
                "shouquanggr": null,
                "zhufenlh": "1907",
                "anjianbh": null,
                "mingcheng": null,
                "anjianjlwz": null,
                "anjianywzt": "专利权维持",
                "attention": false
            },
            {
                "zhuanlisqh": "2023227579807",
                "famingzlsqgbg": null,
                "shouquanggh": "CN221126949U",
                "zhuanlimc": "一种具备模块化组合功能的UPS配电设备",
                "shenqingrxm": "xxxxxxxxxxxxxxxxxxxxxxxx有限公司",
                "zhuanlilx": "2",
                "shenqingr": "2023-10-14",
                "gongkaiggh": null,
                "falvzt": "专利权有效",
                "gongkaiggr": "2024-06-11",
                "shouquanggr": null,
                "zhufenlh": "H02J9/06",
                "anjianbh": null,
                "mingcheng": null,
                "anjianjlwz": null,
                "anjianywzt": "专利权维持",
                "attention": false
            },
            {
                "zhuanlisqh": "202322763627X",
                "famingzlsqgbg": null,
                "shouquanggh": "CN221125759U",
                "zhuanlimc": "一种抽出式的固态切换开关",
                "shenqingrxm": "xxxxxxxxxxxxxxxxxxxxxxxx有限公司",
                "zhuanlilx": "2",
                "shenqingr": "2023-10-14",
                "gongkaiggh": null,
                "falvzt": "专利权有效",
                "gongkaiggr": "2024-06-11",
                "shouquanggr": null,
                "zhufenlh": "H01H9/52",
                "anjianbh": null,
                "mingcheng": null,
                "anjianjlwz": null,
                "anjianywzt": "专利权维持",
                "attention": false
            },
            {
                "zhuanlisqh": "2023227605445",
                "famingzlsqgbg": null,
                "shouquanggh": "CN221124653U",
                "zhuanlimc": "一种居民用电模拟试验平台",
                "shenqingrxm": "xxxxxxxxxxxxxxxxxxxxxxxx有限公司",
                "zhuanlilx": "2",
                "shenqingr": "2023-10-14",
                "gongkaiggh": null,
                "falvzt": "专利权有效",
                "gongkaiggr": "2024-06-11",
                "shouquanggr": null,
                "zhufenlh": "G01R1/04",
                "anjianbh": null,
                "mingcheng": null,
                "anjianjlwz": null,
                "anjianywzt": "专利权维持",
                "attention": false
            },
            {
                "zhuanlisqh": "2023226120911",
                "famingzlsqgbg": null,
                "shouquanggh": "CN221118549U",
                "zhuanlimc": "一种预制式箱变基础",
                "shenqingrxm": "xxxxxxxxxxxxxxxxxxxxxxxx有限公司",
                "zhuanlilx": "2",
                "shenqingr": "2023-09-25",
                "gongkaiggh": null,
                "falvzt": "专利权有效",
                "gongkaiggr": "2024-06-11",
                "shouquanggr": null,
                "zhufenlh": "E02D27/44",
                "anjianbh": null,
                "mingcheng": null,
                "anjianjlwz": null,
                "anjianywzt": "专利权维持",
                "attention": false
            },
            {
                "zhuanlisqh": "202330627472X",
                "famingzlsqgbg": null,
                "shouquanggh": "CN308575565S",
                "zhuanlimc": "预装式半地埋箱式变电站",
                "shenqingrxm": "xxxxxxxxxxxxxxxxxxxxxxxx有限公司",
                "zhuanlilx": "3",
                "shenqingr": "2023-09-25",
                "gongkaiggh": null,
                "falvzt": "专利权有效",
                "gongkaiggr": "2024-04-12",
                "shouquanggr": null,
                "zhufenlh": "1303",
                "anjianbh": null,
                "mingcheng": null,
                "anjianjlwz": null,
                "anjianywzt": "专利权维持",
                "attention": false
            },
            {
                "zhuanlisqh": "2023306274791",
                "famingzlsqgbg": null,
                "shouquanggh": "CN308611378S",
                "zhuanlimc": "片式散热电气设备箱",
                "shenqingrxm": "xxxxxxxxxxxxxxxxxxxxxxxx有限公司",
                "zhuanlilx": "3",
                "shenqingr": "2023-09-25",
                "gongkaiggh": null,
                "falvzt": "专利权有效",
                "gongkaiggr": "2024-04-30",
                "shouquanggr": null,
                "zhufenlh": "1303",
                "anjianbh": null,
                "mingcheng": null,
                "anjianjlwz": null,
                "anjianywzt": "专利权维持",
                "attention": false
            },
            {
                "zhuanlisqh": "2023306274861",
                "famingzlsqgbg": null,
                "shouquanggh": "CN308611252S",
                "zhuanlimc": "不间断电源柜",
                "shenqingrxm": "xxxxxxxxxxxxxxxxxxxxxxxx有限公司",
                "zhuanlilx": "3",
                "shenqingr": "2023-09-25",
                "gongkaiggh": null,
                "falvzt": "专利权有效",
                "gongkaiggr": "2024-04-30",
                "shouquanggr": null,
                "zhufenlh": "1302",
                "anjianbh": null,
                "mingcheng": null,
                "anjianjlwz": null,
                "anjianywzt": "专利权维持",
                "attention": false
            }
        ],
        "total": 550,
        "pageSize": 10,
        "currentPage": 1,
        "pages": 55
    },
    "msg": "成功"
}