{
  "code": 200,
  "data": {
    "records": [
      {
        "zhuanlisqh": "2024101540481",
        "famingzlsqgbg": "CN118175178A",
        "shouquanggh": null,
        "zhuanlimc": "一种配电站室智能监测系统及装置",
        "shenqingrxm": "xxxxxxxxxxxxxxxxxxxxxxxx有限公司",
        "zhuanlilx": "1",
        "shenqingr": "2024-02-02",
        "gongkaiggh": null,
        "falvzt": null,
        "gongkaiggr": null,
        "shouquanggr": null,
        "zhufenlh": "H04L67/12",
        "anjianbh": null,
        "mingcheng": null,
        "anjianjlwz": null,
        "anjianywzt": "等待实审提案",
        "attention": false
      },
      {
        "zhuanlisqh": "202311845911X",
        "famingzlsqgbg": "CN117783940A",
        "shouquanggh": null,
        "zhuanlimc": "基于智能断路器的小电流接地故障分析方法、设备和介质",
        "shenqingrxm": "xxxxxxxxxxxx公司,xxxxxxxxxxxxxxxxxxxxxxxx有限公司,xxxxxxxxxxxxxxxxxxxxxxxx有限公司,xxxxxxxxxxxxxxxxxxxxxxxx有限公司",
        "zhuanlilx": "1",
        "shenqingr": "2023-12-28",
        "gongkaiggh": null,
        "falvzt": null,
        "gongkaiggr": null,
        "shouquanggr": null,
        "zhufenlh": "G01R31/52",
        "anjianbh": null,
        "mingcheng": null,
        "anjianjlwz": null,
        "anjianywzt": "等待实审提案",
        "attention": false
      },
      {
        "zhuanlisqh": "2023307735174",
        "famingzlsqgbg": null,
        "shouquanggh": "CN308680783S",
        "zhuanlimc": "双电源测控装置实训屏",
        "shenqingrxm": "xxxxxxxxxxxxxxxxxxxxxxxx有限公司,北京首电人才服务xxxxxxxxxxxx有限公司",
        "zhuanlilx": "3",
        "shenqingr": "2023-11-24",
        "gongkaiggh": null,
        "falvzt": "专利权有效",
        "gongkaiggr": "2024-06-11",
        "shouquanggr": null,
        "zhufenlh": "1907",
        "anjianbh": null,
        "mingcheng": null,
        "anjianjlwz": null,
        "anjianywzt": "专利权维持",
        "attention": false
      },
      {
        "zhuanlisqh": "2023227579807",
        "famingzlsqgbg": null,
        "shouquanggh": "CN221126949U",
        "zhuanlimc": "一种具备模块化组合功能的UPS配电设备",
        "shenqingrxm": "xxxxxxxxxxxxxxxxxxxxxxxx有限公司",
        "zhuanlilx": "2",
        "shenqingr": "2023-10-14",
        "gongkaiggh": null,
        "falvzt": "专利权有效",
        "gongkaiggr": "2024-06-11",
        "shouquanggr": null,
        "zhufenlh": "H02J9/06",
        "anjianbh": null,
        "mingcheng": null,
        "anjianjlwz": null,
        "anjianywzt": "专利权维持",
        "attention": false
      },
      {
        "zhuanlisqh": "202322763627X",
        "famingzlsqgbg": null,
        "shouquanggh": "CN221125759U",
        "zhuanlimc": "一种抽出式的固态切换开关",
        "shenqingrxm": "xxxxxxxxxxxxxxxxxxxxxxxx有限公司",
        "zhuanlilx": "2",
        "shenqingr": "2023-10-14",
        "gongkaiggh": null,
        "falvzt": "专利权有效",
        "gongkaiggr": "2024-06-11",
        "shouquanggr": null,
        "zhufenlh": "H01H9/52",
        "anjianbh": null,
        "mingcheng": null,
        "anjianjlwz": null,
        "anjianywzt": "专利权维持",
        "attention": false
      },
      {
        "zhuanlisqh": "2023227605445",
        "famingzlsqgbg": null,
        "shouquanggh": "CN221124653U",
        "zhuanlimc": "一种居民用电模拟试验平台",
        "shenqingrxm": "xxxxxxxxxxxxxxxxxxxxxxxx有限公司",
        "zhuanlilx": "2",
        "shenqingr": "2023-10-14",
        "gongkaiggh": null,
        "falvzt": "专利权有效",
        "gongkaiggr": "2024-06-11",
        "shouquanggr": null,
        "zhufenlh": "G01R1/04",
        "anjianbh": null,
        "mingcheng": null,
        "anjianjlwz": null,
        "anjianywzt": "专利权维持",
        "attention": false
      },
      {
        "zhuanlisqh": "2023226120911",
        "famingzlsqgbg": null,
        "shouquanggh": "CN221118549U",
        "zhuanlimc": "一种预制式箱变基础",
        "shenqingrxm": "xxxxxxxxxxxxxxxxxxxxxxxx有限公司",
        "zhuanlilx": "2",
        "shenqingr": "2023-09-25",
        "gongkaiggh": null,
        "falvzt": "专利权有效",
        "gongkaiggr": "2024-06-11",
        "shouquanggr": null,
        "zhufenlh": "E02D27/44",
        "anjianbh": null,
        "mingcheng": null,
        "anjianjlwz": null,
        "anjianywzt": "专利权维持",
        "attention": false
      },
      {
        "zhuanlisqh": "202330627472X",
        "famingzlsqgbg": null,
        "shouquanggh": "CN308575565S",
        "zhuanlimc": "预装式半地埋箱式变电站",
        "shenqingrxm": "xxxxxxxxxxxxxxxxxxxxxxxx有限公司",
        "zhuanlilx": "3",
        "shenqingr": "2023-09-25",
        "gongkaiggh": null,
        "falvzt": "专利权有效",
        "gongkaiggr": "2024-04-12",
        "shouquanggr": null,
        "zhufenlh": "1303",
        "anjianbh": null,
        "mingcheng": null,
        "anjianjlwz": null,
        "anjianywzt": "专利权维持",
        "attention": false
      },
      {
        "zhuanlisqh": "2023306274791",
        "famingzlsqgbg": null,
        "shouquanggh": "CN308611378S",
        "zhuanlimc": "片式散热电气设备箱",
        "shenqingrxm": "xxxxxxxxxxxxxxxxxxxxxxxx有限公司",
        "zhuanlilx": "3",
        "shenqingr": "2023-09-25",
        "gongkaiggh": null,
        "falvzt": "专利权有效",
        "gongkaiggr": "2024-04-30",
        "shouquanggr": null,
        "zhufenlh": "1303",
        "anjianbh": null,
        "mingcheng": null,
        "anjianjlwz": null,
        "anjianywzt": "专利权维持",
        "attention": false
      },
      {
        "zhuanlisqh": "2023306274861",
        "famingzlsqgbg": null,
        "shouquanggh": "CN308611252S",
        "zhuanlimc": "不间断电源柜",
        "shenqingrxm": "xxxxxxxxxxxxxxxxxxxxxxxx有限公司",
        "zhuanlilx": "3",
        "shenqingr": "2023-09-25",
        "gongkaiggh": null,
        "falvzt": "专利权有效",
        "gongkaiggr": "2024-04-30",
        "shouquanggr": null,
        "zhufenlh": "1302",
        "anjianbh": null,
        "mingcheng": null,
        "anjianjlwz": null,
        "anjianywzt": "专利权维持",
        "attention": false
      },
      {
        "zhuanlisqh": "2023226109819",
        "famingzlsqgbg": null,
        "shouquanggh": "CN220934731U",
        "zhuanlimc": "户外低温环境下内部自循环通风散热UPS箱",
        "shenqingrxm": "xxxxxxxxxxxxxxxxxxxxxxxx有限公司",
        "zhuanlilx": "2",
        "shenqingr": "2023-09-25",
        "gongkaiggh": null,
        "falvzt": "专利权有效",
        "gongkaiggr": "2024-05-10",
        "shouquanggr": null,
        "zhufenlh": "H02B1/56",
        "anjianbh": null,
        "mingcheng": null,
        "anjianjlwz": null,
        "anjianywzt": "专利权维持",
        "attention": false
      },
      {
        "zhuanlisqh": "2023226109749",
        "famingzlsqgbg": null,
        "shouquanggh": "CN220955119U",
        "zhuanlimc": "一种箱变锁的隐形化结构",
        "shenqingrxm": "xxxxxxxxxxxxxxxxxxxxxxxx有限公司",
        "zhuanlilx": "2",
        "shenqingr": "2023-09-25",
        "gongkaiggh": null,
        "falvzt": "专利权有效",
        "gongkaiggr": "2024-05-14",
        "shouquanggr": null,
        "zhufenlh": "E05B65/52",
        "anjianbh": null,
        "mingcheng": null,
        "anjianjlwz": null,
        "anjianywzt": "专利权维持",
        "attention": false
      },
      {
        "zhuanlisqh": "2023226088136",
        "famingzlsqgbg": null,
        "shouquanggh": "CN220874610U",
        "zhuanlimc": "一种配电室视频、环境检测一体化装置",
        "shenqingrxm": "xxxxxxxxxxxxxxxxxxxxxxxx有限公司",
        "zhuanlilx": "2",
        "shenqingr": "2023-09-25",
        "gongkaiggh": null,
        "falvzt": "专利权有效",
        "gongkaiggr": "2024-04-30",
        "shouquanggr": null,
        "zhufenlh": "H04N7/18",
        "anjianbh": null,
        "mingcheng": null,
        "anjianjlwz": null,
        "anjianywzt": "专利权维持",
        "attention": false
      },
      {
        "zhuanlisqh": "2023306274772",
        "famingzlsqgbg": null,
        "shouquanggh": "CN308575566S",
        "zhuanlimc": "预装式半地埋箱式变电站",
        "shenqingrxm": "xxxxxxxxxxxxxxxxxxxxxxxx有限公司",
        "zhuanlilx": "3",
        "shenqingr": "2023-09-25",
        "gongkaiggh": null,
        "falvzt": "专利权有效",
        "gongkaiggr": "2024-04-12",
        "shouquanggr": null,
        "zhufenlh": "1303",
        "anjianbh": null,
        "mingcheng": null,
        "anjianjlwz": null,
        "anjianywzt": "专利权维持",
        "attention": false
      },
      {
        "zhuanlisqh": "2022235430698",
        "famingzlsqgbg": null,
        "shouquanggh": "CN219643317U",
        "zhuanlimc": "一种智能化数据采集柜",
        "shenqingrxm": "xxxxxxxxxxxxxxxxxxxxxxxx有限公司,国网数字科技控股xxxxxxxxxxxx有限公司",
        "zhuanlilx": "2",
        "shenqingr": "2022-12-28",
        "gongkaiggh": null,
        "falvzt": "专利权有效",
        "gongkaiggr": "2023-09-05",
        "shouquanggr": null,
        "zhufenlh": "H02B1/24",
        "anjianbh": null,
        "mingcheng": null,
        "anjianjlwz": null,
        "anjianywzt": "专利权维持",
        "attention": false
      },
      {
        "zhuanlisqh": "2022234056522",
        "famingzlsqgbg": null,
        "shouquanggh": "CN219456367U",
        "zhuanlimc": "一种模块化电缆故障探测传感器",
        "shenqingrxm": "xxxxxxxxxxxxxxxxxxxxxxxx有限公司",
        "zhuanlilx": "2",
        "shenqingr": "2022-12-14",
        "gongkaiggh": null,
        "falvzt": "专利权有效",
        "gongkaiggr": "2023-08-01",
        "shouquanggr": null,
        "zhufenlh": "G01R31/08",
        "anjianbh": null,
        "mingcheng": null,
        "anjianjlwz": null,
        "anjianywzt": "专利权维持",
        "attention": false
      },
      {
        "zhuanlisqh": "2022234056753",
        "famingzlsqgbg": null,
        "shouquanggh": "CN219456369U",
        "zhuanlimc": "一种电缆故障探测车载物装置",
        "shenqingrxm": "xxxxxxxxxxxxxxxxxxxxxxxx有限公司",
        "zhuanlilx": "2",
        "shenqingr": "2022-12-14",
        "gongkaiggh": null,
        "falvzt": "专利权有效",
        "gongkaiggr": "2023-08-01",
        "shouquanggr": null,
        "zhufenlh": "G01R31/08",
        "anjianbh": null,
        "mingcheng": null,
        "anjianjlwz": null,
        "anjianywzt": "专利权维持",
        "attention": false
      },
      {
        "zhuanlisqh": "2022234056541",
        "famingzlsqgbg": null,
        "shouquanggh": "CN218956709U",
        "zhuanlimc": "一种模块化电缆路径探测传感器",
        "shenqingrxm": "xxxxxxxxxxxxxxxxxxxxxxxx有限公司",
        "zhuanlilx": "2",
        "shenqingr": "2022-12-14",
        "gongkaiggh": null,
        "falvzt": "专利权有效",
        "gongkaiggr": "2023-05-02",
        "shouquanggr": null,
        "zhufenlh": "G01R31/08",
        "anjianbh": null,
        "mingcheng": null,
        "anjianjlwz": null,
        "anjianywzt": "专利权维持",
        "attention": false
      },
      {
        "zhuanlisqh": "2022234056749",
        "famingzlsqgbg": null,
        "shouquanggh": "CN220064262U",
        "zhuanlimc": "一种模块化电缆故障探测车",
        "shenqingrxm": "xxxxxxxxxxxxxxxxxxxxxxxx有限公司",
        "zhuanlilx": "2",
        "shenqingr": "2022-12-14",
        "gongkaiggh": null,
        "falvzt": "专利权有效",
        "gongkaiggr": "2023-11-21",
        "shouquanggr": null,
        "zhufenlh": "G01R31/08",
        "anjianbh": null,
        "mingcheng": null,
        "anjianjlwz": null,
        "anjianywzt": "专利权维持",
        "attention": false
      },
      {
        "zhuanlisqh": "2022234056715",
        "famingzlsqgbg": null,
        "shouquanggh": "CN219456368U",
        "zhuanlimc": "一种电缆故障探测定位模块缓冲装置",
        "shenqingrxm": "xxxxxxxxxxxxxxxxxxxxxxxx有限公司",
        "zhuanlilx": "2",
        "shenqingr": "2022-12-14",
        "gongkaiggh": null,
        "falvzt": "专利权有效",
        "gongkaiggr": "2023-08-01",
        "shouquanggr": null,
        "zhufenlh": "G01R31/08",
        "anjianbh": null,
        "mingcheng": null,
        "anjianjlwz": null,
        "anjianywzt": "专利权维持",
        "attention": false
      },
      {
        "zhuanlisqh": "2022234056490",
        "famingzlsqgbg": null,
        "shouquanggh": "CN219456366U",
        "zhuanlimc": "一种电缆故障检测自动释放电磁波装置",
        "shenqingrxm": "xxxxxxxxxxxxxxxxxxxxxxxx有限公司",
        "zhuanlilx": "2",
        "shenqingr": "2022-12-14",
        "gongkaiggh": null,
        "falvzt": "专利权有效",
        "gongkaiggr": "2023-08-01",
        "shouquanggr": null,
        "zhufenlh": "G01R31/08",
        "anjianbh": null,
        "mingcheng": null,
        "anjianjlwz": null,
        "anjianywzt": "专利权维持",
        "attention": false
      },
      {
        "zhuanlisqh": "2022234056537",
        "famingzlsqgbg": null,
        "shouquanggh": "CN219179526U",
        "zhuanlimc": "一种电缆故障检测自动检测装置",
        "shenqingrxm": "xxxxxxxxxxxxxxxxxxxxxxxx有限公司",
        "zhuanlilx": "2",
        "shenqingr": "2022-12-14",
        "gongkaiggh": null,
        "falvzt": "专利权有效",
        "gongkaiggr": "2023-06-13",
        "shouquanggr": null,
        "zhufenlh": "G01R31/08",
        "anjianbh": null,
        "mingcheng": null,
        "anjianjlwz": null,
        "anjianywzt": "专利权维持",
        "attention": false
      },
      {
        "zhuanlisqh": "2022234056518",
        "famingzlsqgbg": null,
        "shouquanggh": "CN219457848U",
        "zhuanlimc": "一种电池快速更换装置",
        "shenqingrxm": "xxxxxxxxxxxxxxxxxxxxxxxx有限公司",
        "zhuanlilx": "2",
        "shenqingr": "2022-12-14",
        "gongkaiggh": null,
        "falvzt": "专利权有效",
        "gongkaiggr": "2023-08-01",
        "shouquanggr": null,
        "zhufenlh": "H01M50/244",
        "anjianbh": null,
        "mingcheng": null,
        "anjianjlwz": null,
        "anjianywzt": "专利权维持",
        "attention": false
      },
      {
        "zhuanlisqh": "2022114906340",
        "famingzlsqgbg": "CN115816447A",
        "shouquanggh": null,
        "zhuanlimc": "一种机械臂视觉伺服控制方法、装置及电子设备",
        "shenqingrxm": "xxxxxxxxxxxxxxxxxxxxxxxx有限公司",
        "zhuanlilx": "1",
        "shenqingr": "2022-11-25",
        "gongkaiggh": null,
        "falvzt": null,
        "gongkaiggr": null,
        "shouquanggr": null,
        "zhufenlh": "B25J9/16",
        "anjianbh": null,
        "mingcheng": null,
        "anjianjlwz": null,
        "anjianywzt": "等待实审提案",
        "attention": false
      },
      {
        "zhuanlisqh": "2022231551354",
        "famingzlsqgbg": null,
        "shouquanggh": "CN218954514U",
        "zhuanlimc": "一种拉绳摆臂调节结构",
        "shenqingrxm": "xxxxxxxxxxxxxxxxxxxxxxxx有限公司",
        "zhuanlilx": "2",
        "shenqingr": "2022-11-25",
        "gongkaiggh": null,
        "falvzt": "专利权有效",
        "gongkaiggr": "2023-05-02",
        "shouquanggr": null,
        "zhufenlh": "F16M11/24",
        "anjianbh": null,
        "mingcheng": null,
        "anjianjlwz": null,
        "anjianywzt": "专利权维持",
        "attention": false
      },
      {
        "zhuanlisqh": "2022114910670",
        "famingzlsqgbg": "CN115978406A",
        "shouquanggh": null,
        "zhuanlimc": "一种挂轨巡检机器人",
        "shenqingrxm": "xxxxxxxxxxxxxxxxxxxxxxxx有限公司",
        "zhuanlilx": "1",
        "shenqingr": "2022-11-25",
        "gongkaiggh": null,
        "falvzt": null,
        "gongkaiggr": null,
        "shouquanggr": null,
        "zhufenlh": "F16M13/02",
        "anjianbh": null,
        "mingcheng": null,
        "anjianjlwz": null,
        "anjianywzt": "等待实审提案",
        "attention": false
      },
      {
        "zhuanlisqh": "2022114906425",
        "famingzlsqgbg": "CN115861801A",
        "shouquanggh": null,
        "zhuanlimc": "指针式仪表识别方法、系统、电子设备及可读存储介质",
        "shenqingrxm": "xxxxxxxxxxxxxxxxxxxxxxxx有限公司",
        "zhuanlilx": "1",
        "shenqingr": "2022-11-25",
        "gongkaiggh": null,
        "falvzt": null,
        "gongkaiggr": null,
        "shouquanggr": null,
        "zhufenlh": "G06V20/10",
        "anjianbh": null,
        "mingcheng": null,
        "anjianjlwz": null,
        "anjianywzt": "等待实审提案",
        "attention": false
      },
      {
        "zhuanlisqh": "2022231552446",
        "famingzlsqgbg": null,
        "shouquanggh": "CN219445104U",
        "zhuanlimc": "一种智能轮式巡检机器人",
        "shenqingrxm": "xxxxxxxxxxxxxxxxxxxxxxxx有限公司",
        "zhuanlilx": "2",
        "shenqingr": "2022-11-25",
        "gongkaiggh": null,
        "falvzt": "专利权有效",
        "gongkaiggr": "2023-08-01",
        "shouquanggr": null,
        "zhufenlh": "B25J11/00",
        "anjianbh": null,
        "mingcheng": null,
        "anjianjlwz": null,
        "anjianywzt": "专利权维持",
        "attention": false
      },
      {
        "zhuanlisqh": "2022231552412",
        "famingzlsqgbg": null,
        "shouquanggh": "CN219170922U",
        "zhuanlimc": "一种挂轨式巡检机器人",
        "shenqingrxm": "xxxxxxxxxxxxxxxxxxxxxxxx有限公司",
        "zhuanlilx": "2",
        "shenqingr": "2022-11-25",
        "gongkaiggh": null,
        "falvzt": "专利权有效",
        "gongkaiggr": "2023-06-13",
        "shouquanggr": null,
        "zhufenlh": "B25J11/00",
        "anjianbh": null,
        "mingcheng": null,
        "anjianjlwz": null,
        "anjianywzt": "专利权维持",
        "attention": false
      },
      {
        "zhuanlisqh": "2022231788425",
        "famingzlsqgbg": null,
        "shouquanggh": "CN219177256U",
        "zhuanlimc": "一种折叠摆臂安装结构",
        "shenqingrxm": "xxxxxxxxxxxxxxxxxxxxxxxx有限公司",
        "zhuanlilx": "2",
        "shenqingr": "2022-11-25",
        "gongkaiggh": null,
        "falvzt": "专利权有效",
        "gongkaiggr": "2023-06-13",
        "shouquanggr": null,
        "zhufenlh": "F16M11/04",
        "anjianbh": null,
        "mingcheng": null,
        "anjianjlwz": null,
        "anjianywzt": "专利权维持",
        "attention": false
      },
      {
        "zhuanlisqh": "2022231552427",
        "famingzlsqgbg": null,
        "shouquanggh": "CN219172385U",
        "zhuanlimc": "挂轨巡检机器人行走驱动结构",
        "shenqingrxm": "xxxxxxxxxxxxxxxxxxxxxxxx有限公司",
        "zhuanlilx": "2",
        "shenqingr": "2022-11-25",
        "gongkaiggh": null,
        "falvzt": "专利权有效",
        "gongkaiggr": "2023-06-13",
        "shouquanggr": null,
        "zhufenlh": "B61B3/02",
        "anjianbh": null,
        "mingcheng": null,
        "anjianjlwz": null,
        "anjianywzt": "专利权维持",
        "attention": false
      },
      {
        "zhuanlisqh": "2022231552431",
        "famingzlsqgbg": null,
        "shouquanggh": "CN219177254U",
        "zhuanlimc": "一种用于安装电机摆臂的巡检小车",
        "shenqingrxm": "xxxxxxxxxxxxxxxxxxxxxxxx有限公司",
        "zhuanlilx": "2",
        "shenqingr": "2022-11-25",
        "gongkaiggh": null,
        "falvzt": "专利权有效",
        "gongkaiggr": "2023-06-13",
        "shouquanggr": null,
        "zhufenlh": "F16M11/04",
        "anjianbh": null,
        "mingcheng": null,
        "anjianjlwz": null,
        "anjianywzt": "专利权维持",
        "attention": false
      },
      {
        "zhuanlisqh": "2022114903427",
        "famingzlsqgbg": "CN115988288A",
        "shouquanggh": null,
        "zhuanlimc": "一种轮式巡检机器人",
        "shenqingrxm": "xxxxxxxxxxxxxxxxxxxxxxxx有限公司",
        "zhuanlilx": "1",
        "shenqingr": "2022-11-25",
        "gongkaiggh": null,
        "falvzt": null,
        "gongkaiggr": null,
        "shouquanggr": null,
        "zhufenlh": "H04N23/23",
        "anjianbh": null,
        "mingcheng": null,
        "anjianjlwz": null,
        "anjianywzt": "等待实审提案",
        "attention": false
      },
      {
        "zhuanlisqh": "2022114903412",
        "famingzlsqgbg": "CN116002558A",
        "shouquanggh": null,
        "zhuanlimc": "一种双电机式升降臂",
        "shenqingrxm": "xxxxxxxxxxxxxxxxxxxxxxxx有限公司",
        "zhuanlilx": "1",
        "shenqingr": "2022-11-25",
        "gongkaiggh": null,
        "falvzt": null,
        "gongkaiggr": null,
        "shouquanggr": null,
        "zhufenlh": "B66F7/06",
        "anjianbh": null,
        "mingcheng": null,
        "anjianjlwz": null,
        "anjianywzt": "等待实审提案",
        "attention": false
      },
      {
        "zhuanlisqh": "2022231553773",
        "famingzlsqgbg": null,
        "shouquanggh": "CN219633769U",
        "zhuanlimc": "一种智能挂轨式巡检机器人",
        "shenqingrxm": "xxxxxxxxxxxxxxxxxxxxxxxx有限公司",
        "zhuanlilx": "2",
        "shenqingr": "2022-11-25",
        "gongkaiggh": null,
        "falvzt": "专利权有效",
        "gongkaiggr": "2023-09-05",
        "shouquanggr": null,
        "zhufenlh": "B25J5/02",
        "anjianbh": null,
        "mingcheng": null,
        "anjianjlwz": null,
        "anjianywzt": "专利权维持",
        "attention": false
      },
      {
        "zhuanlisqh": "2022307643676",
        "famingzlsqgbg": null,
        "shouquanggh": "CN308013598S",
        "zhuanlimc": "氢能源发电车",
        "shenqingrxm": "xxxxxxxxxxxxxxxxxxxxxxxx有限公司",
        "zhuanlilx": "3",
        "shenqingr": "2022-11-16",
        "gongkaiggh": null,
        "falvzt": "专利权有效",
        "gongkaiggr": "2023-05-02",
        "shouquanggr": null,
        "zhufenlh": "1213",
        "anjianbh": null,
        "mingcheng": null,
        "anjianjlwz": null,
        "anjianywzt": "专利权维持",
        "attention": false
      },
      {
        "zhuanlisqh": "2022230355296",
        "famingzlsqgbg": null,
        "shouquanggh": "CN218805254U",
        "zhuanlimc": "一种氢能发电车排氢箱",
        "shenqingrxm": "xxxxxxxxxxxxxxxxxxxxxxxx有限公司",
        "zhuanlilx": "2",
        "shenqingr": "2022-11-15",
        "gongkaiggh": null,
        "falvzt": "专利权有效",
        "gongkaiggr": "2023-04-07",
        "shouquanggr": null,
        "zhufenlh": "B60L50/70",
        "anjianbh": null,
        "mingcheng": null,
        "anjianjlwz": null,
        "anjianywzt": "专利权维持",
        "attention": false
      },
      {
        "zhuanlisqh": "2022230356227",
        "famingzlsqgbg": null,
        "shouquanggh": "CN218806141U",
        "zhuanlimc": "一种氢能发电车及车顶出线口防雨装置",
        "shenqingrxm": "xxxxxxxxxxxxxxxxxxxxxxxx有限公司",
        "zhuanlilx": "2",
        "shenqingr": "2022-11-15",
        "gongkaiggh": null,
        "falvzt": "专利权有效",
        "gongkaiggr": "2023-04-07",
        "shouquanggr": null,
        "zhufenlh": "B62D25/06",
        "anjianbh": null,
        "mingcheng": null,
        "anjianjlwz": null,
        "anjianywzt": "专利权维持",
        "attention": false
      },
      {
        "zhuanlisqh": "2022230357041",
        "famingzlsqgbg": null,
        "shouquanggh": "CN218953407U",
        "zhuanlimc": "一种氢能发电车集水排气箱",
        "shenqingrxm": "xxxxxxxxxxxxxxxxxxxxxxxx有限公司",
        "zhuanlilx": "2",
        "shenqingr": "2022-11-15",
        "gongkaiggh": null,
        "falvzt": "专利权有效",
        "gongkaiggr": "2023-05-02",
        "shouquanggr": null,
        "zhufenlh": "F01N3/00",
        "anjianbh": null,
        "mingcheng": null,
        "anjianjlwz": null,
        "anjianywzt": "专利权维持",
        "attention": false
      },
      {
        "zhuanlisqh": "2022230350521",
        "famingzlsqgbg": null,
        "shouquanggh": "CN218805137U",
        "zhuanlimc": "一种具有通风、防雨功能的车门",
        "shenqingrxm": "xxxxxxxxxxxxxxxxxxxxxxxx有限公司",
        "zhuanlilx": "2",
        "shenqingr": "2022-11-15",
        "gongkaiggh": null,
        "falvzt": "专利权有效",
        "gongkaiggr": "2023-04-07",
        "shouquanggr": null,
        "zhufenlh": "B60J5/04",
        "anjianbh": null,
        "mingcheng": null,
        "anjianjlwz": null,
        "anjianywzt": "专利权维持",
        "attention": false
      },
      {
        "zhuanlisqh": "2022113726001",
        "famingzlsqgbg": "CN115610250A",
        "shouquanggh": null,
        "zhuanlimc": "一种自动充电设备控制方法及系统",
        "shenqingrxm": "xxxxxxxxxxxxxxxxxxxxxxxx有限公司,xxxxxxxxxxxxxxxxxxxxxxxx有限公司",
        "zhuanlilx": "1",
        "shenqingr": "2022-11-03",
        "gongkaiggh": null,
        "falvzt": null,
        "gongkaiggr": null,
        "shouquanggr": null,
        "zhufenlh": "B60L53/00",
        "anjianbh": null,
        "mingcheng": null,
        "anjianjlwz": null,
        "anjianywzt": "等年登印费",
        "attention": false
      },
      {
        "zhuanlisqh": "2022228238468",
        "famingzlsqgbg": null,
        "shouquanggh": "CN218826708U",
        "zhuanlimc": "一种应用于固态切换开关内循环自降温的外壳结构",
        "shenqingrxm": "xxxxxxxxxxxxxxxxxxxxxxxx有限公司",
        "zhuanlilx": "2",
        "shenqingr": "2022-10-25",
        "gongkaiggh": null,
        "falvzt": "专利权有效",
        "gongkaiggr": "2023-04-07",
        "shouquanggr": null,
        "zhufenlh": "H01H9/02",
        "anjianbh": null,
        "mingcheng": null,
        "anjianjlwz": null,
        "anjianywzt": "专利权维持",
        "attention": false
      },
      {
        "zhuanlisqh": "2022306928974",
        "famingzlsqgbg": null,
        "shouquanggh": "CN307958828S",
        "zhuanlimc": "固态切换开关",
        "shenqingrxm": "xxxxxxxxxxxxxxxxxxxxxxxx有限公司",
        "zhuanlilx": "3",
        "shenqingr": "2022-10-20",
        "gongkaiggh": null,
        "falvzt": "专利权有效",
        "gongkaiggr": "2023-04-07",
        "shouquanggr": null,
        "zhufenlh": "1303",
        "anjianbh": null,
        "mingcheng": null,
        "anjianjlwz": null,
        "anjianywzt": "专利权维持",
        "attention": false
      },
      {
        "zhuanlisqh": "202211192936X",
        "famingzlsqgbg": "CN115496896A",
        "shouquanggh": null,
        "zhuanlimc": "充电口识别方法、其装置及电子设备",
        "shenqingrxm": "xxxxxxxxxxxxxxxxxxxxxxxx有限公司,xxxxxxxxxxxxxxxxxxxxxxxx有限公司",
        "zhuanlilx": "1",
        "shenqingr": "2022-09-28",
        "gongkaiggh": null,
        "falvzt": null,
        "gongkaiggr": null,
        "shouquanggr": null,
        "zhufenlh": "G06V10/25",
        "anjianbh": null,
        "mingcheng": null,
        "anjianjlwz": null,
        "anjianywzt": "等待实审提案",
        "attention": false
      },
      {
        "zhuanlisqh": "2022223291302",
        "famingzlsqgbg": null,
        "shouquanggh": "CN218541894U",
        "zhuanlimc": "一种旋转门导向机构",
        "shenqingrxm": "xxxxxxxxxxxxxxxxxxxxxxxx有限公司,xxxxxxxxxxxxxxxxxxxxxxxx有限公司",
        "zhuanlilx": "2",
        "shenqingr": "2022-09-01",
        "gongkaiggh": null,
        "falvzt": "专利权有效",
        "gongkaiggr": "2023-02-28",
        "shouquanggr": null,
        "zhufenlh": "E05B85/00",
        "anjianbh": null,
        "mingcheng": null,
        "anjianjlwz": null,
        "anjianywzt": "专利权维持",
        "attention": false
      },
      {
        "zhuanlisqh": "2022221981229",
        "famingzlsqgbg": null,
        "shouquanggh": "CN218896874U",
        "zhuanlimc": "一种自锁式充电枪",
        "shenqingrxm": "xxxxxxxxxxxxxxxxxxxxxxxx有限公司,xxxxxxxxxxxxxxxxxxxxxxxx有限公司",
        "zhuanlilx": "2",
        "shenqingr": "2022-08-19",
        "gongkaiggh": null,
        "falvzt": "专利权有效",
        "gongkaiggr": "2023-04-21",
        "shouquanggr": null,
        "zhufenlh": "H01R13/62",
        "anjianbh": null,
        "mingcheng": null,
        "anjianjlwz": null,
        "anjianywzt": "专利权维持",
        "attention": false
      },
      {
        "zhuanlisqh": "2022221973684",
        "famingzlsqgbg": null,
        "shouquanggh": "CN218386500U",
        "zhuanlimc": "一种充电枪移动线架",
        "shenqingrxm": "xxxxxxxxxxxxxxxxxxxxxxxx有限公司,xxxxxxxxxxxxxxxxxxxxxxxx有限公司",
        "zhuanlilx": "2",
        "shenqingr": "2022-08-19",
        "gongkaiggh": null,
        "falvzt": "专利权有效",
        "gongkaiggr": "2023-01-24",
        "shouquanggr": null,
        "zhufenlh": "H02G3/02",
        "anjianbh": null,
        "mingcheng": null,
        "anjianjlwz": null,
        "anjianywzt": "专利权维持",
        "attention": false
      },
      {
        "zhuanlisqh": "2022109899718",
        "famingzlsqgbg": "CN115224804A",
        "shouquanggh": null,
        "zhuanlimc": "一种双电源多回路采集终端",
        "shenqingrxm": "xxxxxxxxxxxxxxxxxxxxxxxx有限公司",
        "zhuanlilx": "1",
        "shenqingr": "2022-08-18",
        "gongkaiggh": null,
        "falvzt": null,
        "gongkaiggr": null,
        "shouquanggr": null,
        "zhufenlh": "H02J13/00",
        "anjianbh": null,
        "mingcheng": null,
        "anjianjlwz": null,
        "anjianywzt": "等待实审提案",
        "attention": false
      },
      {
        "zhuanlisqh": "2022221824285",
        "famingzlsqgbg": null,
        "shouquanggh": "CN218456341U",
        "zhuanlimc": "一种配电站室综合监控装置",
        "shenqingrxm": "xxxxxxxxxxxxxxxxxxxxxxxx有限公司",
        "zhuanlilx": "2",
        "shenqingr": "2022-08-18",
        "gongkaiggh": null,
        "falvzt": "专利权有效",
        "gongkaiggr": "2023-02-07",
        "shouquanggr": null,
        "zhufenlh": "H02J13/00",
        "anjianbh": null,
        "mingcheng": null,
        "anjianjlwz": null,
        "anjianywzt": "专利权维持",
        "attention": false
      },
      {
        "zhuanlisqh": "2022221824302",
        "famingzlsqgbg": null,
        "shouquanggh": "CN218472846U",
        "zhuanlimc": "一种双电源多回路采集终端",
        "shenqingrxm": "xxxxxxxxxxxxxxxxxxxxxxxx有限公司",
        "zhuanlilx": "2",
        "shenqingr": "2022-08-18",
        "gongkaiggh": null,
        "falvzt": "专利权有效",
        "gongkaiggr": "2023-02-10",
        "shouquanggr": null,
        "zhufenlh": "H02J13/00",
        "anjianbh": null,
        "mingcheng": null,
        "anjianjlwz": null,
        "anjianywzt": "专利权维持",
        "attention": false
      }
    ],
    "total": 550,
    "pageSize": 50,
    "currentPage": 1,
    "pages": 11
  },
  "msg": "成功"
}