{
  "code": 200,
  "data": {
    "records": [
      {
        "zhuanlisqh": "2013208451077",
        "famingzlsqgbg": null,
        "shouquanggh": "CN203859426U",
        "zhuanlimc": "箱式变电站",
        "shenqingrxm": "xxxxxxxxxxxx公司,xxxxxxxxxxxx公司,xxxxxxxxxxxxxxxxxxxxxxxx有限公司",
        "zhuanlilx": "2",
        "shenqingr": "2013-12-19",
        "gongkaiggh": null,
        "falvzt": "专利权终止",
        "gongkaiggr": "2014-10-01",
        "shouquanggr": null,
        "zhufenlh": "H02B7/06",
        "anjianbh": null,
        "mingcheng": null,
        "anjianjlwz": null,
        "anjianywzt": "届满终止失效",
        "attention": false
      },
      {
        "zhuanlisqh": "2013107068960",
        "famingzlsqgbg": "CN104734056A",
        "shouquanggh": null,
        "zhuanlimc": "箱式变电站",
        "shenqingrxm": "xxxxxxxxxxxx公司,xxxxxxxxxxxx公司,xxxxxxxxxxxxxxxxxxxxxxxx有限公司",
        "zhuanlilx": "1",
        "shenqingr": "2013-12-19",
        "gongkaiggh": null,
        "falvzt": null,
        "gongkaiggr": null,
        "shouquanggr": null,
        "zhufenlh": "H02B7/06",
        "anjianbh": null,
        "mingcheng": null,
        "anjianjlwz": null,
        "anjianywzt": "驳回失效",
        "attention": false
      },
      {
        "zhuanlisqh": "2013207988836",
        "famingzlsqgbg": null,
        "shouquanggh": "CN203589501U",
        "zhuanlimc": "开关柜",
        "shenqingrxm": "xxxxxxxxxxxx公司,xxxxxxxxxxxx公司,xxxxxxxxxxxxxxxxxxxxxxxx有限公司",
        "zhuanlilx": "2",
        "shenqingr": "2013-12-05",
        "gongkaiggh": null,
        "falvzt": "专利权终止",
        "gongkaiggr": "2014-05-07",
        "shouquanggr": null,
        "zhufenlh": "H02B1/26",
        "anjianbh": null,
        "mingcheng": null,
        "anjianjlwz": null,
        "anjianywzt": "届满终止失效",
        "attention": false
      },
      {
        "zhuanlisqh": "2013106533607",
        "famingzlsqgbg": "CN104701750A",
        "shouquanggh": "CN104701750B",
        "zhuanlimc": "开关柜",
        "shenqingrxm": "xxxxxxxxxxxx公司,xxxxxxxxxxxx公司,xxxxxxxxxxxxxxxxxxxxxxxx有限公司",
        "zhuanlilx": "1",
        "shenqingr": "2013-12-05",
        "gongkaiggh": null,
        "falvzt": "专利权有效",
        "gongkaiggr": "2017-09-29",
        "shouquanggr": null,
        "zhufenlh": "H02B1/26",
        "anjianbh": null,
        "mingcheng": null,
        "anjianjlwz": null,
        "anjianywzt": "专利权维持",
        "attention": false
      },
      {
        "zhuanlisqh": "2013304669232",
        "famingzlsqgbg": null,
        "shouquanggh": "CN302748366S",
        "zhuanlimc": "箱式变电站（一字形）",
        "shenqingrxm": "xxxxxxxxxxxx公司,xxxxxxxxxxxx公司,xxxxxxxxxxxxxxxxxxxxxxxx有限公司,xxxxxxxxxxxxxxxxxxxxxxxx有限公司",
        "zhuanlilx": "3",
        "shenqingr": "2013-09-29",
        "gongkaiggh": null,
        "falvzt": "专利权终止",
        "gongkaiggr": "2014-02-26",
        "shouquanggr": null,
        "zhufenlh": "1303",
        "anjianbh": null,
        "mingcheng": null,
        "anjianjlwz": null,
        "anjianywzt": "届满终止失效",
        "attention": false
      },
      {
        "zhuanlisqh": "2013304668827",
        "famingzlsqgbg": null,
        "shouquanggh": "CN302760144S",
        "zhuanlimc": "箱式变电站（叠加形）",
        "shenqingrxm": "xxxxxxxxxxxx公司,xxxxxxxxxxxx公司,xxxxxxxxxxxxxxxxxxxxxxxx有限公司,xxxxxxxxxxxxxxxxxxxxxxxx有限公司",
        "zhuanlilx": "3",
        "shenqingr": "2013-09-29",
        "gongkaiggh": null,
        "falvzt": "专利权终止",
        "gongkaiggr": "2014-03-12",
        "shouquanggr": null,
        "zhufenlh": "1303",
        "anjianbh": null,
        "mingcheng": null,
        "anjianjlwz": null,
        "anjianywzt": "届满终止失效",
        "attention": false
      },
      {
        "zhuanlisqh": "2013304672199",
        "famingzlsqgbg": null,
        "shouquanggh": "CN302748367S",
        "zhuanlimc": "箱式变电站（品字形）",
        "shenqingrxm": "xxxxxxxxxxxx公司,xxxxxxxxxxxx公司,xxxxxxxxxxxxxxxxxxxxxxxx有限公司,xxxxxxxxxxxxxxxxxxxxxxxx有限公司",
        "zhuanlilx": "3",
        "shenqingr": "2013-09-29",
        "gongkaiggh": null,
        "falvzt": "专利权终止",
        "gongkaiggr": "2014-02-26",
        "shouquanggr": null,
        "zhufenlh": "1303",
        "anjianbh": null,
        "mingcheng": null,
        "anjianjlwz": null,
        "anjianywzt": "届满终止失效",
        "attention": false
      },
      {
        "zhuanlisqh": "2013304669228",
        "famingzlsqgbg": null,
        "shouquanggh": "CN302748365S",
        "zhuanlimc": "箱式变电站（柱上变形）",
        "shenqingrxm": "xxxxxxxxxxxx公司,xxxxxxxxxxxx公司,xxxxxxxxxxxxxxxxxxxxxxxx有限公司,xxxxxxxxxxxxxxxxxxxxxxxx有限公司",
        "zhuanlilx": "3",
        "shenqingr": "2013-09-29",
        "gongkaiggh": null,
        "falvzt": "专利权终止",
        "gongkaiggr": "2014-02-26",
        "shouquanggr": null,
        "zhufenlh": "1303",
        "anjianbh": null,
        "mingcheng": null,
        "anjianjlwz": null,
        "anjianywzt": "届满终止失效",
        "attention": false
      },
      {
        "zhuanlisqh": "2013304672201",
        "famingzlsqgbg": null,
        "shouquanggh": "CN302760145S",
        "zhuanlimc": "箱式变电站（L形）",
        "shenqingrxm": "xxxxxxxxxxxx公司,xxxxxxxxxxxx公司,xxxxxxxxxxxxxxxxxxxxxxxx有限公司,xxxxxxxxxxxxxxxxxxxxxxxx有限公司",
        "zhuanlilx": "3",
        "shenqingr": "2013-09-29",
        "gongkaiggh": null,
        "falvzt": "专利权终止",
        "gongkaiggr": "2014-03-12",
        "shouquanggr": null,
        "zhufenlh": "1303",
        "anjianbh": null,
        "mingcheng": null,
        "anjianjlwz": null,
        "anjianywzt": "届满终止失效",
        "attention": false
      },
      {
        "zhuanlisqh": "2013304493521",
        "famingzlsqgbg": null,
        "shouquanggh": "CN302759575S",
        "zhuanlimc": "起吊装置",
        "shenqingrxm": "xxxxxxxxxxxx公司,xxxxxxxxxxxx公司,xxxxxxxxxxxxxxxxxxxxxxxx有限公司",
        "zhuanlilx": "3",
        "shenqingr": "2013-09-18",
        "gongkaiggh": null,
        "falvzt": "专利权终止",
        "gongkaiggr": "2014-03-12",
        "shouquanggr": null,
        "zhufenlh": "1205",
        "anjianbh": null,
        "mingcheng": null,
        "anjianjlwz": null,
        "anjianywzt": "届满终止失效",
        "attention": false
      },
      {
        "zhuanlisqh": "2013104300138",
        "famingzlsqgbg": "CN104444902A",
        "shouquanggh": "CN104444902B",
        "zhuanlimc": "升降装置",
        "shenqingrxm": "xxxxxxxxxxxx公司,xxxxxxxxxxxx公司,xxxxxxxxxxxxxxxxxxxxxxxx有限公司",
        "zhuanlilx": "1",
        "shenqingr": "2013-09-18",
        "gongkaiggh": null,
        "falvzt": "专利权有效",
        "gongkaiggr": "2017-02-08",
        "shouquanggr": null,
        "zhufenlh": "B66D1/60",
        "anjianbh": null,
        "mingcheng": null,
        "anjianjlwz": null,
        "anjianywzt": "专利权维持",
        "attention": false
      },
      {
        "zhuanlisqh": "2013205823576",
        "famingzlsqgbg": null,
        "shouquanggh": "CN203529844U",
        "zhuanlimc": "升降装置",
        "shenqingrxm": "xxxxxxxxxxxx公司,xxxxxxxxxxxx公司,xxxxxxxxxxxxxxxxxxxxxxxx有限公司",
        "zhuanlilx": "2",
        "shenqingr": "2013-09-18",
        "gongkaiggh": null,
        "falvzt": "专利权终止",
        "gongkaiggr": "2014-04-09",
        "shouquanggr": null,
        "zhufenlh": "B66D1/60",
        "anjianbh": null,
        "mingcheng": null,
        "anjianjlwz": null,
        "anjianywzt": "未缴年费终止失效",
        "attention": false
      },
      {
        "zhuanlisqh": "2012206957018",
        "famingzlsqgbg": null,
        "shouquanggh": "CN202997326U",
        "zhuanlimc": "绝缘母线及高压开关装置",
        "shenqingrxm": "xxxxxxxxxxxx公司,北京市电力公司,xxxxxxxxxxxxxxxxxxxxxxxx有限公司",
        "zhuanlilx": "2",
        "shenqingr": "2012-12-14",
        "gongkaiggh": null,
        "falvzt": "专利权终止",
        "gongkaiggr": "2013-06-12",
        "shouquanggr": null,
        "zhufenlh": "H02B1/20",
        "anjianbh": null,
        "mingcheng": null,
        "anjianjlwz": null,
        "anjianywzt": "放弃专利权（重复授权）",
        "attention": false
      },
      {
        "zhuanlisqh": "2012206967683",
        "famingzlsqgbg": null,
        "shouquanggh": "CN202978003U",
        "zhuanlimc": "高压开关装置及箱式变电站",
        "shenqingrxm": "xxxxxxxxxxxx公司,北京市电力公司,xxxxxxxxxxxxxxxxxxxxxxxx有限公司",
        "zhuanlilx": "2",
        "shenqingr": "2012-12-14",
        "gongkaiggh": null,
        "falvzt": "专利权终止",
        "gongkaiggr": "2013-06-05",
        "shouquanggr": null,
        "zhufenlh": "H02B1/20",
        "anjianbh": null,
        "mingcheng": null,
        "anjianjlwz": null,
        "anjianywzt": "届满终止失效",
        "attention": false
      },
      {
        "zhuanlisqh": "2012105457279",
        "famingzlsqgbg": "CN103872592A",
        "shouquanggh": "CN103872592B",
        "zhuanlimc": "绝缘母线及高压开关装置",
        "shenqingrxm": "xxxxxxxxxxxx公司,北京市电力公司,xxxxxxxxxxxxxxxxxxxxxxxx有限公司",
        "zhuanlilx": "1",
        "shenqingr": "2012-12-14",
        "gongkaiggh": null,
        "falvzt": "专利权有效",
        "gongkaiggr": "2016-06-08",
        "shouquanggr": null,
        "zhufenlh": "H02B1/20",
        "anjianbh": null,
        "mingcheng": null,
        "anjianjlwz": null,
        "anjianywzt": "专利权维持",
        "attention": false
      },
      {
        "zhuanlisqh": "2012206960383",
        "famingzlsqgbg": null,
        "shouquanggh": "CN202978049U",
        "zhuanlimc": "户外配电设备",
        "shenqingrxm": "xxxxxxxxxxxx公司,北京市电力公司,xxxxxxxxxxxxxxxxxxxxxxxx有限公司",
        "zhuanlilx": "2",
        "shenqingr": "2012-12-14",
        "gongkaiggh": null,
        "falvzt": "专利权终止",
        "gongkaiggr": "2013-06-05",
        "shouquanggr": null,
        "zhufenlh": "H02B1/56",
        "anjianbh": null,
        "mingcheng": null,
        "anjianjlwz": null,
        "anjianywzt": "届满终止失效",
        "attention": false
      },
      {
        "zhuanlisqh": "2012105446433",
        "famingzlsqgbg": "CN103872589A",
        "shouquanggh": "CN103872589B",
        "zhuanlimc": "应急电源接入箱",
        "shenqingrxm": "xxxxxxxxxxxx公司,北京市电力公司,xxxxxxxxxxxxxxxxxxxxxxxx有限公司",
        "zhuanlilx": "1",
        "shenqingr": "2012-12-14",
        "gongkaiggh": null,
        "falvzt": "专利权有效",
        "gongkaiggr": "2016-05-25",
        "shouquanggr": null,
        "zhufenlh": "H02B1/04",
        "anjianbh": null,
        "mingcheng": null,
        "anjianjlwz": null,
        "anjianywzt": "专利权维持",
        "attention": false
      },
      {
        "zhuanlisqh": "2012206960260",
        "famingzlsqgbg": null,
        "shouquanggh": "CN202977993U",
        "zhuanlimc": "应急电源接入箱",
        "shenqingrxm": "xxxxxxxxxxxx公司,北京市电力公司,xxxxxxxxxxxxxxxxxxxxxxxx有限公司",
        "zhuanlilx": "2",
        "shenqingr": "2012-12-14",
        "gongkaiggh": null,
        "falvzt": "专利权终止",
        "gongkaiggr": "2013-06-05",
        "shouquanggr": null,
        "zhufenlh": "H02B1/04",
        "anjianbh": null,
        "mingcheng": null,
        "anjianjlwz": null,
        "anjianywzt": "届满终止失效",
        "attention": false
      },
      {
        "zhuanlisqh": "2012105403531",
        "famingzlsqgbg": "CN103869202A",
        "shouquanggh": "CN103869202B",
        "zhuanlimc": "变压器高压侧断相的检测方法及系统",
        "shenqingrxm": "xxxxxxxxxxxx公司,北京市电力公司,xxxxxxxxxxxxxxxxxxxxxxxx有限公司",
        "zhuanlilx": "1",
        "shenqingr": "2012-12-13",
        "gongkaiggh": null,
        "falvzt": "专利权有效",
        "gongkaiggr": "2016-07-13",
        "shouquanggr": null,
        "zhufenlh": "G01R31/02",
        "anjianbh": null,
        "mingcheng": null,
        "anjianjlwz": null,
        "anjianywzt": "专利权维持",
        "attention": false
      },
      {
        "zhuanlisqh": "2012206900058",
        "famingzlsqgbg": null,
        "shouquanggh": "CN203191490U",
        "zhuanlimc": "变压器高压侧断相的检测系统",
        "shenqingrxm": "xxxxxxxxxxxx公司,北京市电力公司,xxxxxxxxxxxxxxxxxxxxxxxx有限公司",
        "zhuanlilx": "2",
        "shenqingr": "2012-12-13",
        "gongkaiggh": null,
        "falvzt": "专利权终止",
        "gongkaiggr": "2013-09-11",
        "shouquanggr": null,
        "zhufenlh": "G01R31/02",
        "anjianbh": null,
        "mingcheng": null,
        "anjianjlwz": null,
        "anjianywzt": "届满终止失效",
        "attention": false
      },
      {
        "zhuanlisqh": "2012206826308",
        "famingzlsqgbg": null,
        "shouquanggh": "CN202997345U",
        "zhuanlimc": "应急接入装置",
        "shenqingrxm": "xxxxxxxxxxxx公司,北京市电力公司,xxxxxxxxxxxxxxxxxxxxxxxx有限公司",
        "zhuanlilx": "2",
        "shenqingr": "2012-12-11",
        "gongkaiggh": null,
        "falvzt": "专利权终止",
        "gongkaiggr": "2013-06-12",
        "shouquanggr": null,
        "zhufenlh": "H02B1/26",
        "anjianbh": null,
        "mingcheng": null,
        "anjianjlwz": null,
        "anjianywzt": "届满终止失效",
        "attention": false
      },
      {
        "zhuanlisqh": "2012102468515",
        "famingzlsqgbg": "CN103545722A",
        "shouquanggh": "CN103545722B",
        "zhuanlimc": "智能环网柜的二次控制装置",
        "shenqingrxm": "xxxxxxxxxxxx公司,北京市电力公司,xxxxxxxxxxxxxxxxxxxxxxxx有限公司",
        "zhuanlilx": "1",
        "shenqingr": "2012-07-16",
        "gongkaiggh": null,
        "falvzt": "专利权有效",
        "gongkaiggr": "2016-10-05",
        "shouquanggr": null,
        "zhufenlh": "H02B1/24",
        "anjianbh": null,
        "mingcheng": null,
        "anjianjlwz": null,
        "anjianywzt": "专利权维持",
        "attention": false
      },
      {
        "zhuanlisqh": "2012203452717",
        "famingzlsqgbg": null,
        "shouquanggh": "CN202651633U",
        "zhuanlimc": "智能环网柜的二次控制装置",
        "shenqingrxm": "xxxxxxxxxxxx公司,北京市电力公司,xxxxxxxxxxxxxxxxxxxxxxxx有限公司",
        "zhuanlilx": "2",
        "shenqingr": "2012-07-16",
        "gongkaiggh": null,
        "falvzt": "专利权终止",
        "gongkaiggr": "2013-01-02",
        "shouquanggr": null,
        "zhufenlh": "H02B1/24",
        "anjianbh": null,
        "mingcheng": null,
        "anjianjlwz": null,
        "anjianywzt": "届满终止失效",
        "attention": false
      },
      {
        "zhuanlisqh": "2012200095309",
        "famingzlsqgbg": null,
        "shouquanggh": "CN202384655U",
        "zhuanlimc": "三电源开闭站",
        "shenqingrxm": "xxxxxxxxxxxx公司,北京市电力公司,xxxxxxxxxxxxxxxxxxxxxxxx有限公司",
        "zhuanlilx": "2",
        "shenqingr": "2012-01-10",
        "gongkaiggh": null,
        "falvzt": "专利权终止",
        "gongkaiggr": "2012-08-15",
        "shouquanggr": null,
        "zhufenlh": "H02B1/20",
        "anjianbh": null,
        "mingcheng": null,
        "anjianjlwz": null,
        "anjianywzt": "放弃专利权（重复授权）",
        "attention": false
      },
      {
        "zhuanlisqh": "2012100063919",
        "famingzlsqgbg": "CN103199444A",
        "shouquanggh": "CN103199444B",
        "zhuanlimc": "三电源开闭站",
        "shenqingrxm": "xxxxxxxxxxxx公司,北京市电力公司,xxxxxxxxxxxxxxxxxxxxxxxx有限公司",
        "zhuanlilx": "1",
        "shenqingr": "2012-01-10",
        "gongkaiggh": null,
        "falvzt": "专利权有效",
        "gongkaiggr": "2016-12-14",
        "shouquanggr": null,
        "zhufenlh": "H02B1/20",
        "anjianbh": null,
        "mingcheng": null,
        "anjianjlwz": null,
        "anjianywzt": "专利权维持",
        "attention": false
      },
      {
        "zhuanlisqh": "2011302032517",
        "famingzlsqgbg": null,
        "shouquanggh": "CN301794250S",
        "zhuanlimc": "带电动汽车充电功能的预装式变电站",
        "shenqingrxm": "北京市电力公司,xxxxxxxxxxxxxxxxxxxxxxxx有限公司,xxxxxxxxxxxxxxxxxxxxxxxx有限公司",
        "zhuanlilx": "3",
        "shenqingr": "2011-06-30",
        "gongkaiggh": null,
        "falvzt": "专利权终止",
        "gongkaiggr": "2012-01-11",
        "shouquanggr": null,
        "zhufenlh": "1302",
        "anjianbh": null,
        "mingcheng": null,
        "anjianjlwz": null,
        "anjianywzt": "届满终止失效",
        "attention": false
      },
      {
        "zhuanlisqh": "201130203256X",
        "famingzlsqgbg": null,
        "shouquanggh": "CN301814465S",
        "zhuanlimc": "预装式变电站（带电动汽车充电功能）",
        "shenqingrxm": "北京市电力公司,xxxxxxxxxxxxxxxxxxxxxxxx有限公司,xxxxxxxxxxxxxxxxxxxxxxxx有限公司",
        "zhuanlilx": "3",
        "shenqingr": "2011-06-30",
        "gongkaiggh": null,
        "falvzt": "专利权终止",
        "gongkaiggr": "2012-01-25",
        "shouquanggr": null,
        "zhufenlh": "1302",
        "anjianbh": null,
        "mingcheng": null,
        "anjianjlwz": null,
        "anjianywzt": "届满终止失效",
        "attention": false
      },
      {
        "zhuanlisqh": "2011101744015",
        "famingzlsqgbg": "CN102842951A",
        "shouquanggh": "CN102842951B",
        "zhuanlimc": "低压合环选跳系统",
        "shenqingrxm": "xxxxxxxxxxxx公司,北京市电力公司,xxxxxxxxxxxxxxxxxxxxxxxx有限公司",
        "zhuanlilx": "1",
        "shenqingr": "2011-06-24",
        "gongkaiggh": null,
        "falvzt": "专利权有效",
        "gongkaiggr": "2014-12-10",
        "shouquanggr": null,
        "zhufenlh": "H02J9/06",
        "anjianbh": null,
        "mingcheng": null,
        "anjianjlwz": null,
        "anjianywzt": "专利权维持",
        "attention": false
      },
      {
        "zhuanlisqh": "2011202185589",
        "famingzlsqgbg": null,
        "shouquanggh": "CN202127282U",
        "zhuanlimc": "低压合环选跳系统",
        "shenqingrxm": "北京市电力公司,xxxxxxxxxxxxxxxxxxxxxxxx有限公司",
        "zhuanlilx": "2",
        "shenqingr": "2011-06-24",
        "gongkaiggh": null,
        "falvzt": "专利权终止",
        "gongkaiggr": "2012-01-25",
        "shouquanggr": null,
        "zhufenlh": "H02J9/06",
        "anjianbh": null,
        "mingcheng": null,
        "anjianjlwz": null,
        "anjianywzt": "届满终止失效",
        "attention": false
      },
      {
        "zhuanlisqh": "2011201241219",
        "famingzlsqgbg": null,
        "shouquanggh": "CN202094511U",
        "zhuanlimc": "地埋式变电站",
        "shenqingrxm": "xxxxxxxxxxxx公司,北京市电力公司,xxxxxxxxxxxxxxxxxxxxxxxx有限公司",
        "zhuanlilx": "2",
        "shenqingr": "2011-04-25",
        "gongkaiggh": null,
        "falvzt": "专利权终止",
        "gongkaiggr": "2011-12-28",
        "shouquanggr": null,
        "zhufenlh": "H02B5/00",
        "anjianbh": null,
        "mingcheng": null,
        "anjianjlwz": null,
        "anjianywzt": "届满终止失效",
        "attention": false
      },
      {
        "zhuanlisqh": "2011300707039",
        "famingzlsqgbg": null,
        "shouquanggh": "CN301686135S",
        "zhuanlimc": "预装式箱式变电站（三）",
        "shenqingrxm": "北京市电力公司,xxxxxxxxxxxxxxxxxxxxxxxx有限公司",
        "zhuanlilx": "3",
        "shenqingr": "2011-04-08",
        "gongkaiggh": null,
        "falvzt": "专利权终止",
        "gongkaiggr": "2011-09-28",
        "shouquanggr": null,
        "zhufenlh": "1303",
        "anjianbh": null,
        "mingcheng": null,
        "anjianjlwz": null,
        "anjianywzt": "届满终止失效",
        "attention": false
      },
      {
        "zhuanlisqh": "2011300590580",
        "famingzlsqgbg": null,
        "shouquanggh": "CN301648849S",
        "zhuanlimc": "预装式箱式变电站（二）",
        "shenqingrxm": "xxxxxxxxxxxx公司,北京市电力公司,xxxxxxxxxxxxxxxxxxxxxxxx有限公司",
        "zhuanlilx": "3",
        "shenqingr": "2011-03-29",
        "gongkaiggh": null,
        "falvzt": "专利权终止",
        "gongkaiggr": "2011-08-17",
        "shouquanggr": null,
        "zhufenlh": "2503",
        "anjianbh": null,
        "mingcheng": null,
        "anjianjlwz": null,
        "anjianywzt": "届满终止失效",
        "attention": false
      },
      {
        "zhuanlisqh": "2011300590631",
        "famingzlsqgbg": null,
        "shouquanggh": "CN301655875S",
        "zhuanlimc": "预装式箱式变电站（一）",
        "shenqingrxm": "xxxxxxxxxxxx公司,北京市电力公司,xxxxxxxxxxxxxxxxxxxxxxxx有限公司",
        "zhuanlilx": "3",
        "shenqingr": "2011-03-29",
        "gongkaiggh": null,
        "falvzt": "专利权终止",
        "gongkaiggr": "2011-08-24",
        "shouquanggr": null,
        "zhufenlh": "2503",
        "anjianbh": null,
        "mingcheng": null,
        "anjianjlwz": null,
        "anjianywzt": "届满终止失效",
        "attention": false
      },
      {
        "zhuanlisqh": "2011300590608",
        "famingzlsqgbg": null,
        "shouquanggh": "CN301673632S",
        "zhuanlimc": "预装式箱式变电站（四）",
        "shenqingrxm": "xxxxxxxxxxxx公司,北京市电力公司,xxxxxxxxxxxxxxxxxxxxxxxx有限公司",
        "zhuanlilx": "3",
        "shenqingr": "2011-03-29",
        "gongkaiggh": null,
        "falvzt": "专利权终止",
        "gongkaiggr": "2011-09-14",
        "shouquanggr": null,
        "zhufenlh": "2503",
        "anjianbh": null,
        "mingcheng": null,
        "anjianjlwz": null,
        "anjianywzt": "届满终止失效",
        "attention": false
      },
      {
        "zhuanlisqh": "2009202230407",
        "famingzlsqgbg": null,
        "shouquanggh": "CN201537845U",
        "zhuanlimc": "铜排冲压孔去毛刺装置",
        "shenqingrxm": "xxxxxxxxxxxx公司,北京市电力公司,xxxxxxxxxxxxxxxxxxxxxxxx有限公司",
        "zhuanlilx": "2",
        "shenqingr": "2009-09-24",
        "gongkaiggh": null,
        "falvzt": "专利权终止",
        "gongkaiggr": "2010-08-04",
        "shouquanggr": null,
        "zhufenlh": "B24B9/04",
        "anjianbh": null,
        "mingcheng": null,
        "anjianjlwz": null,
        "anjianywzt": "届满终止失效",
        "attention": false
      },
      {
        "zhuanlisqh": "2009202230394",
        "famingzlsqgbg": null,
        "shouquanggh": "CN201541063U",
        "zhuanlimc": "中置柜核相专用活门控制器",
        "shenqingrxm": "xxxxxxxxxxxx公司,北京市电力公司,xxxxxxxxxxxxxxxxxxxxxxxx有限公司",
        "zhuanlilx": "2",
        "shenqingr": "2009-09-24",
        "gongkaiggh": null,
        "falvzt": "专利权终止",
        "gongkaiggr": "2010-08-04",
        "shouquanggr": null,
        "zhufenlh": "H02B1/26",
        "anjianbh": null,
        "mingcheng": null,
        "anjianjlwz": null,
        "anjianywzt": "届满终止失效",
        "attention": false
      },
      {
        "zhuanlisqh": "2009202228835",
        "famingzlsqgbg": null,
        "shouquanggh": "CN201541066U",
        "zhuanlimc": "局部地埋型预装式变电站通风结构",
        "shenqingrxm": "xxxxxxxxxxxx公司,北京市电力公司,xxxxxxxxxxxxxxxxxxxxxxxx有限公司",
        "zhuanlilx": "2",
        "shenqingr": "2009-09-22",
        "gongkaiggh": null,
        "falvzt": "专利权终止",
        "gongkaiggr": "2010-08-04",
        "shouquanggr": null,
        "zhufenlh": "H02B1/56",
        "anjianbh": null,
        "mingcheng": null,
        "anjianjlwz": null,
        "anjianywzt": "届满终止失效",
        "attention": false
      },
      {
        "zhuanlisqh": "2009202230021",
        "famingzlsqgbg": null,
        "shouquanggh": "CN201584804U",
        "zhuanlimc": "发电车低压应急接入装置",
        "shenqingrxm": "xxxxxxxxxxxx公司,北京市电力公司,xxxxxxxxxxxxxxxxxxxxxxxx有限公司",
        "zhuanlilx": "2",
        "shenqingr": "2009-09-18",
        "gongkaiggh": null,
        "falvzt": "专利权终止",
        "gongkaiggr": "2010-09-15",
        "shouquanggr": null,
        "zhufenlh": "H02J9/00",
        "anjianbh": null,
        "mingcheng": null,
        "anjianjlwz": null,
        "anjianywzt": "届满终止失效",
        "attention": false
      },
      {
        "zhuanlisqh": "2009202230017",
        "famingzlsqgbg": null,
        "shouquanggh": "CN201576862U",
        "zhuanlimc": "用于插接电流试验端子的短封件",
        "shenqingrxm": "xxxxxxxxxxxx公司,北京市电力公司,xxxxxxxxxxxxxxxxxxxxxxxx有限公司",
        "zhuanlilx": "2",
        "shenqingr": "2009-09-18",
        "gongkaiggh": null,
        "falvzt": "专利权终止",
        "gongkaiggr": "2010-09-08",
        "shouquanggr": null,
        "zhufenlh": "H01R31/08",
        "anjianbh": null,
        "mingcheng": null,
        "anjianjlwz": null,
        "anjianywzt": "届满终止失效",
        "attention": false
      },
      {
        "zhuanlisqh": "2009302089240",
        "famingzlsqgbg": null,
        "shouquanggh": "CN301253871S",
        "zhuanlimc": "低压动力配电箱",
        "shenqingrxm": "xxxxxxxxxxxx公司,北京市电力公司,xxxxxxxxxxxxxxxxxxxxxxxx有限公司",
        "zhuanlilx": "3",
        "shenqingr": "2009-09-16",
        "gongkaiggh": null,
        "falvzt": "专利权终止",
        "gongkaiggr": "2010-06-09",
        "shouquanggr": null,
        "zhufenlh": "1303",
        "anjianbh": null,
        "mingcheng": null,
        "anjianjlwz": null,
        "anjianywzt": "届满终止失效",
        "attention": false
      },
      {
        "zhuanlisqh": "2009302089236",
        "famingzlsqgbg": null,
        "shouquanggh": "CN301245732S",
        "zhuanlimc": "低压动力配电箱",
        "shenqingrxm": "xxxxxxxxxxxx公司,北京市电力公司,xxxxxxxxxxxxxxxxxxxxxxxx有限公司",
        "zhuanlilx": "3",
        "shenqingr": "2009-09-16",
        "gongkaiggh": null,
        "falvzt": "专利权终止",
        "gongkaiggr": "2010-06-02",
        "shouquanggr": null,
        "zhufenlh": "1303",
        "anjianbh": null,
        "mingcheng": null,
        "anjianjlwz": null,
        "anjianywzt": "届满终止失效",
        "attention": false
      },
      {
        "zhuanlisqh": "2009202227724",
        "famingzlsqgbg": null,
        "shouquanggh": "CN201522506U",
        "zhuanlimc": "计量箱",
        "shenqingrxm": "xxxxxxxxxxxx公司,北京市电力公司,xxxxxxxxxxxxxxxxxxxxxxxx有限公司",
        "zhuanlilx": "2",
        "shenqingr": "2009-09-16",
        "gongkaiggh": null,
        "falvzt": "专利权终止",
        "gongkaiggr": "2010-07-07",
        "shouquanggr": null,
        "zhufenlh": "G01R1/04",
        "anjianbh": null,
        "mingcheng": null,
        "anjianjlwz": null,
        "anjianywzt": "届满终止失效",
        "attention": false
      },
      {
        "zhuanlisqh": "2006303134771",
        "famingzlsqgbg": null,
        "shouquanggh": "CN300715625S",
        "zhuanlimc": "预装式变电站非金属壳体",
        "shenqingrxm": "xxxxxxxxxxxxxxxxxxxxxxxx有限公司",
        "zhuanlilx": "3",
        "shenqingr": "2006-12-29",
        "gongkaiggh": null,
        "falvzt": "专利权终止",
        "gongkaiggr": "2007-12-05",
        "shouquanggr": null,
        "zhufenlh": "1303",
        "anjianbh": null,
        "mingcheng": null,
        "anjianjlwz": null,
        "anjianywzt": "未缴年费终止失效",
        "attention": false
      },
      {
        "zhuanlisqh": "2006201760012",
        "famingzlsqgbg": null,
        "shouquanggh": "CN200992818U",
        "zhuanlimc": "预装式变电站非金属外壳体",
        "shenqingrxm": "xxxxxxxxxxxxxxxxxxxxxxxx有限公司",
        "zhuanlilx": "2",
        "shenqingr": "2006-12-29",
        "gongkaiggh": null,
        "falvzt": "专利权终止",
        "gongkaiggr": "2007-12-19",
        "shouquanggr": null,
        "zhufenlh": "E04H5/04",
        "anjianbh": null,
        "mingcheng": null,
        "anjianjlwz": null,
        "anjianywzt": "未缴年费终止失效",
        "attention": false
      },
      {
        "zhuanlisqh": "2006301967085",
        "famingzlsqgbg": null,
        "shouquanggh": "CN300708440S",
        "zhuanlimc": "低压电容开关柜",
        "shenqingrxm": "xxxxxxxxxxxxxxxxxxxxxxxx有限公司",
        "zhuanlilx": "3",
        "shenqingr": "2006-11-24",
        "gongkaiggh": null,
        "falvzt": "专利权终止",
        "gongkaiggr": "2007-11-14",
        "shouquanggr": null,
        "zhufenlh": "1303",
        "anjianbh": null,
        "mingcheng": null,
        "anjianjlwz": null,
        "anjianywzt": "未缴年费终止失效",
        "attention": false
      },
      {
        "zhuanlisqh": "2006301967070",
        "famingzlsqgbg": null,
        "shouquanggh": "CN300710389S",
        "zhuanlimc": "低压联络开关柜",
        "shenqingrxm": "xxxxxxxxxxxxxxxxxxxxxxxx有限公司",
        "zhuanlilx": "3",
        "shenqingr": "2006-11-24",
        "gongkaiggh": null,
        "falvzt": "专利权终止",
        "gongkaiggr": "2007-11-21",
        "shouquanggr": null,
        "zhufenlh": "1303",
        "anjianbh": null,
        "mingcheng": null,
        "anjianjlwz": null,
        "anjianywzt": "未缴年费终止失效",
        "attention": false
      },
      {
        "zhuanlisqh": "2006301967051",
        "famingzlsqgbg": null,
        "shouquanggh": "CN300708439S",
        "zhuanlimc": "低压进线开关柜",
        "shenqingrxm": "xxxxxxxxxxxxxxxxxxxxxxxx有限公司",
        "zhuanlilx": "3",
        "shenqingr": "2006-11-24",
        "gongkaiggh": null,
        "falvzt": "专利权终止",
        "gongkaiggr": "2007-11-14",
        "shouquanggr": null,
        "zhufenlh": "1303",
        "anjianbh": null,
        "mingcheng": null,
        "anjianjlwz": null,
        "anjianywzt": "未缴年费终止失效",
        "attention": false
      },
      {
        "zhuanlisqh": "2006301967066",
        "famingzlsqgbg": null,
        "shouquanggh": "CN300715608S",
        "zhuanlimc": "低压出线开关柜",
        "shenqingrxm": "xxxxxxxxxxxxxxxxxxxxxxxx有限公司",
        "zhuanlilx": "3",
        "shenqingr": "2006-11-24",
        "gongkaiggh": null,
        "falvzt": "专利权终止",
        "gongkaiggr": "2007-12-05",
        "shouquanggr": null,
        "zhufenlh": "1303",
        "anjianbh": null,
        "mingcheng": null,
        "anjianjlwz": null,
        "anjianywzt": "未缴年费终止失效",
        "attention": false
      },
      {
        "zhuanlisqh": "200520144241X",
        "famingzlsqgbg": null,
        "shouquanggh": "CN2914101U",
        "zhuanlimc": "一种接线判别装置",
        "shenqingrxm": "xxxxxxxxxxxx厂",
        "zhuanlilx": "2",
        "shenqingr": "2005-12-13",
        "gongkaiggh": null,
        "falvzt": null,
        "gongkaiggr": "2007-06-20",
        "shouquanggr": null,
        "zhufenlh": "G01R31/02",
        "anjianbh": null,
        "mingcheng": null,
        "anjianjlwz": null,
        "anjianywzt": "",
        "attention": false
      },
      {
        "zhuanlisqh": "2005101304876",
        "famingzlsqgbg": "CN1776440A",
        "shouquanggh": "CN100501429B",
        "zhuanlimc": "一种接线判别装置和方法",
        "shenqingrxm": "xxxxxxxxxxxx厂",
        "zhuanlilx": "1",
        "shenqingr": "2005-12-13",
        "gongkaiggh": null,
        "falvzt": null,
        "gongkaiggr": "2009-06-17",
        "shouquanggr": null,
        "zhufenlh": "G01R31/02",
        "anjianbh": null,
        "mingcheng": null,
        "anjianjlwz": null,
        "anjianywzt": "未缴年费终止失效",
        "attention": false
      }
    ],
    "total": 550,
    "pageSize": 50,
    "currentPage": 11,
    "pages": 11
  },
  "msg": "成功"
}