{
  "code": 200,
  "data": {
    "records": [
      {
        "zhuanlisqh": "2022109899597",
        "famingzlsqgbg": "CN115276237A",
        "shouquanggh": null,
        "zhuanlimc": "一种配电站室综合监控装置",
        "shenqingrxm": "xxxxxxxxxxxxxxxxxxxxxxxx有限公司",
        "zhuanlilx": "1",
        "shenqingr": "2022-08-18",
        "gongkaiggh": null,
        "falvzt": null,
        "gongkaiggr": null,
        "shouquanggr": null,
        "zhufenlh": "H02J13/00",
        "anjianbh": null,
        "mingcheng": null,
        "anjianjlwz": null,
        "anjianywzt": "等待实审提案",
        "attention": false
      },
      {
        "zhuanlisqh": "2022221551517",
        "famingzlsqgbg": null,
        "shouquanggh": "CN218470896U",
        "zhuanlimc": "一种高频局放传感器的紧固机构",
        "shenqingrxm": "xxxxxxxxxxxxxxxxxxxxxxxx有限公司",
        "zhuanlilx": "2",
        "shenqingr": "2022-08-16",
        "gongkaiggh": null,
        "falvzt": "专利权有效",
        "gongkaiggr": "2023-02-10",
        "shouquanggr": null,
        "zhufenlh": "G01R31/12",
        "anjianbh": null,
        "mingcheng": null,
        "anjianjlwz": null,
        "anjianywzt": "专利权维持",
        "attention": false
      },
      {
        "zhuanlisqh": "2022221692962",
        "famingzlsqgbg": null,
        "shouquanggh": "CN218068611U",
        "zhuanlimc": "一种配电终端北斗对时装置",
        "shenqingrxm": "xxxxxxxxxxxxxxxxxxxxxxxx有限公司",
        "zhuanlilx": "2",
        "shenqingr": "2022-08-16",
        "gongkaiggh": null,
        "falvzt": "专利权有效",
        "gongkaiggr": "2022-12-16",
        "shouquanggr": null,
        "zhufenlh": "G04R20/02",
        "anjianbh": null,
        "mingcheng": null,
        "anjianjlwz": null,
        "anjianywzt": "专利权维持",
        "attention": false
      },
      {
        "zhuanlisqh": "2022220648553",
        "famingzlsqgbg": null,
        "shouquanggh": "CN218150500U",
        "zhuanlimc": "自动旋转门装置",
        "shenqingrxm": "xxxxxxxxxxxxxxxxxxxxxxxx有限公司,xxxxxxxxxxxxxxxxxxxxxxxx有限公司",
        "zhuanlilx": "2",
        "shenqingr": "2022-08-05",
        "gongkaiggh": null,
        "falvzt": "专利权有效",
        "gongkaiggr": "2022-12-27",
        "shouquanggr": null,
        "zhufenlh": "E06B3/40",
        "anjianbh": null,
        "mingcheng": null,
        "anjianjlwz": null,
        "anjianywzt": "专利权维持",
        "attention": false
      },
      {
        "zhuanlisqh": "2022220498490",
        "famingzlsqgbg": null,
        "shouquanggh": "CN218708289U",
        "zhuanlimc": "一种新能源汽车充电站用充电线收纳结构",
        "shenqingrxm": "xxxxxxxxxxxxxxxxxxxxxxxx有限公司,xxxxxxxxxxxxxxxxxxxxxxxx有限公司",
        "zhuanlilx": "2",
        "shenqingr": "2022-08-04",
        "gongkaiggh": null,
        "falvzt": "专利权有效",
        "gongkaiggr": "2023-03-24",
        "shouquanggr": null,
        "zhufenlh": "B65H75/38",
        "anjianbh": null,
        "mingcheng": null,
        "anjianjlwz": null,
        "anjianywzt": "专利权维持",
        "attention": false
      },
      {
        "zhuanlisqh": "2022219156702",
        "famingzlsqgbg": null,
        "shouquanggh": "CN218141090U",
        "zhuanlimc": "一种用于充电枪的电缆智能收放设备",
        "shenqingrxm": "xxxxxxxxxxxxxxxxxxxxxxxx有限公司,xxxxxxxxxxxxxxxxxxxxxxxx有限公司",
        "zhuanlilx": "2",
        "shenqingr": "2022-07-21",
        "gongkaiggh": null,
        "falvzt": "专利权有效",
        "gongkaiggr": "2022-12-27",
        "shouquanggr": null,
        "zhufenlh": "B60L53/31",
        "anjianbh": null,
        "mingcheng": null,
        "anjianjlwz": null,
        "anjianywzt": "专利权维持",
        "attention": false
      },
      {
        "zhuanlisqh": "2022218009481",
        "famingzlsqgbg": null,
        "shouquanggh": "CN218470894U",
        "zhuanlimc": "一种基于脉冲电流法的设备局部放电告警装置",
        "shenqingrxm": "xxxxxxxxxxxxxxxxxxxxxxxx有限公司",
        "zhuanlilx": "2",
        "shenqingr": "2022-07-12",
        "gongkaiggh": null,
        "falvzt": "专利权有效",
        "gongkaiggr": "2023-02-10",
        "shouquanggr": null,
        "zhufenlh": "G01R31/12",
        "anjianbh": null,
        "mingcheng": null,
        "anjianjlwz": null,
        "anjianywzt": "专利权维持",
        "attention": false
      },
      {
        "zhuanlisqh": "2022108203117",
        "famingzlsqgbg": "CN115932462A",
        "shouquanggh": null,
        "zhuanlimc": "一种配电设备故障检测装置",
        "shenqingrxm": "xxxxxxxxxxxxxxxxxxxxxxxx有限公司",
        "zhuanlilx": "1",
        "shenqingr": "2022-07-12",
        "gongkaiggh": null,
        "falvzt": null,
        "gongkaiggr": null,
        "shouquanggr": null,
        "zhufenlh": "G01R31/08",
        "anjianbh": null,
        "mingcheng": null,
        "anjianjlwz": null,
        "anjianywzt": "等待实审提案",
        "attention": false
      },
      {
        "zhuanlisqh": "2022108225614",
        "famingzlsqgbg": "CN115291050A",
        "shouquanggh": null,
        "zhuanlimc": "一种基于脉冲电流法的设备局部放电告警装置",
        "shenqingrxm": "xxxxxxxxxxxxxxxxxxxxxxxx有限公司",
        "zhuanlilx": "1",
        "shenqingr": "2022-07-12",
        "gongkaiggh": null,
        "falvzt": null,
        "gongkaiggr": null,
        "shouquanggr": null,
        "zhufenlh": "G01R31/12",
        "anjianbh": null,
        "mingcheng": null,
        "anjianjlwz": null,
        "anjianywzt": "等待实审提案",
        "attention": false
      },
      {
        "zhuanlisqh": "2022218009496",
        "famingzlsqgbg": null,
        "shouquanggh": "CN218455759U",
        "zhuanlimc": "一种配电设备故障检测装置",
        "shenqingrxm": "xxxxxxxxxxxxxxxxxxxxxxxx有限公司",
        "zhuanlilx": "2",
        "shenqingr": "2022-07-12",
        "gongkaiggh": null,
        "falvzt": "专利权有效",
        "gongkaiggr": "2023-02-07",
        "shouquanggr": null,
        "zhufenlh": "G01R31/08",
        "anjianbh": null,
        "mingcheng": null,
        "anjianjlwz": null,
        "anjianywzt": "专利权维持",
        "attention": false
      },
      {
        "zhuanlisqh": "2022217172768",
        "famingzlsqgbg": null,
        "shouquanggh": "CN218141064U",
        "zhuanlimc": "一种充电枪抓取结构",
        "shenqingrxm": "xxxxxxxxxxxxxxxxxxxxxxxx有限公司,xxxxxxxxxxxxxxxxxxxxxxxx有限公司",
        "zhuanlilx": "2",
        "shenqingr": "2022-07-05",
        "gongkaiggh": null,
        "falvzt": "专利权有效",
        "gongkaiggr": "2022-12-27",
        "shouquanggr": null,
        "zhufenlh": "B60L53/16",
        "anjianbh": null,
        "mingcheng": null,
        "anjianjlwz": null,
        "anjianywzt": "专利权维持",
        "attention": false
      },
      {
        "zhuanlisqh": "2022217164333",
        "famingzlsqgbg": null,
        "shouquanggh": "CN218161029U",
        "zhuanlimc": "一种充电枪充电定位结构",
        "shenqingrxm": "xxxxxxxxxxxxxxxxxxxxxxxx有限公司,xxxxxxxxxxxxxxxxxxxxxxxx有限公司",
        "zhuanlilx": "2",
        "shenqingr": "2022-07-05",
        "gongkaiggh": null,
        "falvzt": "专利权有效",
        "gongkaiggr": "2022-12-27",
        "shouquanggr": null,
        "zhufenlh": "H01R13/629",
        "anjianbh": null,
        "mingcheng": null,
        "anjianjlwz": null,
        "anjianywzt": "专利权维持",
        "attention": false
      },
      {
        "zhuanlisqh": "2022212778076",
        "famingzlsqgbg": null,
        "shouquanggh": "CN218295359U",
        "zhuanlimc": "一种氢气安全检测装置",
        "shenqingrxm": "xxxxxxxxxxxxxxxxxxxxxxxx有限公司",
        "zhuanlilx": "2",
        "shenqingr": "2022-05-25",
        "gongkaiggh": null,
        "falvzt": "专利权有效",
        "gongkaiggr": "2023-01-13",
        "shouquanggr": null,
        "zhufenlh": "F17D5/02",
        "anjianbh": null,
        "mingcheng": null,
        "anjianjlwz": null,
        "anjianywzt": "专利权维持",
        "attention": false
      },
      {
        "zhuanlisqh": "2022212760068",
        "famingzlsqgbg": null,
        "shouquanggh": "CN217824269U",
        "zhuanlimc": "一种氢能源发电辅助供电系统",
        "shenqingrxm": "xxxxxxxxxxxxxxxxxxxxxxxx有限公司",
        "zhuanlilx": "2",
        "shenqingr": "2022-05-25",
        "gongkaiggh": null,
        "falvzt": "专利权有效",
        "gongkaiggr": "2022-11-15",
        "shouquanggr": null,
        "zhufenlh": "H02J3/00",
        "anjianbh": null,
        "mingcheng": null,
        "anjianjlwz": null,
        "anjianywzt": "专利权维持",
        "attention": false
      },
      {
        "zhuanlisqh": "202221310984X",
        "famingzlsqgbg": null,
        "shouquanggh": "CN218276194U",
        "zhuanlimc": "一种用户负荷接入管理系统",
        "shenqingrxm": "xxxxxxxxxxxxxxxxxxxxxxxx有限公司",
        "zhuanlilx": "2",
        "shenqingr": "2022-05-25",
        "gongkaiggh": null,
        "falvzt": "专利权有效",
        "gongkaiggr": "2023-01-10",
        "shouquanggr": null,
        "zhufenlh": "H02J13/00",
        "anjianbh": null,
        "mingcheng": null,
        "anjianjlwz": null,
        "anjianywzt": "专利权维持",
        "attention": false
      },
      {
        "zhuanlisqh": "2022212857792",
        "famingzlsqgbg": null,
        "shouquanggh": "CN218070679U",
        "zhuanlimc": "一种轻量可抽出式配电箱",
        "shenqingrxm": "xxxxxxxxxxxxxxxxxxxxxxxx有限公司",
        "zhuanlilx": "2",
        "shenqingr": "2022-05-25",
        "gongkaiggh": null,
        "falvzt": "专利权有效",
        "gongkaiggr": "2022-12-16",
        "shouquanggr": null,
        "zhufenlh": "H02B1/46",
        "anjianbh": null,
        "mingcheng": null,
        "anjianjlwz": null,
        "anjianywzt": "专利权维持",
        "attention": false
      },
      {
        "zhuanlisqh": "2022303144081",
        "famingzlsqgbg": null,
        "shouquanggh": "CN308078306S",
        "zhuanlimc": "轻量可抽出式配电箱",
        "shenqingrxm": "xxxxxxxxxxxxxxxxxxxxxxxx有限公司",
        "zhuanlilx": "3",
        "shenqingr": "2022-05-25",
        "gongkaiggh": null,
        "falvzt": "专利权有效",
        "gongkaiggr": "2023-06-13",
        "shouquanggr": null,
        "zhufenlh": "1303",
        "anjianbh": null,
        "mingcheng": null,
        "anjianjlwz": null,
        "anjianywzt": "专利权维持",
        "attention": false
      },
      {
        "zhuanlisqh": "202221172652X",
        "famingzlsqgbg": null,
        "shouquanggh": "CN217801664U",
        "zhuanlimc": "协作操作巡检机器人",
        "shenqingrxm": "xxxxxxxxxxxxxxxxxxxxxxxx有限公司",
        "zhuanlilx": "2",
        "shenqingr": "2022-05-14",
        "gongkaiggh": null,
        "falvzt": "专利权有效",
        "gongkaiggr": "2022-11-15",
        "shouquanggr": null,
        "zhufenlh": "B25J5/00",
        "anjianbh": null,
        "mingcheng": null,
        "anjianjlwz": null,
        "anjianywzt": "专利权维持",
        "attention": false
      },
      {
        "zhuanlisqh": "2022211726144",
        "famingzlsqgbg": null,
        "shouquanggh": "CN218255159U",
        "zhuanlimc": "一种巡检机器人操作机构",
        "shenqingrxm": "xxxxxxxxxxxxxxxxxxxxxxxx有限公司",
        "zhuanlilx": "2",
        "shenqingr": "2022-05-14",
        "gongkaiggh": null,
        "falvzt": "专利权有效",
        "gongkaiggr": "2023-01-10",
        "shouquanggr": null,
        "zhufenlh": "B25J11/00",
        "anjianbh": null,
        "mingcheng": null,
        "anjianjlwz": null,
        "anjianywzt": "专利权维持",
        "attention": false
      },
      {
        "zhuanlisqh": "2022211766298",
        "famingzlsqgbg": null,
        "shouquanggh": "CN217801665U",
        "zhuanlimc": "协作操作巡检机器人",
        "shenqingrxm": "xxxxxxxxxxxxxxxxxxxxxxxx有限公司",
        "zhuanlilx": "2",
        "shenqingr": "2022-05-14",
        "gongkaiggh": null,
        "falvzt": "专利权有效",
        "gongkaiggr": "2022-11-15",
        "shouquanggr": null,
        "zhufenlh": "B25J5/00",
        "anjianbh": null,
        "mingcheng": null,
        "anjianjlwz": null,
        "anjianywzt": "专利权维持",
        "attention": false
      },
      {
        "zhuanlisqh": "2022211726549",
        "famingzlsqgbg": null,
        "shouquanggh": "CN218248271U",
        "zhuanlimc": "一种应用于机器人的声源定位自动跟踪灭火系统",
        "shenqingrxm": "xxxxxxxxxxxxxxxxxxxxxxxx有限公司",
        "zhuanlilx": "2",
        "shenqingr": "2022-05-14",
        "gongkaiggh": null,
        "falvzt": "专利权有效",
        "gongkaiggr": "2023-01-10",
        "shouquanggr": null,
        "zhufenlh": "A62C37/38",
        "anjianbh": null,
        "mingcheng": null,
        "anjianjlwz": null,
        "anjianywzt": "专利权维持",
        "attention": false
      },
      {
        "zhuanlisqh": "2022211726873",
        "famingzlsqgbg": null,
        "shouquanggh": "CN217815794U",
        "zhuanlimc": "机器人显示屏万向支架",
        "shenqingrxm": "xxxxxxxxxxxxxxxxxxxxxxxx有限公司",
        "zhuanlilx": "2",
        "shenqingr": "2022-05-14",
        "gongkaiggh": null,
        "falvzt": "专利权有效",
        "gongkaiggr": "2022-11-15",
        "shouquanggr": null,
        "zhufenlh": "F16M11/04",
        "anjianbh": null,
        "mingcheng": null,
        "anjianjlwz": null,
        "anjianywzt": "专利权维持",
        "attention": false
      },
      {
        "zhuanlisqh": "2022105237840",
        "famingzlsqgbg": "CN114939250A",
        "shouquanggh": null,
        "zhuanlimc": "一种应用于机器人的声源定位自动跟踪灭火系统",
        "shenqingrxm": "xxxxxxxxxxxxxxxxxxxxxxxx有限公司",
        "zhuanlilx": "1",
        "shenqingr": "2022-05-14",
        "gongkaiggh": null,
        "falvzt": null,
        "gongkaiggr": null,
        "shouquanggr": null,
        "zhufenlh": "A62C37/38",
        "anjianbh": null,
        "mingcheng": null,
        "anjianjlwz": null,
        "anjianywzt": "等待实审提案",
        "attention": false
      },
      {
        "zhuanlisqh": "2022105238059",
        "famingzlsqgbg": "CN114939859A",
        "shouquanggh": null,
        "zhuanlimc": "协作操作巡检机器人",
        "shenqingrxm": "xxxxxxxxxxxxxxxxxxxxxxxx有限公司",
        "zhuanlilx": "1",
        "shenqingr": "2022-05-14",
        "gongkaiggh": null,
        "falvzt": null,
        "gongkaiggr": null,
        "shouquanggr": null,
        "zhufenlh": "B25J5/00",
        "anjianbh": null,
        "mingcheng": null,
        "anjianjlwz": null,
        "anjianywzt": "进入审查",
        "attention": false
      },
      {
        "zhuanlisqh": "2022211128259",
        "famingzlsqgbg": null,
        "shouquanggh": "CN217823938U",
        "zhuanlimc": "一种窄型开关柜",
        "shenqingrxm": "xxxxxxxxxxxxxxxxxxxxxxxx有限公司",
        "zhuanlilx": "2",
        "shenqingr": "2022-05-10",
        "gongkaiggh": null,
        "falvzt": "专利权有效",
        "gongkaiggr": "2022-11-15",
        "shouquanggr": null,
        "zhufenlh": "H02B13/035",
        "anjianbh": null,
        "mingcheng": null,
        "anjianjlwz": null,
        "anjianywzt": "专利权维持",
        "attention": false
      },
      {
        "zhuanlisqh": "2022211164927",
        "famingzlsqgbg": null,
        "shouquanggh": "CN217824421U",
        "zhuanlimc": "一种电力巡检机器人",
        "shenqingrxm": "xxxxxxxxxxxxxxxxxxxxxxxx有限公司",
        "zhuanlilx": "2",
        "shenqingr": "2022-05-10",
        "gongkaiggh": null,
        "falvzt": "专利权有效",
        "gongkaiggr": "2022-11-15",
        "shouquanggr": null,
        "zhufenlh": "H02J13/00",
        "anjianbh": null,
        "mingcheng": null,
        "anjianjlwz": null,
        "anjianywzt": "专利权维持",
        "attention": false
      },
      {
        "zhuanlisqh": "2022105038438",
        "famingzlsqgbg": "CN114899031A",
        "shouquanggh": null,
        "zhuanlimc": "一种开关柜设备操作机构",
        "shenqingrxm": "xxxxxxxxxxxxxxxxxxxxxxxx有限公司",
        "zhuanlilx": "1",
        "shenqingr": "2022-05-10",
        "gongkaiggh": null,
        "falvzt": null,
        "gongkaiggr": null,
        "shouquanggr": null,
        "zhufenlh": "H01H33/66",
        "anjianbh": null,
        "mingcheng": null,
        "anjianjlwz": null,
        "anjianywzt": "等待实审提案",
        "attention": false
      },
      {
        "zhuanlisqh": "2022211167925",
        "famingzlsqgbg": null,
        "shouquanggh": "CN217823939U",
        "zhuanlimc": "一种开关柜设备",
        "shenqingrxm": "xxxxxxxxxxxxxxxxxxxxxxxx有限公司",
        "zhuanlilx": "2",
        "shenqingr": "2022-05-10",
        "gongkaiggh": null,
        "falvzt": "专利权有效",
        "gongkaiggr": "2022-11-15",
        "shouquanggr": null,
        "zhufenlh": "H02B13/035",
        "anjianbh": null,
        "mingcheng": null,
        "anjianjlwz": null,
        "anjianywzt": "专利权维持",
        "attention": false
      },
      {
        "zhuanlisqh": "2022105047102",
        "famingzlsqgbg": "CN114873508A",
        "shouquanggh": null,
        "zhuanlimc": "一种摆臂式升降机构",
        "shenqingrxm": "xxxxxxxxxxxxxxxxxxxxxxxx有限公司",
        "zhuanlilx": "1",
        "shenqingr": "2022-05-10",
        "gongkaiggh": null,
        "falvzt": null,
        "gongkaiggr": null,
        "shouquanggr": null,
        "zhufenlh": "B66F7/06",
        "anjianbh": null,
        "mingcheng": null,
        "anjianjlwz": null,
        "anjianywzt": "等待实审提案",
        "attention": false
      },
      {
        "zhuanlisqh": "2022211164217",
        "famingzlsqgbg": null,
        "shouquanggh": "CN217808534U",
        "zhuanlimc": "一种摆臂式升降机构",
        "shenqingrxm": "xxxxxxxxxxxxxxxxxxxxxxxx有限公司",
        "zhuanlilx": "2",
        "shenqingr": "2022-05-10",
        "gongkaiggh": null,
        "falvzt": "专利权有效",
        "gongkaiggr": "2022-11-15",
        "shouquanggr": null,
        "zhufenlh": "B66F7/06",
        "anjianbh": null,
        "mingcheng": null,
        "anjianjlwz": null,
        "anjianywzt": "专利权维持",
        "attention": false
      },
      {
        "zhuanlisqh": "2022210678887",
        "famingzlsqgbg": null,
        "shouquanggh": "CN217823936U",
        "zhuanlimc": "一种配电环网柜顶部二次小室",
        "shenqingrxm": "xxxxxxxxxxxxxxxxxxxxxxxx有限公司",
        "zhuanlilx": "2",
        "shenqingr": "2022-05-06",
        "gongkaiggh": null,
        "falvzt": "专利权有效",
        "gongkaiggr": "2022-11-15",
        "shouquanggr": null,
        "zhufenlh": "H02B11/173",
        "anjianbh": null,
        "mingcheng": null,
        "anjianjlwz": null,
        "anjianywzt": "专利权维持",
        "attention": false
      },
      {
        "zhuanlisqh": "2022103918132",
        "famingzlsqgbg": "CN114997428A",
        "shouquanggh": null,
        "zhuanlimc": "站室供电故障处理方法、装置、电子设备及存储介质",
        "shenqingrxm": "xxxxxxxxxxxx公司,xxxxxxxxxxxxxxxxxxxxxxxx有限公司,xxxxxxxxxxxxxxxxxxxxxxxx有限公司,xxxxxxxxxxxxxxxxxxxxxxxx有限公司,xxxxxxxxxxxxxxxxxxxxxxxx有限公司",
        "zhuanlilx": "1",
        "shenqingr": "2022-04-14",
        "gongkaiggh": null,
        "falvzt": null,
        "gongkaiggr": null,
        "shouquanggr": null,
        "zhufenlh": "G06Q10/00",
        "anjianbh": null,
        "mingcheng": null,
        "anjianjlwz": null,
        "anjianywzt": "驳回等复审请求",
        "attention": false
      },
      {
        "zhuanlisqh": "2022103903940",
        "famingzlsqgbg": "CN114792367A",
        "shouquanggh": null,
        "zhuanlimc": "电网接线图中元件的识别方法、装置、设备及存储介质",
        "shenqingrxm": "xxxxxxxxxxxx公司,xxxxxxxxxxxxxxxxxxxxxxxx有限公司,xxxxxxxxxxxxxxxxxxxxxxxx有限公司,xxxxxxxxxxxxxxxxxxxxxxxx有限公司,xxxxxxxxxxxxxxxxxxxxxxxx有限公司",
        "zhuanlilx": "1",
        "shenqingr": "2022-04-14",
        "gongkaiggh": null,
        "falvzt": null,
        "gongkaiggr": null,
        "shouquanggr": null,
        "zhufenlh": "G06V10/22",
        "anjianbh": null,
        "mingcheng": null,
        "anjianjlwz": null,
        "anjianywzt": "一通出案待答复",
        "attention": false
      },
      {
        "zhuanlisqh": "2022207690883",
        "famingzlsqgbg": null,
        "shouquanggh": "CN217824425U",
        "zhuanlimc": "一种氢气发电储能装置",
        "shenqingrxm": "xxxxxxxxxxxxxxxxxxxxxxxx有限公司",
        "zhuanlilx": "2",
        "shenqingr": "2022-04-02",
        "gongkaiggh": null,
        "falvzt": "专利权有效",
        "gongkaiggr": "2022-11-15",
        "shouquanggr": null,
        "zhufenlh": "H02J15/00",
        "anjianbh": null,
        "mingcheng": null,
        "anjianjlwz": null,
        "anjianywzt": "专利权维持",
        "attention": false
      },
      {
        "zhuanlisqh": "2022207691693",
        "famingzlsqgbg": null,
        "shouquanggh": "CN217824426U",
        "zhuanlimc": "一种基于氢能的发电储能系统",
        "shenqingrxm": "xxxxxxxxxxxxxxxxxxxxxxxx有限公司",
        "zhuanlilx": "2",
        "shenqingr": "2022-04-02",
        "gongkaiggh": null,
        "falvzt": "专利权有效",
        "gongkaiggr": "2022-11-15",
        "shouquanggr": null,
        "zhufenlh": "H02J15/00",
        "anjianbh": null,
        "mingcheng": null,
        "anjianjlwz": null,
        "anjianywzt": "专利权维持",
        "attention": false
      },
      {
        "zhuanlisqh": "2022207685300",
        "famingzlsqgbg": null,
        "shouquanggh": "CN218333869U",
        "zhuanlimc": "一种热电联供的氢燃料电池发电站",
        "shenqingrxm": "xxxxxxxxxxxxxxxxxxxxxxxx有限公司",
        "zhuanlilx": "2",
        "shenqingr": "2022-04-02",
        "gongkaiggh": null,
        "falvzt": "专利权有效",
        "gongkaiggr": "2023-01-17",
        "shouquanggr": null,
        "zhufenlh": "H01M8/04029",
        "anjianbh": null,
        "mingcheng": null,
        "anjianjlwz": null,
        "anjianywzt": "专利权维持",
        "attention": false
      },
      {
        "zhuanlisqh": "202210340683X",
        "famingzlsqgbg": "CN114744706A",
        "shouquanggh": null,
        "zhuanlimc": "一种临时供电电力设计辅助系统",
        "shenqingrxm": "xxxxxxxxxxxxxxxxxxxxxxxx有限公司",
        "zhuanlilx": "1",
        "shenqingr": "2022-04-02",
        "gongkaiggh": null,
        "falvzt": null,
        "gongkaiggr": null,
        "shouquanggr": null,
        "zhufenlh": "H02J7/00",
        "anjianbh": null,
        "mingcheng": null,
        "anjianjlwz": null,
        "anjianywzt": "等待实审提案",
        "attention": false
      },
      {
        "zhuanlisqh": "2022207685283",
        "famingzlsqgbg": null,
        "shouquanggh": "CN217582357U",
        "zhuanlimc": "一种氢能转化系统",
        "shenqingrxm": "xxxxxxxxxxxxxxxxxxxxxxxx有限公司",
        "zhuanlilx": "2",
        "shenqingr": "2022-04-02",
        "gongkaiggh": null,
        "falvzt": "专利权有效",
        "gongkaiggr": "2022-10-14",
        "shouquanggr": null,
        "zhufenlh": "F03B13/06",
        "anjianbh": null,
        "mingcheng": null,
        "anjianjlwz": null,
        "anjianywzt": "专利权维持",
        "attention": false
      },
      {
        "zhuanlisqh": "2022103406825",
        "famingzlsqgbg": "CN114843552A",
        "shouquanggh": "CN114843552B",
        "zhuanlimc": "一种水下模块化氢发电系统",
        "shenqingrxm": "xxxxxxxxxxxxxxxxxxxxxxxx有限公司",
        "zhuanlilx": "1",
        "shenqingr": "2022-04-02",
        "gongkaiggh": null,
        "falvzt": "专利权有效",
        "gongkaiggr": "2024-03-15",
        "shouquanggr": null,
        "zhufenlh": "H01M8/04029",
        "anjianbh": null,
        "mingcheng": null,
        "anjianjlwz": null,
        "anjianywzt": "专利权维持",
        "attention": false
      },
      {
        "zhuanlisqh": "202220769166X",
        "famingzlsqgbg": null,
        "shouquanggh": "CN217822885U",
        "zhuanlimc": "氢气发电系统散热用换热系统",
        "shenqingrxm": "xxxxxxxxxxxxxxxxxxxxxxxx有限公司",
        "zhuanlilx": "2",
        "shenqingr": "2022-04-02",
        "gongkaiggh": null,
        "falvzt": "专利权有效",
        "gongkaiggr": "2022-11-15",
        "shouquanggr": null,
        "zhufenlh": "H01M8/04029",
        "anjianbh": null,
        "mingcheng": null,
        "anjianjlwz": null,
        "anjianywzt": "专利权维持",
        "attention": false
      },
      {
        "zhuanlisqh": "2022207691424",
        "famingzlsqgbg": null,
        "shouquanggh": "CN217589010U",
        "zhuanlimc": "一种氢能发电站双路散热系统",
        "shenqingrxm": "xxxxxxxxxxxxxxxxxxxxxxxx有限公司",
        "zhuanlilx": "2",
        "shenqingr": "2022-04-02",
        "gongkaiggh": null,
        "falvzt": "专利权有效",
        "gongkaiggr": "2022-10-14",
        "shouquanggr": null,
        "zhufenlh": "H01M8/04089",
        "anjianbh": null,
        "mingcheng": null,
        "anjianjlwz": null,
        "anjianywzt": "专利权维持",
        "attention": false
      },
      {
        "zhuanlisqh": "2022207114234",
        "famingzlsqgbg": null,
        "shouquanggh": "CN217563341U",
        "zhuanlimc": "一种电能质量控制模块一体化的氢能发电站",
        "shenqingrxm": "xxxxxxxxxxxxxxxxxxxxxxxx有限公司",
        "zhuanlilx": "2",
        "shenqingr": "2022-03-30",
        "gongkaiggh": null,
        "falvzt": "专利权有效",
        "gongkaiggr": "2022-10-11",
        "shouquanggr": null,
        "zhufenlh": "H02J3/38",
        "anjianbh": null,
        "mingcheng": null,
        "anjianjlwz": null,
        "anjianywzt": "专利权维持",
        "attention": false
      },
      {
        "zhuanlisqh": "2022207114249",
        "famingzlsqgbg": null,
        "shouquanggh": "CN217590281U",
        "zhuanlimc": "一种配电模块一体化的氢能发电站",
        "shenqingrxm": "xxxxxxxxxxxxxxxxxxxxxxxx有限公司",
        "zhuanlilx": "2",
        "shenqingr": "2022-03-30",
        "gongkaiggh": null,
        "falvzt": "专利权有效",
        "gongkaiggr": "2022-10-14",
        "shouquanggr": null,
        "zhufenlh": "H02J3/46",
        "anjianbh": null,
        "mingcheng": null,
        "anjianjlwz": null,
        "anjianywzt": "专利权维持",
        "attention": false
      },
      {
        "zhuanlisqh": "202210321638X",
        "famingzlsqgbg": "CN114738669A",
        "shouquanggh": "CN114738669B",
        "zhuanlimc": "一种预防氢气爆炸的储氢系统",
        "shenqingrxm": "xxxxxxxxxxxxxxxxxxxxxxxx有限公司",
        "zhuanlilx": "1",
        "shenqingr": "2022-03-30",
        "gongkaiggh": null,
        "falvzt": "专利权有效",
        "gongkaiggr": "2024-04-12",
        "shouquanggr": null,
        "zhufenlh": "F17C13/12",
        "anjianbh": null,
        "mingcheng": null,
        "anjianjlwz": null,
        "anjianywzt": "专利权维持",
        "attention": false
      },
      {
        "zhuanlisqh": "2022207253716",
        "famingzlsqgbg": null,
        "shouquanggh": "CN218070669U",
        "zhuanlimc": "一种落地式配电箱",
        "shenqingrxm": "xxxxxxxxxxxxxxxxxxxxxxxx有限公司",
        "zhuanlilx": "2",
        "shenqingr": "2022-03-30",
        "gongkaiggh": null,
        "falvzt": "专利权有效",
        "gongkaiggr": "2022-12-16",
        "shouquanggr": null,
        "zhufenlh": "H02B1/46",
        "anjianbh": null,
        "mingcheng": null,
        "anjianjlwz": null,
        "anjianywzt": "专利权维持",
        "attention": false
      },
      {
        "zhuanlisqh": "202220728720X",
        "famingzlsqgbg": null,
        "shouquanggh": "CN217820780U",
        "zhuanlimc": "一种小电流分支箱",
        "shenqingrxm": "xxxxxxxxxxxxxxxxxxxxxxxx有限公司",
        "zhuanlilx": "2",
        "shenqingr": "2022-03-30",
        "gongkaiggh": null,
        "falvzt": "专利权有效",
        "gongkaiggr": "2022-11-15",
        "shouquanggr": null,
        "zhufenlh": "G01R31/52",
        "anjianbh": null,
        "mingcheng": null,
        "anjianjlwz": null,
        "anjianywzt": "专利权维持",
        "attention": false
      },
      {
        "zhuanlisqh": "2022103215940",
        "famingzlsqgbg": "CN114811435A",
        "shouquanggh": "CN114811435B",
        "zhuanlimc": "一种水下储氢室",
        "shenqingrxm": "xxxxxxxxxxxxxxxxxxxxxxxx有限公司",
        "zhuanlilx": "1",
        "shenqingr": "2022-03-30",
        "gongkaiggh": null,
        "falvzt": "专利权有效",
        "gongkaiggr": "2024-04-12",
        "shouquanggr": null,
        "zhufenlh": "F17C13/12",
        "anjianbh": null,
        "mingcheng": null,
        "anjianjlwz": null,
        "anjianywzt": "专利权维持",
        "attention": false
      },
      {
        "zhuanlisqh": "2022207227425",
        "famingzlsqgbg": null,
        "shouquanggh": "CN217563391U",
        "zhuanlimc": "一种模块化氢能发电站",
        "shenqingrxm": "xxxxxxxxxxxxxxxxxxxxxxxx有限公司",
        "zhuanlilx": "2",
        "shenqingr": "2022-03-30",
        "gongkaiggh": null,
        "falvzt": "专利权有效",
        "gongkaiggr": "2022-10-11",
        "shouquanggr": null,
        "zhufenlh": "H02J13/00",
        "anjianbh": null,
        "mingcheng": null,
        "anjianjlwz": null,
        "anjianywzt": "专利权维持",
        "attention": false
      },
      {
        "zhuanlisqh": "2022207227410",
        "famingzlsqgbg": null,
        "shouquanggh": "CN217589007U",
        "zhuanlimc": "一种散热模块一体化的氢能发电站",
        "shenqingrxm": "xxxxxxxxxxxxxxxxxxxxxxxx有限公司",
        "zhuanlilx": "2",
        "shenqingr": "2022-03-30",
        "gongkaiggh": null,
        "falvzt": "专利权有效",
        "gongkaiggr": "2022-10-14",
        "shouquanggr": null,
        "zhufenlh": "H01M8/04029",
        "anjianbh": null,
        "mingcheng": null,
        "anjianjlwz": null,
        "anjianywzt": "专利权维持",
        "attention": false
      },
      {
        "zhuanlisqh": "2022207114535",
        "famingzlsqgbg": null,
        "shouquanggh": "CN217558424U",
        "zhuanlimc": "一种模块化氢能源发电站",
        "shenqingrxm": "xxxxxxxxxxxxxxxxxxxxxxxx有限公司",
        "zhuanlilx": "2",
        "shenqingr": "2022-03-30",
        "gongkaiggh": null,
        "falvzt": "专利权有效",
        "gongkaiggr": "2022-10-11",
        "shouquanggr": null,
        "zhufenlh": "F02B63/04",
        "anjianbh": null,
        "mingcheng": null,
        "anjianjlwz": null,
        "anjianywzt": "专利权维持",
        "attention": false
      }
    ],
    "total": 550,
    "pageSize": 50,
    "currentPage": 2,
    "pages": 11
  },
  "msg": "成功"
}