{
  "code": 200,
  "data": {
    "records": [
      {
        "zhuanlisqh": "2022207254827",
        "famingzlsqgbg": null,
        "shouquanggh": "CN218070617U",
        "zhuanlimc": "一种应急发电设备接驳柜",
        "shenqingrxm": "xxxxxxxxxxxxxxxxxxxxxxxx有限公司",
        "zhuanlilx": "2",
        "shenqingr": "2022-03-30",
        "gongkaiggh": null,
        "falvzt": "专利权有效",
        "gongkaiggr": "2022-12-16",
        "shouquanggr": null,
        "zhufenlh": "H02B1/30",
        "anjianbh": null,
        "mingcheng": null,
        "anjianjlwz": null,
        "anjianywzt": "专利权维持",
        "attention": false
      },
      {
        "zhuanlisqh": "2022207254174",
        "famingzlsqgbg": null,
        "shouquanggh": "CN218070670U",
        "zhuanlimc": "一种用电设备配电箱",
        "shenqingrxm": "xxxxxxxxxxxxxxxxxxxxxxxx有限公司",
        "zhuanlilx": "2",
        "shenqingr": "2022-03-30",
        "gongkaiggh": null,
        "falvzt": "专利权有效",
        "gongkaiggr": "2022-12-16",
        "shouquanggr": null,
        "zhufenlh": "H02B1/46",
        "anjianbh": null,
        "mingcheng": null,
        "anjianjlwz": null,
        "anjianywzt": "专利权维持",
        "attention": false
      },
      {
        "zhuanlisqh": "2022103036777",
        "famingzlsqgbg": "CN114755963A",
        "shouquanggh": null,
        "zhuanlimc": "一种智能底盘承载氢能发电系统",
        "shenqingrxm": "xxxxxxxxxxxxxxxxxxxxxxxx有限公司",
        "zhuanlilx": "1",
        "shenqingr": "2022-03-26",
        "gongkaiggh": null,
        "falvzt": null,
        "gongkaiggr": null,
        "shouquanggr": null,
        "zhufenlh": "G05B19/048",
        "anjianbh": null,
        "mingcheng": null,
        "anjianjlwz": null,
        "anjianywzt": "等待实审提案",
        "attention": false
      },
      {
        "zhuanlisqh": "2022206818019",
        "famingzlsqgbg": null,
        "shouquanggh": "CN217806409U",
        "zhuanlimc": "一种氢气瓶储存装置",
        "shenqingrxm": "xxxxxxxxxxxxxxxxxxxxxxxx有限公司",
        "zhuanlilx": "2",
        "shenqingr": "2022-03-26",
        "gongkaiggh": null,
        "falvzt": "专利权有效",
        "gongkaiggr": "2022-11-15",
        "shouquanggr": null,
        "zhufenlh": "B65D81/20",
        "anjianbh": null,
        "mingcheng": null,
        "anjianjlwz": null,
        "anjianywzt": "专利权维持",
        "attention": false
      },
      {
        "zhuanlisqh": "202220682803X",
        "famingzlsqgbg": null,
        "shouquanggh": "CN217584075U",
        "zhuanlimc": "一种应用于氢气瓶的防爆装置",
        "shenqingrxm": "xxxxxxxxxxxxxxxxxxxxxxxx有限公司",
        "zhuanlilx": "2",
        "shenqingr": "2022-03-26",
        "gongkaiggh": null,
        "falvzt": "专利权有效",
        "gongkaiggr": "2022-10-14",
        "shouquanggr": null,
        "zhufenlh": "F17C13/12",
        "anjianbh": null,
        "mingcheng": null,
        "anjianjlwz": null,
        "anjianywzt": "专利权维持",
        "attention": false
      },
      {
        "zhuanlisqh": "2022206817393",
        "famingzlsqgbg": null,
        "shouquanggh": "CN217590277U",
        "zhuanlimc": "一种氢能源发电系统",
        "shenqingrxm": "xxxxxxxxxxxxxxxxxxxxxxxx有限公司",
        "zhuanlilx": "2",
        "shenqingr": "2022-03-26",
        "gongkaiggh": null,
        "falvzt": "专利权有效",
        "gongkaiggr": "2022-10-14",
        "shouquanggr": null,
        "zhufenlh": "H02J3/38",
        "anjianbh": null,
        "mingcheng": null,
        "anjianjlwz": null,
        "anjianywzt": "专利权维持",
        "attention": false
      },
      {
        "zhuanlisqh": "2022206828010",
        "famingzlsqgbg": null,
        "shouquanggh": "CN217584058U",
        "zhuanlimc": "一种氢气储存瓶",
        "shenqingrxm": "xxxxxxxxxxxxxxxxxxxxxxxx有限公司",
        "zhuanlilx": "2",
        "shenqingr": "2022-03-26",
        "gongkaiggh": null,
        "falvzt": "专利权有效",
        "gongkaiggr": "2022-10-14",
        "shouquanggr": null,
        "zhufenlh": "F17C13/02",
        "anjianbh": null,
        "mingcheng": null,
        "anjianjlwz": null,
        "anjianywzt": "专利权维持",
        "attention": false
      },
      {
        "zhuanlisqh": "2022206828044",
        "famingzlsqgbg": null,
        "shouquanggh": "CN217584064U",
        "zhuanlimc": "一种用于氢气瓶的安全防护装置",
        "shenqingrxm": "xxxxxxxxxxxxxxxxxxxxxxxx有限公司",
        "zhuanlilx": "2",
        "shenqingr": "2022-03-26",
        "gongkaiggh": null,
        "falvzt": "专利权有效",
        "gongkaiggr": "2022-10-14",
        "shouquanggr": null,
        "zhufenlh": "F17C13/08",
        "anjianbh": null,
        "mingcheng": null,
        "anjianjlwz": null,
        "anjianywzt": "专利权维持",
        "attention": false
      },
      {
        "zhuanlisqh": "2022103037680",
        "famingzlsqgbg": "CN114811411A",
        "shouquanggh": "CN114811411B",
        "zhuanlimc": "一种氢能发电智能管理系统",
        "shenqingrxm": "xxxxxxxxxxxxxxxxxxxxxxxx有限公司",
        "zhuanlilx": "1",
        "shenqingr": "2022-03-26",
        "gongkaiggh": null,
        "falvzt": "专利权有效",
        "gongkaiggr": "2024-05-03",
        "shouquanggr": null,
        "zhufenlh": "F17C5/00",
        "anjianbh": null,
        "mingcheng": null,
        "anjianjlwz": null,
        "anjianywzt": "专利权维持",
        "attention": false
      },
      {
        "zhuanlisqh": "2022206326724",
        "famingzlsqgbg": null,
        "shouquanggh": "CN217559565U",
        "zhuanlimc": "一种加快氢泄漏响应的储氢室",
        "shenqingrxm": "xxxxxxxxxxxxxxxxxxxxxxxx有限公司",
        "zhuanlilx": "2",
        "shenqingr": "2022-03-22",
        "gongkaiggh": null,
        "falvzt": "专利权有效",
        "gongkaiggr": "2022-10-11",
        "shouquanggr": null,
        "zhufenlh": "F17C13/02",
        "anjianbh": null,
        "mingcheng": null,
        "anjianjlwz": null,
        "anjianywzt": "专利权维持",
        "attention": false
      },
      {
        "zhuanlisqh": "2022206326758",
        "famingzlsqgbg": null,
        "shouquanggh": "CN217590350U",
        "zhuanlimc": "一种氢燃料电池发电优化系统",
        "shenqingrxm": "xxxxxxxxxxxxxxxxxxxxxxxx有限公司",
        "zhuanlilx": "2",
        "shenqingr": "2022-03-22",
        "gongkaiggh": null,
        "falvzt": "专利权有效",
        "gongkaiggr": "2022-10-14",
        "shouquanggr": null,
        "zhufenlh": "H02J7/34",
        "anjianbh": null,
        "mingcheng": null,
        "anjianjlwz": null,
        "anjianywzt": "专利权维持",
        "attention": false
      },
      {
        "zhuanlisqh": "2022206340011",
        "famingzlsqgbg": null,
        "shouquanggh": "CN217586204U",
        "zhuanlimc": "一种供氢线路的泄漏检测系统",
        "shenqingrxm": "xxxxxxxxxxxxxxxxxxxxxxxx有限公司",
        "zhuanlilx": "2",
        "shenqingr": "2022-03-22",
        "gongkaiggh": null,
        "falvzt": "专利权有效",
        "gongkaiggr": "2022-10-14",
        "shouquanggr": null,
        "zhufenlh": "G01M3/28",
        "anjianbh": null,
        "mingcheng": null,
        "anjianjlwz": null,
        "anjianywzt": "专利权维持",
        "attention": false
      },
      {
        "zhuanlisqh": "2022102834816",
        "famingzlsqgbg": "CN114811399A",
        "shouquanggh": "CN114811399B",
        "zhuanlimc": "一种水底建设储氢室",
        "shenqingrxm": "xxxxxxxxxxxxxxxxxxxxxxxx有限公司",
        "zhuanlilx": "1",
        "shenqingr": "2022-03-22",
        "gongkaiggh": null,
        "falvzt": "专利权有效",
        "gongkaiggr": "2024-04-30",
        "shouquanggr": null,
        "zhufenlh": "F17C1/00",
        "anjianbh": null,
        "mingcheng": null,
        "anjianjlwz": null,
        "anjianywzt": "专利权维持",
        "attention": false
      },
      {
        "zhuanlisqh": "2022102834996",
        "famingzlsqgbg": "CN114784326A",
        "shouquanggh": "CN114784326B",
        "zhuanlimc": "一种水底建设发电站",
        "shenqingrxm": "xxxxxxxxxxxxxxxxxxxxxxxx有限公司",
        "zhuanlilx": "1",
        "shenqingr": "2022-03-22",
        "gongkaiggh": null,
        "falvzt": "专利权有效",
        "gongkaiggr": "2023-11-21",
        "shouquanggr": null,
        "zhufenlh": "H01M8/04119",
        "anjianbh": null,
        "mingcheng": null,
        "anjianjlwz": null,
        "anjianywzt": "专利权维持",
        "attention": false
      },
      {
        "zhuanlisqh": "2022206339480",
        "famingzlsqgbg": null,
        "shouquanggh": "CN217586174U",
        "zhuanlimc": "一种氢泄漏及时处理的储氢室",
        "shenqingrxm": "xxxxxxxxxxxxxxxxxxxxxxxx有限公司",
        "zhuanlilx": "2",
        "shenqingr": "2022-03-22",
        "gongkaiggh": null,
        "falvzt": "专利权有效",
        "gongkaiggr": "2022-10-14",
        "shouquanggr": null,
        "zhufenlh": "G01M3/04",
        "anjianbh": null,
        "mingcheng": null,
        "anjianjlwz": null,
        "anjianywzt": "专利权维持",
        "attention": false
      },
      {
        "zhuanlisqh": "2022202350974",
        "famingzlsqgbg": null,
        "shouquanggh": "CN217703427U",
        "zhuanlimc": "机器人姿态补偿装置",
        "shenqingrxm": "xxxxxxxxxxxxxxxxxxxxxxxx有限公司,xxxxxxxxxxxxxxxxxxxxxxxx有限公司",
        "zhuanlilx": "2",
        "shenqingr": "2022-01-27",
        "gongkaiggh": null,
        "falvzt": "专利权有效",
        "gongkaiggr": "2022-11-01",
        "shouquanggr": null,
        "zhufenlh": "B25J9/16",
        "anjianbh": null,
        "mingcheng": null,
        "anjianjlwz": null,
        "anjianywzt": "专利权维持",
        "attention": false
      },
      {
        "zhuanlisqh": "2022101033971",
        "famingzlsqgbg": "CN114347034A",
        "shouquanggh": null,
        "zhuanlimc": "机器人姿态补偿装置以及方法",
        "shenqingrxm": "xxxxxxxxxxxxxxxxxxxxxxxx有限公司,xxxxxxxxxxxxxxxxxxxxxxxx有限公司",
        "zhuanlilx": "1",
        "shenqingr": "2022-01-27",
        "gongkaiggh": null,
        "falvzt": null,
        "gongkaiggr": null,
        "shouquanggr": null,
        "zhufenlh": "B25J9/16",
        "anjianbh": null,
        "mingcheng": null,
        "anjianjlwz": null,
        "anjianywzt": "等待实审提案",
        "attention": false
      },
      {
        "zhuanlisqh": "2021233920607",
        "famingzlsqgbg": null,
        "shouquanggh": "CN218469209U",
        "zhuanlimc": "一种内循环模块及具有该模块的模块化内循环空调",
        "shenqingrxm": "xxxxxxxxxxxxxxxxxxxxxxxx有限公司",
        "zhuanlilx": "2",
        "shenqingr": "2021-12-29",
        "gongkaiggh": null,
        "falvzt": "专利权有效",
        "gongkaiggr": "2023-02-10",
        "shouquanggr": null,
        "zhufenlh": "F24F5/00",
        "anjianbh": null,
        "mingcheng": null,
        "anjianjlwz": null,
        "anjianywzt": "专利权维持",
        "attention": false
      },
      {
        "zhuanlisqh": "2021233920274",
        "famingzlsqgbg": null,
        "shouquanggh": "CN218455259U",
        "zhuanlimc": "一种模块化外循环系统及具有该系统的制热空调机组",
        "shenqingrxm": "xxxxxxxxxxxxxxxxxxxxxxxx有限公司",
        "zhuanlilx": "2",
        "shenqingr": "2021-12-29",
        "gongkaiggh": null,
        "falvzt": "专利权有效",
        "gongkaiggr": "2023-02-07",
        "shouquanggr": null,
        "zhufenlh": "F24F5/00",
        "anjianbh": null,
        "mingcheng": null,
        "anjianjlwz": null,
        "anjianywzt": "专利权维持",
        "attention": false
      },
      {
        "zhuanlisqh": "2021116438497",
        "famingzlsqgbg": "CN114322140A",
        "shouquanggh": null,
        "zhuanlimc": "一种内外风循环系统及具有该系统的模块化新风空调",
        "shenqingrxm": "xxxxxxxxxxxxxxxxxxxxxxxx有限公司",
        "zhuanlilx": "1",
        "shenqingr": "2021-12-29",
        "gongkaiggh": null,
        "falvzt": null,
        "gongkaiggr": null,
        "shouquanggr": null,
        "zhufenlh": "F24F5/00",
        "anjianbh": null,
        "mingcheng": null,
        "anjianjlwz": null,
        "anjianywzt": "驳回失效",
        "attention": false
      },
      {
        "zhuanlisqh": "2021232998074",
        "famingzlsqgbg": null,
        "shouquanggh": "CN218456322U",
        "zhuanlimc": "一种转供设备",
        "shenqingrxm": "xxxxxxxxxxxxxxxxxxxxxxxx有限公司",
        "zhuanlilx": "2",
        "shenqingr": "2021-12-23",
        "gongkaiggh": null,
        "falvzt": "专利权有效",
        "gongkaiggr": "2023-02-07",
        "shouquanggr": null,
        "zhufenlh": "H02J3/00",
        "anjianbh": null,
        "mingcheng": null,
        "anjianjlwz": null,
        "anjianywzt": "专利权维持",
        "attention": false
      },
      {
        "zhuanlisqh": "2021115949175",
        "famingzlsqgbg": "CN114447922A",
        "shouquanggh": null,
        "zhuanlimc": "一种基于可调电抗的合环转供设备和方法",
        "shenqingrxm": "xxxxxxxxxxxxxxxxxxxxxxxx有限公司",
        "zhuanlilx": "1",
        "shenqingr": "2021-12-23",
        "gongkaiggh": null,
        "falvzt": null,
        "gongkaiggr": null,
        "shouquanggr": null,
        "zhufenlh": "H02J3/00",
        "anjianbh": null,
        "mingcheng": null,
        "anjianjlwz": null,
        "anjianywzt": "国优视撤",
        "attention": false
      },
      {
        "zhuanlisqh": "2021232995339",
        "famingzlsqgbg": null,
        "shouquanggh": "CN218333575U",
        "zhuanlimc": "一种三相开关结构",
        "shenqingrxm": "xxxxxxxxxxxxxxxxxxxxxxxx有限公司",
        "zhuanlilx": "2",
        "shenqingr": "2021-12-23",
        "gongkaiggh": null,
        "falvzt": "专利权有效",
        "gongkaiggr": "2023-01-17",
        "shouquanggr": null,
        "zhufenlh": "H01H31/02",
        "anjianbh": null,
        "mingcheng": null,
        "anjianjlwz": null,
        "anjianywzt": "专利权维持",
        "attention": false
      },
      {
        "zhuanlisqh": "2021229626216",
        "famingzlsqgbg": null,
        "shouquanggh": "CN216619334U",
        "zhuanlimc": "一种在线加氢系统",
        "shenqingrxm": "xxxxxxxxxxxxxxxxxxxxxxxx有限公司,xxxxxxxxxxxxxxxxxxxxxxxx有限公司",
        "zhuanlilx": "2",
        "shenqingr": "2021-11-29",
        "gongkaiggh": null,
        "falvzt": "专利权有效",
        "gongkaiggr": "2022-05-27",
        "shouquanggr": null,
        "zhufenlh": "F17C5/00",
        "anjianbh": null,
        "mingcheng": null,
        "anjianjlwz": null,
        "anjianywzt": "专利权维持",
        "attention": false
      },
      {
        "zhuanlisqh": "2021227069650",
        "famingzlsqgbg": null,
        "shouquanggh": "CN216268758U",
        "zhuanlimc": "充电桩系统及具有其的充电控制系统",
        "shenqingrxm": "xxxxxxxxxxxxxxxxxxxxxxxx有限公司,xxxxxxxxxxxxxxxxxxxxxxxx有限公司",
        "zhuanlilx": "2",
        "shenqingr": "2021-11-05",
        "gongkaiggh": null,
        "falvzt": "专利权有效",
        "gongkaiggr": "2022-04-12",
        "shouquanggr": null,
        "zhufenlh": "B60L53/31",
        "anjianbh": null,
        "mingcheng": null,
        "anjianjlwz": null,
        "anjianywzt": "专利权维持",
        "attention": false
      },
      {
        "zhuanlisqh": "2021113090294",
        "famingzlsqgbg": "CN114013316A",
        "shouquanggh": "CN114013316B",
        "zhuanlimc": "充电控制方法、其装置及充电系统",
        "shenqingrxm": "xxxxxxxxxxxxxxxxxxxxxxxx有限公司,xxxxxxxxxxxxxxxxxxxxxxxx有限公司",
        "zhuanlilx": "1",
        "shenqingr": "2021-11-05",
        "gongkaiggh": null,
        "falvzt": "专利权有效",
        "gongkaiggr": "2024-04-23",
        "shouquanggr": null,
        "zhufenlh": "B60L53/31",
        "anjianbh": null,
        "mingcheng": null,
        "anjianjlwz": null,
        "anjianywzt": "专利权维持",
        "attention": false
      },
      {
        "zhuanlisqh": "2021226899616",
        "famingzlsqgbg": null,
        "shouquanggh": "CN216610907U",
        "zhuanlimc": "悬臂式移动充电桩",
        "shenqingrxm": "xxxxxxxxxxxxxxxxxxxxxxxx有限公司,xxxxxxxxxxxxxxxxxxxxxxxx有限公司,北京时代安拓科技发展有限责任公司",
        "zhuanlilx": "2",
        "shenqingr": "2021-11-04",
        "gongkaiggh": null,
        "falvzt": "专利权有效",
        "gongkaiggr": "2022-05-27",
        "shouquanggr": null,
        "zhufenlh": "B60L53/31",
        "anjianbh": null,
        "mingcheng": null,
        "anjianjlwz": null,
        "anjianywzt": "专利权维持",
        "attention": false
      },
      {
        "zhuanlisqh": "2021226897697",
        "famingzlsqgbg": null,
        "shouquanggh": "CN216190090U",
        "zhuanlimc": "线缆收放线装置和充电桩",
        "shenqingrxm": "xxxxxxxxxxxxxxxxxxxxxxxx有限公司,xxxxxxxxxxxxxxxxxxxxxxxx有限公司",
        "zhuanlilx": "2",
        "shenqingr": "2021-11-04",
        "gongkaiggh": null,
        "falvzt": "专利权有效",
        "gongkaiggr": "2022-04-05",
        "shouquanggr": null,
        "zhufenlh": "B65H75/36",
        "anjianbh": null,
        "mingcheng": null,
        "anjianjlwz": null,
        "anjianywzt": "专利权维持",
        "attention": false
      },
      {
        "zhuanlisqh": "2021113025651",
        "famingzlsqgbg": "CN113928941A",
        "shouquanggh": null,
        "zhuanlimc": "线缆收放线装置和充电桩",
        "shenqingrxm": "xxxxxxxxxxxxxxxxxxxxxxxx有限公司,xxxxxxxxxxxxxxxxxxxxxxxx有限公司",
        "zhuanlilx": "1",
        "shenqingr": "2021-11-04",
        "gongkaiggh": null,
        "falvzt": null,
        "gongkaiggr": null,
        "shouquanggr": null,
        "zhufenlh": "B65H75/36",
        "anjianbh": null,
        "mingcheng": null,
        "anjianjlwz": null,
        "anjianywzt": "一通出案待答复",
        "attention": false
      },
      {
        "zhuanlisqh": "2021112859745",
        "famingzlsqgbg": "CN114002554A",
        "shouquanggh": null,
        "zhuanlimc": "一种网络电力仪表及装置",
        "shenqingrxm": "xxxxxxxxxxxxxxxxxxxxxxxx有限公司",
        "zhuanlilx": "1",
        "shenqingr": "2021-11-02",
        "gongkaiggh": null,
        "falvzt": null,
        "gongkaiggr": null,
        "shouquanggr": null,
        "zhufenlh": "G01R31/08",
        "anjianbh": null,
        "mingcheng": null,
        "anjianjlwz": null,
        "anjianywzt": "等待实审提案",
        "attention": false
      },
      {
        "zhuanlisqh": "2021226392885",
        "famingzlsqgbg": null,
        "shouquanggh": "CN216184590U",
        "zhuanlimc": "充电桩及具有其的充电桩系统",
        "shenqingrxm": "xxxxxxxxxxxxxxxxxxxxxxxx有限公司,xxxxxxxxxxxxxxxxxxxxxxxx有限公司,北京时代安拓科技发展有限责任公司",
        "zhuanlilx": "2",
        "shenqingr": "2021-10-29",
        "gongkaiggh": null,
        "falvzt": "专利权有效",
        "gongkaiggr": "2022-04-05",
        "shouquanggr": null,
        "zhufenlh": "B60L53/31",
        "anjianbh": null,
        "mingcheng": null,
        "anjianjlwz": null,
        "anjianywzt": "专利权维持",
        "attention": false
      },
      {
        "zhuanlisqh": "2021226382489",
        "famingzlsqgbg": null,
        "shouquanggh": "CN216214711U",
        "zhuanlimc": "用于移动充电桩的导轨和具有该导轨的充电桩系统",
        "shenqingrxm": "xxxxxxxxxxxxxxxxxxxxxxxx有限公司,xxxxxxxxxxxxxxxxxxxxxxxx有限公司,北京时代安拓科技发展有限责任公司",
        "zhuanlilx": "2",
        "shenqingr": "2021-10-29",
        "gongkaiggh": null,
        "falvzt": "专利权有效",
        "gongkaiggr": "2022-04-05",
        "shouquanggr": null,
        "zhufenlh": "H01R41/00",
        "anjianbh": null,
        "mingcheng": null,
        "anjianjlwz": null,
        "anjianywzt": "专利权维持",
        "attention": false
      },
      {
        "zhuanlisqh": "2021226382135",
        "famingzlsqgbg": null,
        "shouquanggh": "CN216268757U",
        "zhuanlimc": "充电桩系统",
        "shenqingrxm": "xxxxxxxxxxxxxxxxxxxxxxxx有限公司,xxxxxxxxxxxxxxxxxxxxxxxx有限公司,北京时代安拓科技发展有限责任公司",
        "zhuanlilx": "2",
        "shenqingr": "2021-10-29",
        "gongkaiggh": null,
        "falvzt": "专利权有效",
        "gongkaiggr": "2022-04-12",
        "shouquanggr": null,
        "zhufenlh": "B60L53/31",
        "anjianbh": null,
        "mingcheng": null,
        "anjianjlwz": null,
        "anjianywzt": "专利权维持",
        "attention": false
      },
      {
        "zhuanlisqh": "2021307121807",
        "famingzlsqgbg": null,
        "shouquanggh": "CN307359994S",
        "zhuanlimc": "直流移动充电桩",
        "shenqingrxm": "xxxxxxxxxxxxxxxxxxxxxxxx有限公司,xxxxxxxxxxxxxxxxxxxxxxxx有限公司,北京时代安拓科技发展有限责任公司",
        "zhuanlilx": "3",
        "shenqingr": "2021-10-29",
        "gongkaiggh": null,
        "falvzt": "专利权有效",
        "gongkaiggr": "2022-05-24",
        "shouquanggr": null,
        "zhufenlh": "1302",
        "anjianbh": null,
        "mingcheng": null,
        "anjianjlwz": null,
        "anjianywzt": "专利权维持",
        "attention": false
      },
      {
        "zhuanlisqh": "2021226383053",
        "famingzlsqgbg": null,
        "shouquanggh": "CN216580164U",
        "zhuanlimc": "充电桩系统",
        "shenqingrxm": "xxxxxxxxxxxxxxxxxxxxxxxx有限公司,xxxxxxxxxxxxxxxxxxxxxxxx有限公司,北京时代安拓科技发展有限责任公司",
        "zhuanlilx": "2",
        "shenqingr": "2021-10-29",
        "gongkaiggh": null,
        "falvzt": "专利权有效",
        "gongkaiggr": "2022-05-24",
        "shouquanggr": null,
        "zhufenlh": "B60L53/31",
        "anjianbh": null,
        "mingcheng": null,
        "anjianjlwz": null,
        "anjianywzt": "专利权维持",
        "attention": false
      },
      {
        "zhuanlisqh": "2021226383157",
        "famingzlsqgbg": null,
        "shouquanggh": "CN216184588U",
        "zhuanlimc": "充电桩系统",
        "shenqingrxm": "xxxxxxxxxxxxxxxxxxxxxxxx有限公司,xxxxxxxxxxxxxxxxxxxxxxxx有限公司,北京时代安拓科技发展有限责任公司",
        "zhuanlilx": "2",
        "shenqingr": "2021-10-29",
        "gongkaiggh": null,
        "falvzt": "专利权有效",
        "gongkaiggr": "2022-04-05",
        "shouquanggr": null,
        "zhufenlh": "B60L53/31",
        "anjianbh": null,
        "mingcheng": null,
        "anjianjlwz": null,
        "anjianywzt": "专利权维持",
        "attention": false
      },
      {
        "zhuanlisqh": "2021226383138",
        "famingzlsqgbg": null,
        "shouquanggh": "CN216610904U",
        "zhuanlimc": "导轨底座",
        "shenqingrxm": "xxxxxxxxxxxxxxxxxxxxxxxx有限公司,xxxxxxxxxxxxxxxxxxxxxxxx有限公司,北京时代安拓科技发展有限责任公司",
        "zhuanlilx": "2",
        "shenqingr": "2021-10-29",
        "gongkaiggh": null,
        "falvzt": "专利权有效",
        "gongkaiggr": "2022-05-27",
        "shouquanggr": null,
        "zhufenlh": "B60L53/31",
        "anjianbh": null,
        "mingcheng": null,
        "anjianjlwz": null,
        "anjianywzt": "专利权维持",
        "attention": false
      },
      {
        "zhuanlisqh": "202130712178X",
        "famingzlsqgbg": null,
        "shouquanggh": "CN307141683S",
        "zhuanlimc": "充电桩",
        "shenqingrxm": "xxxxxxxxxxxxxxxxxxxxxxxx有限公司,xxxxxxxxxxxxxxxxxxxxxxxx有限公司,北京时代安拓科技发展有限责任公司",
        "zhuanlilx": "3",
        "shenqingr": "2021-10-29",
        "gongkaiggh": null,
        "falvzt": "专利权有效",
        "gongkaiggr": "2022-03-04",
        "shouquanggr": null,
        "zhufenlh": "1302",
        "anjianbh": null,
        "mingcheng": null,
        "anjianjlwz": null,
        "anjianywzt": "专利权维持",
        "attention": false
      },
      {
        "zhuanlisqh": "2021225593497",
        "famingzlsqgbg": null,
        "shouquanggh": "CN216355977U",
        "zhuanlimc": "一种自组网供电系统",
        "shenqingrxm": "xxxxxxxxxxxxxxxxxxxxxxxx有限公司",
        "zhuanlilx": "2",
        "shenqingr": "2021-10-22",
        "gongkaiggh": null,
        "falvzt": "专利权有效",
        "gongkaiggr": "2022-04-19",
        "shouquanggr": null,
        "zhufenlh": "H02J3/00",
        "anjianbh": null,
        "mingcheng": null,
        "anjianjlwz": null,
        "anjianywzt": "专利权维持",
        "attention": false
      },
      {
        "zhuanlisqh": "2021225077559",
        "famingzlsqgbg": null,
        "shouquanggh": "CN216696524U",
        "zhuanlimc": "一种电缆故障测试仪",
        "shenqingrxm": "崇科智能科技（浙江）xxxxxxxxxxxx有限公司,中国电力科学研究院xxxxxxxxxxxx有限公司,xxxxxxxxxxxxxxxxxxxxxxxx有限公司",
        "zhuanlilx": "2",
        "shenqingr": "2021-10-18",
        "gongkaiggh": null,
        "falvzt": "专利权有效",
        "gongkaiggr": "2022-06-07",
        "shouquanggr": null,
        "zhufenlh": "G01R31/08",
        "anjianbh": null,
        "mingcheng": null,
        "anjianjlwz": null,
        "anjianywzt": "专利权维持",
        "attention": false
      },
      {
        "zhuanlisqh": "2021223240908",
        "famingzlsqgbg": null,
        "shouquanggh": "CN216002226U",
        "zhuanlimc": "一种带有燃料电池底盘车的氢能源发电车",
        "shenqingrxm": "xxxxxxxxxxxxxxxxxxxxxxxx有限公司",
        "zhuanlilx": "2",
        "shenqingr": "2021-09-22",
        "gongkaiggh": null,
        "falvzt": "专利权有效",
        "gongkaiggr": "2022-03-11",
        "shouquanggr": null,
        "zhufenlh": "B60L50/70",
        "anjianbh": null,
        "mingcheng": null,
        "anjianjlwz": null,
        "anjianywzt": "专利权维持",
        "attention": false
      },
      {
        "zhuanlisqh": "2021222934964",
        "famingzlsqgbg": null,
        "shouquanggh": "CN216016527U",
        "zhuanlimc": "一种发电车用电源切换装置",
        "shenqingrxm": "xxxxxxxxxxxxxxxxxxxxxxxx有限公司",
        "zhuanlilx": "2",
        "shenqingr": "2021-09-22",
        "gongkaiggh": null,
        "falvzt": "专利权有效",
        "gongkaiggr": "2022-03-11",
        "shouquanggr": null,
        "zhufenlh": "H02J9/06",
        "anjianbh": null,
        "mingcheng": null,
        "anjianjlwz": null,
        "anjianywzt": "专利权维持",
        "attention": false
      },
      {
        "zhuanlisqh": "2021222934998",
        "famingzlsqgbg": null,
        "shouquanggh": "CN216016528U",
        "zhuanlimc": "一种不间断供电接入装置及使用该装置的发电车",
        "shenqingrxm": "xxxxxxxxxxxxxxxxxxxxxxxx有限公司",
        "zhuanlilx": "2",
        "shenqingr": "2021-09-22",
        "gongkaiggh": null,
        "falvzt": "专利权有效",
        "gongkaiggr": "2022-03-11",
        "shouquanggr": null,
        "zhufenlh": "H02J9/06",
        "anjianbh": null,
        "mingcheng": null,
        "anjianjlwz": null,
        "anjianywzt": "专利权维持",
        "attention": false
      },
      {
        "zhuanlisqh": "2021109571713",
        "famingzlsqgbg": "CN113675949A",
        "shouquanggh": null,
        "zhuanlimc": "识别配电网路的系统",
        "shenqingrxm": "xxxxxxxxxxxx公司,xxxxxxxxxxxxxxxxxxxxxxxx有限公司,xxxxxxxxxxxxxxxxxxxxxxxx有限公司,xxxxxxxxxxxxxxxxxxxxxxxx有限公司",
        "zhuanlilx": "1",
        "shenqingr": "2021-08-19",
        "gongkaiggh": null,
        "falvzt": null,
        "gongkaiggr": null,
        "shouquanggr": null,
        "zhufenlh": "H02J13/00",
        "anjianbh": null,
        "mingcheng": null,
        "anjianjlwz": null,
        "anjianywzt": "等待实审提案",
        "attention": false
      },
      {
        "zhuanlisqh": "2021105009553",
        "famingzlsqgbg": "CN113112042A",
        "shouquanggh": "CN113112042B",
        "zhuanlimc": "电缆故障可视化大数据平台",
        "shenqingrxm": "xxxxxxxxxxxxxxxxxxxxxxxx有限公司",
        "zhuanlilx": "1",
        "shenqingr": "2021-05-08",
        "gongkaiggh": null,
        "falvzt": "专利权有效",
        "gongkaiggr": "2022-11-15",
        "shouquanggr": null,
        "zhufenlh": "G06Q10/00",
        "anjianbh": null,
        "mingcheng": null,
        "anjianjlwz": null,
        "anjianywzt": "专利权维持",
        "attention": false
      },
      {
        "zhuanlisqh": "2021209808387",
        "famingzlsqgbg": null,
        "shouquanggh": "CN214895859U",
        "zhuanlimc": "一种电缆路径管线仪",
        "shenqingrxm": "xxxxxxxxxxxxxxxxxxxxxxxx有限公司",
        "zhuanlilx": "2",
        "shenqingr": "2021-05-08",
        "gongkaiggh": null,
        "falvzt": "专利权有效",
        "gongkaiggr": "2021-11-26",
        "shouquanggr": null,
        "zhufenlh": "G01V9/00",
        "anjianbh": null,
        "mingcheng": null,
        "anjianjlwz": null,
        "anjianywzt": "专利权维持",
        "attention": false
      },
      {
        "zhuanlisqh": "2021105025236",
        "famingzlsqgbg": "CN113178943A",
        "shouquanggh": "CN113178943B",
        "zhuanlimc": "发电车电池系统的控制方法及发电车电池系统",
        "shenqingrxm": "xxxxxxxxxxxx公司,xxxxxxxxxxxxxxxxxxxxxxxx有限公司,xxxxxxxxxxxxxxxxxxxxxxxx有限公司,xxxxxxxxxxxxxxxxxxxxxxxx有限公司",
        "zhuanlilx": "1",
        "shenqingr": "2021-05-08",
        "gongkaiggh": null,
        "falvzt": "专利权有效",
        "gongkaiggr": "2022-09-02",
        "shouquanggr": null,
        "zhufenlh": "H02J9/06",
        "anjianbh": null,
        "mingcheng": null,
        "anjianjlwz": null,
        "anjianywzt": "专利权维持",
        "attention": false
      },
      {
        "zhuanlisqh": "2021105009727",
        "famingzlsqgbg": "CN113093267A",
        "shouquanggh": "CN113093267B",
        "zhuanlimc": "一种识别电缆线路路径的方法",
        "shenqingrxm": "xxxxxxxxxxxxxxxxxxxxxxxx有限公司",
        "zhuanlilx": "1",
        "shenqingr": "2021-05-08",
        "gongkaiggh": null,
        "falvzt": "专利权有效",
        "gongkaiggr": "2023-08-01",
        "shouquanggr": null,
        "zhufenlh": "G01V1/00",
        "anjianbh": null,
        "mingcheng": null,
        "anjianjlwz": null,
        "anjianywzt": "专利权维持",
        "attention": false
      },
      {
        "zhuanlisqh": "2021105024248",
        "famingzlsqgbg": "CN113093268A",
        "shouquanggh": "CN113093268B",
        "zhuanlimc": "自动识别电缆线路路径的方法",
        "shenqingrxm": "xxxxxxxxxxxxxxxxxxxxxxxx有限公司",
        "zhuanlilx": "1",
        "shenqingr": "2021-05-08",
        "gongkaiggh": null,
        "falvzt": "专利权有效",
        "gongkaiggr": "2023-08-01",
        "shouquanggr": null,
        "zhufenlh": "G01V1/00",
        "anjianbh": null,
        "mingcheng": null,
        "anjianjlwz": null,
        "anjianywzt": "专利权维持",
        "attention": false
      },
      {
        "zhuanlisqh": "2021209800633",
        "famingzlsqgbg": null,
        "shouquanggh": "CN215375635U",
        "zhuanlimc": "一种高阻故障精确定点仪",
        "shenqingrxm": "xxxxxxxxxxxxxxxxxxxxxxxx有限公司",
        "zhuanlilx": "2",
        "shenqingr": "2021-05-08",
        "gongkaiggh": null,
        "falvzt": "专利权有效",
        "gongkaiggr": "2021-12-31",
        "shouquanggr": null,
        "zhufenlh": "G01R31/08",
        "anjianbh": null,
        "mingcheng": null,
        "anjianjlwz": null,
        "anjianywzt": "专利权维持",
        "attention": false
      }
    ],
    "total": 550,
    "pageSize": 50,
    "currentPage": 3,
    "pages": 11
  },
  "msg": "成功"
}