{
  "code": 200,
  "data": {
    "records": [
      {
        "zhuanlisqh": "2021105024360",
        "famingzlsqgbg": "CN113095523A",
        "shouquanggh": "CN113095523B",
        "zhuanlimc": "电缆故障大数据预警系统",
        "shenqingrxm": "xxxxxxxxxxxxxxxxxxxxxxxx有限公司",
        "zhuanlilx": "1",
        "shenqingr": "2021-05-08",
        "gongkaiggh": null,
        "falvzt": "专利权有效",
        "gongkaiggr": "2023-01-10",
        "shouquanggr": null,
        "zhufenlh": "G06Q10/00",
        "anjianbh": null,
        "mingcheng": null,
        "anjianjlwz": null,
        "anjianywzt": "专利权维持",
        "attention": false
      },
      {
        "zhuanlisqh": "2021105009549",
        "famingzlsqgbg": "CN113092948A",
        "shouquanggh": "CN113092948B",
        "zhuanlimc": "一种自动确定电缆故障点位置的方法",
        "shenqingrxm": "xxxxxxxxxxxxxxxxxxxxxxxx有限公司",
        "zhuanlilx": "1",
        "shenqingr": "2021-05-08",
        "gongkaiggh": null,
        "falvzt": "专利权有效",
        "gongkaiggr": "2022-04-19",
        "shouquanggr": null,
        "zhufenlh": "G01R31/08",
        "anjianbh": null,
        "mingcheng": null,
        "anjianjlwz": null,
        "anjianywzt": "专利权维持",
        "attention": false
      },
      {
        "zhuanlisqh": "202110502438X",
        "famingzlsqgbg": "CN113092949A",
        "shouquanggh": "CN113092949B",
        "zhuanlimc": "一种定位电缆故障点的方法",
        "shenqingrxm": "xxxxxxxxxxxxxxxxxxxxxxxx有限公司",
        "zhuanlilx": "1",
        "shenqingr": "2021-05-08",
        "gongkaiggh": null,
        "falvzt": "专利权有效",
        "gongkaiggr": "2022-11-15",
        "shouquanggr": null,
        "zhufenlh": "G01R31/08",
        "anjianbh": null,
        "mingcheng": null,
        "anjianjlwz": null,
        "anjianywzt": "专利权维持",
        "attention": false
      },
      {
        "zhuanlisqh": "2021105024680",
        "famingzlsqgbg": "CN113093293A",
        "shouquanggh": "CN113093293B",
        "zhuanlimc": "一种电缆路径识别与故障定位设备",
        "shenqingrxm": "xxxxxxxxxxxxxxxxxxxxxxxx有限公司",
        "zhuanlilx": "1",
        "shenqingr": "2021-05-08",
        "gongkaiggh": null,
        "falvzt": "专利权有效",
        "gongkaiggr": "2023-02-10",
        "shouquanggr": null,
        "zhufenlh": "G01V3/08",
        "anjianbh": null,
        "mingcheng": null,
        "anjianjlwz": null,
        "anjianywzt": "专利权维持",
        "attention": false
      },
      {
        "zhuanlisqh": "202110500945X",
        "famingzlsqgbg": "CN113092947A",
        "shouquanggh": "CN113092947B",
        "zhuanlimc": "一种自动定位电缆故障点的方法",
        "shenqingrxm": "xxxxxxxxxxxxxxxxxxxxxxxx有限公司",
        "zhuanlilx": "1",
        "shenqingr": "2021-05-08",
        "gongkaiggh": null,
        "falvzt": "专利权有效",
        "gongkaiggr": "2022-04-19",
        "shouquanggr": null,
        "zhufenlh": "G01R31/08",
        "anjianbh": null,
        "mingcheng": null,
        "anjianjlwz": null,
        "anjianywzt": "专利权维持",
        "attention": false
      },
      {
        "zhuanlisqh": "2021105024375",
        "famingzlsqgbg": "CN113093269A",
        "shouquanggh": null,
        "zhuanlimc": "一种自动识别电缆线路路径的方法",
        "shenqingrxm": "xxxxxxxxxxxxxxxxxxxxxxxx有限公司",
        "zhuanlilx": "1",
        "shenqingr": "2021-05-08",
        "gongkaiggh": null,
        "falvzt": null,
        "gongkaiggr": null,
        "shouquanggr": null,
        "zhufenlh": "G01V1/00",
        "anjianbh": null,
        "mingcheng": null,
        "anjianjlwz": null,
        "anjianywzt": "驳回失效",
        "attention": false
      },
      {
        "zhuanlisqh": "2021208804105",
        "famingzlsqgbg": null,
        "shouquanggh": "CN215071506U",
        "zhuanlimc": "一种可浸泡水的多层电缆封堵器",
        "shenqingrxm": "xxxxxxxxxxxx公司,xxxxxxxxxxxxxxxxxxxxxxxx有限公司,xxxxxxxxxxxxxxxxxxxxxxxx有限公司",
        "zhuanlilx": "2",
        "shenqingr": "2021-04-26",
        "gongkaiggh": null,
        "falvzt": "专利权有效",
        "gongkaiggr": "2021-12-07",
        "shouquanggr": null,
        "zhufenlh": "H02G3/22",
        "anjianbh": null,
        "mingcheng": null,
        "anjianjlwz": null,
        "anjianywzt": "专利权维持",
        "attention": false
      },
      {
        "zhuanlisqh": "2021206854805",
        "famingzlsqgbg": null,
        "shouquanggh": "CN218293242U",
        "zhuanlimc": "一种防水铰链",
        "shenqingrxm": "xxxxxxxxxxxxxxxxxxxxxxxx有限公司",
        "zhuanlilx": "2",
        "shenqingr": "2021-04-02",
        "gongkaiggh": null,
        "falvzt": "专利权有效",
        "gongkaiggr": "2023-01-13",
        "shouquanggr": null,
        "zhufenlh": "E05D3/02",
        "anjianbh": null,
        "mingcheng": null,
        "anjianjlwz": null,
        "anjianywzt": "专利权维持",
        "attention": false
      },
      {
        "zhuanlisqh": "2021206018663",
        "famingzlsqgbg": null,
        "shouquanggh": "CN216848816U",
        "zhuanlimc": "一种巡检系统",
        "shenqingrxm": "xxxxxxxxxxxxxxxxxxxxxxxx有限公司,xxxxxxxxxxxxxxxxxxxxxxxx有限公司",
        "zhuanlilx": "2",
        "shenqingr": "2021-03-24",
        "gongkaiggh": null,
        "falvzt": "专利权有效",
        "gongkaiggr": "2022-06-28",
        "shouquanggr": null,
        "zhufenlh": "G07C1/20",
        "anjianbh": null,
        "mingcheng": null,
        "anjianjlwz": null,
        "anjianywzt": "专利权维持",
        "attention": false
      },
      {
        "zhuanlisqh": "2021103128793",
        "famingzlsqgbg": "CN113259625A",
        "shouquanggh": null,
        "zhuanlimc": "监测系统及其方法",
        "shenqingrxm": "xxxxxxxxxxxxxxxxxxxxxxxx有限公司,xxxxxxxxxxxxxxxxxxxxxxxx有限公司",
        "zhuanlilx": "1",
        "shenqingr": "2021-03-24",
        "gongkaiggh": null,
        "falvzt": null,
        "gongkaiggr": null,
        "shouquanggr": null,
        "zhufenlh": "H04N7/18",
        "anjianbh": null,
        "mingcheng": null,
        "anjianjlwz": null,
        "anjianywzt": "驳回失效",
        "attention": false
      },
      {
        "zhuanlisqh": "2021103128346",
        "famingzlsqgbg": "CN113271434A",
        "shouquanggh": null,
        "zhuanlimc": "一种监测系统及其方法",
        "shenqingrxm": "xxxxxxxxxxxxxxxxxxxxxxxx有限公司,xxxxxxxxxxxxxxxxxxxxxxxx有限公司",
        "zhuanlilx": "1",
        "shenqingr": "2021-03-24",
        "gongkaiggh": null,
        "falvzt": null,
        "gongkaiggr": null,
        "shouquanggr": null,
        "zhufenlh": "H04N7/18",
        "anjianbh": null,
        "mingcheng": null,
        "anjianjlwz": null,
        "anjianywzt": "驳回失效",
        "attention": false
      },
      {
        "zhuanlisqh": "2021103123130",
        "famingzlsqgbg": "CN113162229A",
        "shouquanggh": null,
        "zhuanlimc": "一种监测装置及其方法",
        "shenqingrxm": "xxxxxxxxxxxxxxxxxxxxxxxx有限公司,xxxxxxxxxxxxxxxxxxxxxxxx有限公司",
        "zhuanlilx": "1",
        "shenqingr": "2021-03-24",
        "gongkaiggh": null,
        "falvzt": null,
        "gongkaiggr": null,
        "shouquanggr": null,
        "zhufenlh": "H02J13/00",
        "anjianbh": null,
        "mingcheng": null,
        "anjianjlwz": null,
        "anjianywzt": "驳回失效",
        "attention": false
      },
      {
        "zhuanlisqh": "202110312876X",
        "famingzlsqgbg": "CN113259624A",
        "shouquanggh": null,
        "zhuanlimc": "一种监测设备及其方法",
        "shenqingrxm": "xxxxxxxxxxxxxxxxxxxxxxxx有限公司,xxxxxxxxxxxxxxxxxxxxxxxx有限公司",
        "zhuanlilx": "1",
        "shenqingr": "2021-03-24",
        "gongkaiggh": null,
        "falvzt": null,
        "gongkaiggr": null,
        "shouquanggr": null,
        "zhufenlh": "H04N7/18",
        "anjianbh": null,
        "mingcheng": null,
        "anjianjlwz": null,
        "anjianywzt": "驳回失效",
        "attention": false
      },
      {
        "zhuanlisqh": "2021205313544",
        "famingzlsqgbg": null,
        "shouquanggh": "CN215361093U",
        "zhuanlimc": "车厢内排水结构及具有该结构的氢能源发电车",
        "shenqingrxm": "xxxxxxxxxxxxxxxxxxxxxxxx有限公司,xxxxxxxxxxxxxxxxxxxxxxxx有限公司",
        "zhuanlilx": "2",
        "shenqingr": "2021-03-13",
        "gongkaiggh": null,
        "falvzt": "专利权有效",
        "gongkaiggr": "2021-12-31",
        "shouquanggr": null,
        "zhufenlh": "B60P3/00",
        "anjianbh": null,
        "mingcheng": null,
        "anjianjlwz": null,
        "anjianywzt": "专利权维持",
        "attention": false
      },
      {
        "zhuanlisqh": "2021205178294",
        "famingzlsqgbg": null,
        "shouquanggh": "CN214492675U",
        "zhuanlimc": "一种氢电隔离的氢能源发电车",
        "shenqingrxm": "xxxxxxxxxxxxxxxxxxxxxxxx有限公司",
        "zhuanlilx": "2",
        "shenqingr": "2021-03-11",
        "gongkaiggh": null,
        "falvzt": "专利权有效",
        "gongkaiggr": "2021-10-26",
        "shouquanggr": null,
        "zhufenlh": "B60P3/00",
        "anjianbh": null,
        "mingcheng": null,
        "anjianjlwz": null,
        "anjianywzt": "专利权维持",
        "attention": false
      },
      {
        "zhuanlisqh": "2021102520674",
        "famingzlsqgbg": "CN112904136A",
        "shouquanggh": null,
        "zhuanlimc": "一种电能质量监测装置",
        "shenqingrxm": "xxxxxxxxxxxxxxxxxxxxxxxx有限公司",
        "zhuanlilx": "1",
        "shenqingr": "2021-03-08",
        "gongkaiggh": null,
        "falvzt": null,
        "gongkaiggr": null,
        "shouquanggr": null,
        "zhufenlh": "G01R31/00",
        "anjianbh": null,
        "mingcheng": null,
        "anjianjlwz": null,
        "anjianywzt": "等待实审提案",
        "attention": false
      },
      {
        "zhuanlisqh": "2021301245172",
        "famingzlsqgbg": null,
        "shouquanggh": "CN306972328S",
        "zhuanlimc": "配电箱",
        "shenqingrxm": "xxxxxxxxxxxxxxxxxxxxxxxx有限公司",
        "zhuanlilx": "3",
        "shenqingr": "2021-03-08",
        "gongkaiggh": null,
        "falvzt": "专利权有效",
        "gongkaiggr": "2021-11-30",
        "shouquanggr": null,
        "zhufenlh": "1303",
        "anjianbh": null,
        "mingcheng": null,
        "anjianjlwz": null,
        "anjianywzt": "专利权维持",
        "attention": false
      },
      {
        "zhuanlisqh": "2021204912702",
        "famingzlsqgbg": null,
        "shouquanggh": "CN214896351U",
        "zhuanlimc": "一种保障设施",
        "shenqingrxm": "xxxxxxxxxxxxxxxxxxxxxxxx有限公司",
        "zhuanlilx": "2",
        "shenqingr": "2021-03-08",
        "gongkaiggh": null,
        "falvzt": "专利权有效",
        "gongkaiggr": "2021-11-26",
        "shouquanggr": null,
        "zhufenlh": "G05D27/02",
        "anjianbh": null,
        "mingcheng": null,
        "anjianjlwz": null,
        "anjianywzt": "专利权维持",
        "attention": false
      },
      {
        "zhuanlisqh": "202120489889X",
        "famingzlsqgbg": null,
        "shouquanggh": "CN215803487U",
        "zhuanlimc": "一种集成保障舱",
        "shenqingrxm": "xxxxxxxxxxxxxxxxxxxxxxxx有限公司",
        "zhuanlilx": "2",
        "shenqingr": "2021-03-08",
        "gongkaiggh": null,
        "falvzt": "专利权有效",
        "gongkaiggr": "2022-02-11",
        "shouquanggr": null,
        "zhufenlh": "E04H1/12",
        "anjianbh": null,
        "mingcheng": null,
        "anjianjlwz": null,
        "anjianywzt": "专利权维持",
        "attention": false
      },
      {
        "zhuanlisqh": "2021301245134",
        "famingzlsqgbg": null,
        "shouquanggh": "CN307107453S",
        "zhuanlimc": "配电箱",
        "shenqingrxm": "xxxxxxxxxxxxxxxxxxxxxxxx有限公司",
        "zhuanlilx": "3",
        "shenqingr": "2021-03-08",
        "gongkaiggh": null,
        "falvzt": "专利权有效",
        "gongkaiggr": "2022-02-11",
        "shouquanggr": null,
        "zhufenlh": "1303",
        "anjianbh": null,
        "mingcheng": null,
        "anjianjlwz": null,
        "anjianywzt": "专利权维持",
        "attention": false
      },
      {
        "zhuanlisqh": "2021204898739",
        "famingzlsqgbg": null,
        "shouquanggh": "CN215813206U",
        "zhuanlimc": "一种柱上开关模拟装置",
        "shenqingrxm": "xxxxxxxxxxxxxxxxxxxxxxxx有限公司",
        "zhuanlilx": "2",
        "shenqingr": "2021-03-08",
        "gongkaiggh": null,
        "falvzt": "专利权有效",
        "gongkaiggr": "2022-02-11",
        "shouquanggr": null,
        "zhufenlh": "G01R31/327",
        "anjianbh": null,
        "mingcheng": null,
        "anjianjlwz": null,
        "anjianywzt": "专利权维持",
        "attention": false
      },
      {
        "zhuanlisqh": "202120491283X",
        "famingzlsqgbg": null,
        "shouquanggh": "CN214958863U",
        "zhuanlimc": "一种直流负载供电装置",
        "shenqingrxm": "xxxxxxxxxxxxxxxxxxxxxxxx有限公司,xxxxxxxxxxxxxxxxxxxxxxxx有限公司",
        "zhuanlilx": "2",
        "shenqingr": "2021-03-08",
        "gongkaiggh": null,
        "falvzt": "专利权有效",
        "gongkaiggr": "2021-11-30",
        "shouquanggr": null,
        "zhufenlh": "H02J9/06",
        "anjianbh": null,
        "mingcheng": null,
        "anjianjlwz": null,
        "anjianywzt": "专利权维持",
        "attention": false
      },
      {
        "zhuanlisqh": "2021204912793",
        "famingzlsqgbg": null,
        "shouquanggh": "CN214900319U",
        "zhuanlimc": "一种交流负载供电装置",
        "shenqingrxm": "xxxxxxxxxxxxxxxxxxxxxxxx有限公司,xxxxxxxxxxxxxxxxxxxxxxxx有限公司",
        "zhuanlilx": "2",
        "shenqingr": "2021-03-08",
        "gongkaiggh": null,
        "falvzt": "专利权有效",
        "gongkaiggr": "2021-11-26",
        "shouquanggr": null,
        "zhufenlh": "H02J9/06",
        "anjianbh": null,
        "mingcheng": null,
        "anjianjlwz": null,
        "anjianywzt": "专利权维持",
        "attention": false
      },
      {
        "zhuanlisqh": "2021204912859",
        "famingzlsqgbg": null,
        "shouquanggh": "CN213457182U",
        "zhuanlimc": "一种电能质量监测系统",
        "shenqingrxm": "xxxxxxxxxxxxxxxxxxxxxxxx有限公司",
        "zhuanlilx": "2",
        "shenqingr": "2021-03-08",
        "gongkaiggh": null,
        "falvzt": "专利权有效",
        "gongkaiggr": "2021-06-15",
        "shouquanggr": null,
        "zhufenlh": "G01R31/00",
        "anjianbh": null,
        "mingcheng": null,
        "anjianjlwz": null,
        "anjianywzt": "专利权维持",
        "attention": false
      },
      {
        "zhuanlisqh": "2021204898902",
        "famingzlsqgbg": null,
        "shouquanggh": "CN214895558U",
        "zhuanlimc": "一种电能质量监测装置",
        "shenqingrxm": "xxxxxxxxxxxxxxxxxxxxxxxx有限公司",
        "zhuanlilx": "2",
        "shenqingr": "2021-03-08",
        "gongkaiggh": null,
        "falvzt": "专利权有效",
        "gongkaiggr": "2021-11-26",
        "shouquanggr": null,
        "zhufenlh": "G01R31/00",
        "anjianbh": null,
        "mingcheng": null,
        "anjianjlwz": null,
        "anjianywzt": "专利权维持",
        "attention": false
      },
      {
        "zhuanlisqh": "2021204912810",
        "famingzlsqgbg": null,
        "shouquanggh": "CN215802403U",
        "zhuanlimc": "一种壁板结构及其保障舱",
        "shenqingrxm": "xxxxxxxxxxxxxxxxxxxxxxxx有限公司",
        "zhuanlilx": "2",
        "shenqingr": "2021-03-08",
        "gongkaiggh": null,
        "falvzt": "专利权有效",
        "gongkaiggr": "2022-02-11",
        "shouquanggr": null,
        "zhufenlh": "E04B2/00",
        "anjianbh": null,
        "mingcheng": null,
        "anjianjlwz": null,
        "anjianywzt": "专利权维持",
        "attention": false
      },
      {
        "zhuanlisqh": "2021301245346",
        "famingzlsqgbg": null,
        "shouquanggh": "CN307109577S",
        "zhuanlimc": "方舱",
        "shenqingrxm": "xxxxxxxxxxxxxxxxxxxxxxxx有限公司",
        "zhuanlilx": "3",
        "shenqingr": "2021-03-08",
        "gongkaiggh": null,
        "falvzt": "专利权有效",
        "gongkaiggr": "2022-02-11",
        "shouquanggr": null,
        "zhufenlh": "2503",
        "anjianbh": null,
        "mingcheng": null,
        "anjianjlwz": null,
        "anjianywzt": "专利权维持",
        "attention": false
      },
      {
        "zhuanlisqh": "202120294006X",
        "famingzlsqgbg": null,
        "shouquanggh": "CN214936182U",
        "zhuanlimc": "一种气液相分离装置",
        "shenqingrxm": "xxxxxxxxxxxxxxxxxxxxxxxx有限公司",
        "zhuanlilx": "2",
        "shenqingr": "2021-02-02",
        "gongkaiggh": null,
        "falvzt": "专利权有效",
        "gongkaiggr": "2021-11-30",
        "shouquanggr": null,
        "zhufenlh": "C02F1/20",
        "anjianbh": null,
        "mingcheng": null,
        "anjianjlwz": null,
        "anjianywzt": "专利权维持",
        "attention": false
      },
      {
        "zhuanlisqh": "2021101424970",
        "famingzlsqgbg": "CN112777667A",
        "shouquanggh": null,
        "zhuanlimc": "一种气液相分离装置",
        "shenqingrxm": "xxxxxxxxxxxxxxxxxxxxxxxx有限公司",
        "zhuanlilx": "1",
        "shenqingr": "2021-02-02",
        "gongkaiggh": null,
        "falvzt": null,
        "gongkaiggr": null,
        "shouquanggr": null,
        "zhufenlh": "C02F1/20",
        "anjianbh": null,
        "mingcheng": null,
        "anjianjlwz": null,
        "anjianywzt": "等待实审提案",
        "attention": false
      },
      {
        "zhuanlisqh": "2021202182118",
        "famingzlsqgbg": null,
        "shouquanggh": "CN214874118U",
        "zhuanlimc": "一种氢发电车消防系统",
        "shenqingrxm": "xxxxxxxxxxxxxxxxxxxxxxxx有限公司",
        "zhuanlilx": "2",
        "shenqingr": "2021-01-26",
        "gongkaiggh": null,
        "falvzt": "专利权有效",
        "gongkaiggr": "2021-11-26",
        "shouquanggr": null,
        "zhufenlh": "B60H1/24",
        "anjianbh": null,
        "mingcheng": null,
        "anjianjlwz": null,
        "anjianywzt": "专利权维持",
        "attention": false
      },
      {
        "zhuanlisqh": "2021101050703",
        "famingzlsqgbg": "CN112874269A",
        "shouquanggh": null,
        "zhuanlimc": "一种氢发电车消防系统",
        "shenqingrxm": "xxxxxxxxxxxxxxxxxxxxxxxx有限公司",
        "zhuanlilx": "1",
        "shenqingr": "2021-01-26",
        "gongkaiggh": null,
        "falvzt": null,
        "gongkaiggr": null,
        "shouquanggr": null,
        "zhufenlh": "B60H1/24",
        "anjianbh": null,
        "mingcheng": null,
        "anjianjlwz": null,
        "anjianywzt": "等待实审提案",
        "attention": false
      },
      {
        "zhuanlisqh": "2021101050718",
        "famingzlsqgbg": "CN112963241A",
        "shouquanggh": "CN112963241B",
        "zhuanlimc": "一种集水排气箱以及氢能源发电车",
        "shenqingrxm": "xxxxxxxxxxxxxxxxxxxxxxxx有限公司",
        "zhuanlilx": "1",
        "shenqingr": "2021-01-26",
        "gongkaiggh": null,
        "falvzt": "专利权有效",
        "gongkaiggr": "2022-05-31",
        "shouquanggr": null,
        "zhufenlh": "F02B63/04",
        "anjianbh": null,
        "mingcheng": null,
        "anjianjlwz": null,
        "anjianywzt": "专利权维持",
        "attention": false
      },
      {
        "zhuanlisqh": "2021202197359",
        "famingzlsqgbg": null,
        "shouquanggh": "CN216799066U",
        "zhuanlimc": "一种排气箱及氢能发电车",
        "shenqingrxm": "xxxxxxxxxxxxxxxxxxxxxxxx有限公司",
        "zhuanlilx": "2",
        "shenqingr": "2021-01-26",
        "gongkaiggh": null,
        "falvzt": "专利权有效",
        "gongkaiggr": "2022-06-24",
        "shouquanggr": null,
        "zhufenlh": "B01D45/08",
        "anjianbh": null,
        "mingcheng": null,
        "anjianjlwz": null,
        "anjianywzt": "专利权维持",
        "attention": false
      },
      {
        "zhuanlisqh": "2021202182495",
        "famingzlsqgbg": null,
        "shouquanggh": "CN214505720U",
        "zhuanlimc": "一种氢燃料发电车泄压装置",
        "shenqingrxm": "xxxxxxxxxxxxxxxxxxxxxxxx有限公司",
        "zhuanlilx": "2",
        "shenqingr": "2021-01-26",
        "gongkaiggh": null,
        "falvzt": "专利权有效",
        "gongkaiggr": "2021-10-26",
        "shouquanggr": null,
        "zhufenlh": "H01M50/367",
        "anjianbh": null,
        "mingcheng": null,
        "anjianjlwz": null,
        "anjianywzt": "专利权维持",
        "attention": false
      },
      {
        "zhuanlisqh": "2021202180127",
        "famingzlsqgbg": null,
        "shouquanggh": "CN214505563U",
        "zhuanlimc": "一种模块化氢发电装置",
        "shenqingrxm": "xxxxxxxxxxxxxxxxxxxxxxxx有限公司",
        "zhuanlilx": "2",
        "shenqingr": "2021-01-26",
        "gongkaiggh": null,
        "falvzt": "专利权有效",
        "gongkaiggr": "2021-10-26",
        "shouquanggr": null,
        "zhufenlh": "H01M8/249",
        "anjianbh": null,
        "mingcheng": null,
        "anjianjlwz": null,
        "anjianywzt": "专利权维持",
        "attention": false
      },
      {
        "zhuanlisqh": "2021101065427",
        "famingzlsqgbg": "CN112768833A",
        "shouquanggh": null,
        "zhuanlimc": "一种氢燃料发电车泄压装置",
        "shenqingrxm": "xxxxxxxxxxxxxxxxxxxxxxxx有限公司",
        "zhuanlilx": "1",
        "shenqingr": "2021-01-26",
        "gongkaiggh": null,
        "falvzt": null,
        "gongkaiggr": null,
        "shouquanggr": null,
        "zhufenlh": "H01M50/367",
        "anjianbh": null,
        "mingcheng": null,
        "anjianjlwz": null,
        "anjianywzt": "等待实审提案",
        "attention": false
      },
      {
        "zhuanlisqh": "2021200943966",
        "famingzlsqgbg": null,
        "shouquanggh": "CN214280565U",
        "zhuanlimc": "一种箱变组合结构",
        "shenqingrxm": "xxxxxxxxxxxxxxxxxxxxxxxx有限公司",
        "zhuanlilx": "2",
        "shenqingr": "2021-01-14",
        "gongkaiggh": null,
        "falvzt": "专利权有效",
        "gongkaiggr": "2021-09-24",
        "shouquanggr": null,
        "zhufenlh": "H02B1/46",
        "anjianbh": null,
        "mingcheng": null,
        "anjianjlwz": null,
        "anjianywzt": "专利权维持",
        "attention": false
      },
      {
        "zhuanlisqh": "2021200942658",
        "famingzlsqgbg": null,
        "shouquanggh": "CN214899671U",
        "zhuanlimc": "一种通风散热盖",
        "shenqingrxm": "xxxxxxxxxxxxxxxxxxxxxxxx有限公司",
        "zhuanlilx": "2",
        "shenqingr": "2021-01-14",
        "gongkaiggh": null,
        "falvzt": "专利权有效",
        "gongkaiggr": "2021-11-26",
        "shouquanggr": null,
        "zhufenlh": "H02B1/56",
        "anjianbh": null,
        "mingcheng": null,
        "anjianjlwz": null,
        "anjianywzt": "专利权维持",
        "attention": false
      },
      {
        "zhuanlisqh": "2021300262560",
        "famingzlsqgbg": null,
        "shouquanggh": "CN306609172S",
        "zhuanlimc": "门锁",
        "shenqingrxm": "xxxxxxxxxxxxxxxxxxxxxxxx有限公司",
        "zhuanlilx": "3",
        "shenqingr": "2021-01-14",
        "gongkaiggh": null,
        "falvzt": "专利权有效",
        "gongkaiggr": "2021-06-15",
        "shouquanggr": null,
        "zhufenlh": "0807",
        "anjianbh": null,
        "mingcheng": null,
        "anjianjlwz": null,
        "anjianywzt": "专利权维持",
        "attention": false
      },
      {
        "zhuanlisqh": "2021300249759",
        "famingzlsqgbg": null,
        "shouquanggh": "CN306966482S",
        "zhuanlimc": "通风散热盖",
        "shenqingrxm": "xxxxxxxxxxxxxxxxxxxxxxxx有限公司",
        "zhuanlilx": "3",
        "shenqingr": "2021-01-14",
        "gongkaiggh": null,
        "falvzt": "专利权有效",
        "gongkaiggr": "2021-11-26",
        "shouquanggr": null,
        "zhufenlh": "2304",
        "anjianbh": null,
        "mingcheng": null,
        "anjianjlwz": null,
        "anjianywzt": "专利权维持",
        "attention": false
      },
      {
        "zhuanlisqh": "2020231988526",
        "famingzlsqgbg": null,
        "shouquanggh": "CN213754107U",
        "zhuanlimc": "一种适用于氢能源发电车的多电源监控系统",
        "shenqingrxm": "xxxxxxxxxxxx公司,xxxxxxxxxxxxxxxxxxxxxxxx有限公司,xxxxxxxxxxxxxxxxxxxxxxxx有限公司",
        "zhuanlilx": "2",
        "shenqingr": "2020-12-25",
        "gongkaiggh": null,
        "falvzt": "专利权有效",
        "gongkaiggr": "2021-07-20",
        "shouquanggr": null,
        "zhufenlh": "H02J13/00",
        "anjianbh": null,
        "mingcheng": null,
        "anjianjlwz": null,
        "anjianywzt": "专利权维持",
        "attention": false
      },
      {
        "zhuanlisqh": "2020231959966",
        "famingzlsqgbg": null,
        "shouquanggh": "CN213746528U",
        "zhuanlimc": "一种多功能路灯",
        "shenqingrxm": "xxxxxxxxxxxx公司,xxxxxxxxxxxxxxxxxxxxxxxx有限公司,xxxxxxxxxxxxxxxxxxxxxxxx有限公司,xxxxxxxxxxxxxxxxxxxxxxxx有限公司",
        "zhuanlilx": "2",
        "shenqingr": "2020-12-25",
        "gongkaiggh": null,
        "falvzt": "专利权有效",
        "gongkaiggr": "2021-07-20",
        "shouquanggr": null,
        "zhufenlh": "F21S9/03",
        "anjianbh": null,
        "mingcheng": null,
        "anjianjlwz": null,
        "anjianywzt": "专利权维持",
        "attention": false
      },
      {
        "zhuanlisqh": "2020231973041",
        "famingzlsqgbg": null,
        "shouquanggh": "CN213816762U",
        "zhuanlimc": "一种具备户外LED屏的箱式变电站",
        "shenqingrxm": "xxxxxxxxxxxx公司,xxxxxxxxxxxxxxxxxxxxxxxx有限公司,xxxxxxxxxxxxxxxxxxxxxxxx有限公司",
        "zhuanlilx": "2",
        "shenqingr": "2020-12-25",
        "gongkaiggh": null,
        "falvzt": "专利权有效",
        "gongkaiggr": "2021-07-27",
        "shouquanggr": null,
        "zhufenlh": "H02B1/24",
        "anjianbh": null,
        "mingcheng": null,
        "anjianjlwz": null,
        "anjianywzt": "专利权维持",
        "attention": false
      },
      {
        "zhuanlisqh": "2020231959627",
        "famingzlsqgbg": null,
        "shouquanggh": "CN213920739U",
        "zhuanlimc": "一种多用途车载燃料电池散热器安装结构",
        "shenqingrxm": "xxxxxxxxxxxx公司,xxxxxxxxxxxxxxxxxxxxxxxx有限公司,xxxxxxxxxxxxxxxxxxxxxxxx有限公司",
        "zhuanlilx": "2",
        "shenqingr": "2020-12-25",
        "gongkaiggh": null,
        "falvzt": "专利权有效",
        "gongkaiggr": "2021-08-10",
        "shouquanggr": null,
        "zhufenlh": "B60L58/33",
        "anjianbh": null,
        "mingcheng": null,
        "anjianjlwz": null,
        "anjianywzt": "专利权维持",
        "attention": false
      },
      {
        "zhuanlisqh": "2020308056054",
        "famingzlsqgbg": null,
        "shouquanggh": "CN306706454S",
        "zhuanlimc": "路灯（冠军A）",
        "shenqingrxm": "xxxxxxxxxxxx公司,xxxxxxxxxxxxxxxxxxxxxxxx有限公司,xxxxxxxxxxxxxxxxxxxxxxxx有限公司,xxxxxxxxxxxxxxxxxxxxxxxx有限公司",
        "zhuanlilx": "3",
        "shenqingr": "2020-12-25",
        "gongkaiggh": null,
        "falvzt": "专利权有效",
        "gongkaiggr": "2021-07-23",
        "shouquanggr": null,
        "zhufenlh": "2603",
        "anjianbh": null,
        "mingcheng": null,
        "anjianjlwz": null,
        "anjianywzt": "专利权维持",
        "attention": false
      },
      {
        "zhuanlisqh": "2020308047708",
        "famingzlsqgbg": null,
        "shouquanggh": "CN306698755S",
        "zhuanlimc": "路灯（冠军B）",
        "shenqingrxm": "xxxxxxxxxxxx公司,xxxxxxxxxxxxxxxxxxxxxxxx有限公司,xxxxxxxxxxxxxxxxxxxxxxxx有限公司,xxxxxxxxxxxxxxxxxxxxxxxx有限公司",
        "zhuanlilx": "3",
        "shenqingr": "2020-12-25",
        "gongkaiggh": null,
        "falvzt": "专利权有效",
        "gongkaiggr": "2021-07-20",
        "shouquanggr": null,
        "zhufenlh": "2603",
        "anjianbh": null,
        "mingcheng": null,
        "anjianjlwz": null,
        "anjianywzt": "专利权维持",
        "attention": false
      },
      {
        "zhuanlisqh": "2020114193414",
        "famingzlsqgbg": "CN112615027A",
        "shouquanggh": null,
        "zhuanlimc": "一种燃料电池发电车及其点火方法",
        "shenqingrxm": "xxxxxxxxxxxx公司,xxxxxxxxxxxxxxxxxxxxxxxx有限公司,xxxxxxxxxxxxxxxxxxxxxxxx有限公司,xxxxxxxxxxxxxxxxxxxxxxxx有限公司",
        "zhuanlilx": "1",
        "shenqingr": "2020-12-07",
        "gongkaiggh": null,
        "falvzt": null,
        "gongkaiggr": null,
        "shouquanggr": null,
        "zhufenlh": "H01M8/04082",
        "anjianbh": null,
        "mingcheng": null,
        "anjianjlwz": null,
        "anjianywzt": "驳回失效",
        "attention": false
      },
      {
        "zhuanlisqh": "2020113239105",
        "famingzlsqgbg": "CN112467170A",
        "shouquanggh": "CN112467170B",
        "zhuanlimc": "散热器",
        "shenqingrxm": "xxxxxxxxxxxx公司,xxxxxxxxxxxxxxxxxxxxxxxx有限公司,xxxxxxxxxxxxxxxxxxxxxxxx有限公司,xxxxxxxxxxxxxxxxxxxxxxxx有限公司",
        "zhuanlilx": "1",
        "shenqingr": "2020-11-23",
        "gongkaiggh": null,
        "falvzt": "专利权有效",
        "gongkaiggr": "2022-09-02",
        "shouquanggr": null,
        "zhufenlh": "H01M8/04007",
        "anjianbh": null,
        "mingcheng": null,
        "anjianjlwz": null,
        "anjianywzt": "专利权维持",
        "attention": false
      },
      {
        "zhuanlisqh": "2020227481576",
        "famingzlsqgbg": null,
        "shouquanggh": "CN214626485U",
        "zhuanlimc": "整流逆变系统和电源车",
        "shenqingrxm": "xxxxxxxxxxxx公司,xxxxxxxxxxxxxxxxxxxxxxxx有限公司,xxxxxxxxxxxxxxxxxxxxxxxx有限公司,xxxxxxxxxxxxxxxxxxxxxxxx有限公司",
        "zhuanlilx": "2",
        "shenqingr": "2020-11-23",
        "gongkaiggh": null,
        "falvzt": "专利权有效",
        "gongkaiggr": "2021-11-05",
        "shouquanggr": null,
        "zhufenlh": "H02J9/06",
        "anjianbh": null,
        "mingcheng": null,
        "anjianjlwz": null,
        "anjianywzt": "专利权维持",
        "attention": false
      },
      {
        "zhuanlisqh": "2020112881814",
        "famingzlsqgbg": "CN112384018A",
        "shouquanggh": null,
        "zhuanlimc": "一种环境自适应电气设备箱及其控制方法",
        "shenqingrxm": "xxxxxxxxxxxx公司,xxxxxxxxxxxxxxxxxxxxxxxx有限公司,xxxxxxxxxxxxxxxxxxxxxxxx有限公司,xxxxxxxxxxxxxxxxxxxxxxxx有限公司",
        "zhuanlilx": "1",
        "shenqingr": "2020-11-17",
        "gongkaiggh": null,
        "falvzt": null,
        "gongkaiggr": null,
        "shouquanggr": null,
        "zhufenlh": "H05K5/02",
        "anjianbh": null,
        "mingcheng": null,
        "anjianjlwz": null,
        "anjianywzt": "驳回失效",
        "attention": false
      }
    ],
    "total": 550,
    "pageSize": 50,
    "currentPage": 4,
    "pages": 11
  },
  "msg": "成功"
}