{
  "code": 200,
  "data": {
    "records": [
      {
        "zhuanlisqh": "2020306885823",
        "famingzlsqgbg": null,
        "shouquanggh": "CN306688794S",
        "zhuanlimc": "储能室",
        "shenqingrxm": "xxxxxxxxxxxxxxxxxxxxxxxx有限公司",
        "zhuanlilx": "3",
        "shenqingr": "2020-11-13",
        "gongkaiggh": null,
        "falvzt": "专利权有效",
        "gongkaiggr": "2021-07-16",
        "shouquanggr": null,
        "zhufenlh": "2503",
        "anjianbh": null,
        "mingcheng": null,
        "anjianjlwz": null,
        "anjianywzt": "专利权维持",
        "attention": false
      },
      {
        "zhuanlisqh": "2020223937927",
        "famingzlsqgbg": null,
        "shouquanggh": "CN214117702U",
        "zhuanlimc": "一种便于通风换气的帐篷",
        "shenqingrxm": "xxxxxxxxxxxxxxxxxxxxxxxx有限公司",
        "zhuanlilx": "2",
        "shenqingr": "2020-10-24",
        "gongkaiggh": null,
        "falvzt": "专利权有效",
        "gongkaiggr": "2021-09-03",
        "shouquanggr": null,
        "zhufenlh": "E04H15/14",
        "anjianbh": null,
        "mingcheng": null,
        "anjianjlwz": null,
        "anjianywzt": "专利权维持",
        "attention": false
      },
      {
        "zhuanlisqh": "2020111509523",
        "famingzlsqgbg": "CN112343410A",
        "shouquanggh": null,
        "zhuanlimc": "一种多功能便携式帐篷",
        "shenqingrxm": "xxxxxxxxxxxxxxxxxxxxxxxx有限公司",
        "zhuanlilx": "1",
        "shenqingr": "2020-10-24",
        "gongkaiggh": null,
        "falvzt": null,
        "gongkaiggr": null,
        "shouquanggr": null,
        "zhufenlh": "E04H15/20",
        "anjianbh": null,
        "mingcheng": null,
        "anjianjlwz": null,
        "anjianywzt": "驳回失效",
        "attention": false
      },
      {
        "zhuanlisqh": "2020223940309",
        "famingzlsqgbg": null,
        "shouquanggh": "CN214117707U",
        "zhuanlimc": "一种带有红外线测温仪的帐篷",
        "shenqingrxm": "xxxxxxxxxxxxxxxxxxxxxxxx有限公司",
        "zhuanlilx": "2",
        "shenqingr": "2020-10-24",
        "gongkaiggh": null,
        "falvzt": "专利权有效",
        "gongkaiggr": "2021-09-03",
        "shouquanggr": null,
        "zhufenlh": "E04H15/32",
        "anjianbh": null,
        "mingcheng": null,
        "anjianjlwz": null,
        "anjianywzt": "专利权维持",
        "attention": false
      },
      {
        "zhuanlisqh": "2020223939547",
        "famingzlsqgbg": null,
        "shouquanggh": "CN214117719U",
        "zhuanlimc": "一种用于固定帐篷的雪地锚钉",
        "shenqingrxm": "xxxxxxxxxxxxxxxxxxxxxxxx有限公司",
        "zhuanlilx": "2",
        "shenqingr": "2020-10-24",
        "gongkaiggh": null,
        "falvzt": "专利权有效",
        "gongkaiggr": "2021-09-03",
        "shouquanggr": null,
        "zhufenlh": "E04H15/62",
        "anjianbh": null,
        "mingcheng": null,
        "anjianjlwz": null,
        "anjianywzt": "专利权维持",
        "attention": false
      },
      {
        "zhuanlisqh": "2020223940262",
        "famingzlsqgbg": null,
        "shouquanggh": "CN214117706U",
        "zhuanlimc": "一种带有太阳能电池片的帐篷",
        "shenqingrxm": "xxxxxxxxxxxxxxxxxxxxxxxx有限公司",
        "zhuanlilx": "2",
        "shenqingr": "2020-10-24",
        "gongkaiggh": null,
        "falvzt": "专利权有效",
        "gongkaiggr": "2021-09-03",
        "shouquanggr": null,
        "zhufenlh": "E04H15/32",
        "anjianbh": null,
        "mingcheng": null,
        "anjianjlwz": null,
        "anjianywzt": "专利权维持",
        "attention": false
      },
      {
        "zhuanlisqh": "2020223939689",
        "famingzlsqgbg": null,
        "shouquanggh": "CN213705461U",
        "zhuanlimc": "一种多功能行李车",
        "shenqingrxm": "xxxxxxxxxxxxxxxxxxxxxxxx有限公司",
        "zhuanlilx": "2",
        "shenqingr": "2020-10-24",
        "gongkaiggh": null,
        "falvzt": "专利权有效",
        "gongkaiggr": "2021-07-16",
        "shouquanggr": null,
        "zhufenlh": "B62B1/12",
        "anjianbh": null,
        "mingcheng": null,
        "anjianjlwz": null,
        "anjianywzt": "专利权维持",
        "attention": false
      },
      {
        "zhuanlisqh": "2020111509453",
        "famingzlsqgbg": "CN112208592A",
        "shouquanggh": null,
        "zhuanlimc": "一种多功能行李车",
        "shenqingrxm": "xxxxxxxxxxxxxxxxxxxxxxxx有限公司",
        "zhuanlilx": "1",
        "shenqingr": "2020-10-24",
        "gongkaiggh": null,
        "falvzt": null,
        "gongkaiggr": null,
        "shouquanggr": null,
        "zhufenlh": "B62B1/12",
        "anjianbh": null,
        "mingcheng": null,
        "anjianjlwz": null,
        "anjianywzt": "公告封卷",
        "attention": false
      },
      {
        "zhuanlisqh": "2020223937433",
        "famingzlsqgbg": null,
        "shouquanggh": "CN214117705U",
        "zhuanlimc": "一种带有安全保护装置的帐篷",
        "shenqingrxm": "xxxxxxxxxxxxxxxxxxxxxxxx有限公司",
        "zhuanlilx": "2",
        "shenqingr": "2020-10-24",
        "gongkaiggh": null,
        "falvzt": "专利权有效",
        "gongkaiggr": "2021-09-03",
        "shouquanggr": null,
        "zhufenlh": "E04H15/32",
        "anjianbh": null,
        "mingcheng": null,
        "anjianjlwz": null,
        "anjianywzt": "专利权维持",
        "attention": false
      },
      {
        "zhuanlisqh": "2020223939301",
        "famingzlsqgbg": null,
        "shouquanggh": "CN214498587U",
        "zhuanlimc": "一种带有柔性太阳能薄膜的帐篷",
        "shenqingrxm": "xxxxxxxxxxxxxxxxxxxxxxxx有限公司",
        "zhuanlilx": "2",
        "shenqingr": "2020-10-24",
        "gongkaiggh": null,
        "falvzt": "专利权有效",
        "gongkaiggr": "2021-10-26",
        "shouquanggr": null,
        "zhufenlh": "E04H15/32",
        "anjianbh": null,
        "mingcheng": null,
        "anjianjlwz": null,
        "anjianywzt": "专利权维持",
        "attention": false
      },
      {
        "zhuanlisqh": "2020223940169",
        "famingzlsqgbg": null,
        "shouquanggh": "CN213712659U",
        "zhuanlimc": "一种循环充气系统",
        "shenqingrxm": "xxxxxxxxxxxxxxxxxxxxxxxx有限公司",
        "zhuanlilx": "2",
        "shenqingr": "2020-10-24",
        "gongkaiggh": null,
        "falvzt": "专利权有效",
        "gongkaiggr": "2021-07-16",
        "shouquanggr": null,
        "zhufenlh": "F17D1/04",
        "anjianbh": null,
        "mingcheng": null,
        "anjianjlwz": null,
        "anjianywzt": "专利权维持",
        "attention": false
      },
      {
        "zhuanlisqh": "2020223753143",
        "famingzlsqgbg": null,
        "shouquanggh": "CN213712536U",
        "zhuanlimc": "一种用于电缆故障检测小车的全景摄像探测装置",
        "shenqingrxm": "xxxxxxxxxxxxxxxxxxxxxxxx有限公司",
        "zhuanlilx": "2",
        "shenqingr": "2020-10-22",
        "gongkaiggh": null,
        "falvzt": "专利权有效",
        "gongkaiggr": "2021-07-16",
        "shouquanggr": null,
        "zhufenlh": "F16M11/42",
        "anjianbh": null,
        "mingcheng": null,
        "anjianjlwz": null,
        "anjianywzt": "专利权维持",
        "attention": false
      },
      {
        "zhuanlisqh": "2020223746493",
        "famingzlsqgbg": null,
        "shouquanggh": "CN213715361U",
        "zhuanlimc": "一种电缆故障定位车",
        "shenqingrxm": "xxxxxxxxxxxxxxxxxxxxxxxx有限公司",
        "zhuanlilx": "2",
        "shenqingr": "2020-10-22",
        "gongkaiggh": null,
        "falvzt": "专利权有效",
        "gongkaiggr": "2021-07-16",
        "shouquanggr": null,
        "zhufenlh": "G01R31/08",
        "anjianbh": null,
        "mingcheng": null,
        "anjianjlwz": null,
        "anjianywzt": "专利权维持",
        "attention": false
      },
      {
        "zhuanlisqh": "2020111392952",
        "famingzlsqgbg": "CN112462190A",
        "shouquanggh": "CN112462190B",
        "zhuanlimc": "地下电缆故障探测多足机器人、探测系统及探测方法",
        "shenqingrxm": "xxxxxxxxxxxxxxxxxxxxxxxx有限公司",
        "zhuanlilx": "1",
        "shenqingr": "2020-10-22",
        "gongkaiggh": null,
        "falvzt": "专利权有效",
        "gongkaiggr": "2023-01-17",
        "shouquanggr": null,
        "zhufenlh": "G01R31/08",
        "anjianbh": null,
        "mingcheng": null,
        "anjianjlwz": null,
        "anjianywzt": "专利权维持",
        "attention": false
      },
      {
        "zhuanlisqh": "2020223744568",
        "famingzlsqgbg": null,
        "shouquanggh": "CN213705615U",
        "zhuanlimc": "一种电缆故障定位四足机器人",
        "shenqingrxm": "xxxxxxxxxxxxxxxxxxxxxxxx有限公司",
        "zhuanlilx": "2",
        "shenqingr": "2020-10-22",
        "gongkaiggh": null,
        "falvzt": "专利权有效",
        "gongkaiggr": "2021-07-16",
        "shouquanggr": null,
        "zhufenlh": "B62D57/032",
        "anjianbh": null,
        "mingcheng": null,
        "anjianjlwz": null,
        "anjianywzt": "专利权维持",
        "attention": false
      },
      {
        "zhuanlisqh": "2020111413520",
        "famingzlsqgbg": "CN112415629A",
        "shouquanggh": "CN112415629B",
        "zhuanlimc": "一种电缆路径识别与故障定位车",
        "shenqingrxm": "xxxxxxxxxxxxxxxxxxxxxxxx有限公司",
        "zhuanlilx": "1",
        "shenqingr": "2020-10-22",
        "gongkaiggh": null,
        "falvzt": "专利权有效",
        "gongkaiggr": "2023-11-21",
        "shouquanggr": null,
        "zhufenlh": "G01V9/00",
        "anjianbh": null,
        "mingcheng": null,
        "anjianjlwz": null,
        "anjianywzt": "专利权维持",
        "attention": false
      },
      {
        "zhuanlisqh": "2020223754038",
        "famingzlsqgbg": null,
        "shouquanggh": "CN213705619U",
        "zhuanlimc": "一种全地形电缆定位车",
        "shenqingrxm": "xxxxxxxxxxxxxxxxxxxxxxxx有限公司",
        "zhuanlilx": "2",
        "shenqingr": "2020-10-22",
        "gongkaiggh": null,
        "falvzt": "专利权有效",
        "gongkaiggr": "2021-07-16",
        "shouquanggr": null,
        "zhufenlh": "B62D63/02",
        "anjianbh": null,
        "mingcheng": null,
        "anjianjlwz": null,
        "anjianywzt": "专利权维持",
        "attention": false
      },
      {
        "zhuanlisqh": "2020223754019",
        "famingzlsqgbg": null,
        "shouquanggh": "CN213715461U",
        "zhuanlimc": "一种能够自动避障的电缆路径识别车",
        "shenqingrxm": "xxxxxxxxxxxxxxxxxxxxxxxx有限公司",
        "zhuanlilx": "2",
        "shenqingr": "2020-10-22",
        "gongkaiggh": null,
        "falvzt": "专利权有效",
        "gongkaiggr": "2021-07-16",
        "shouquanggr": null,
        "zhufenlh": "G01S15/931",
        "anjianbh": null,
        "mingcheng": null,
        "anjianjlwz": null,
        "anjianywzt": "专利权维持",
        "attention": false
      },
      {
        "zhuanlisqh": "2020111413268",
        "famingzlsqgbg": "CN112462191A",
        "shouquanggh": "CN112462191B",
        "zhuanlimc": "地下电缆故障探测机器人、探测系统及探测方法",
        "shenqingrxm": "xxxxxxxxxxxxxxxxxxxxxxxx有限公司",
        "zhuanlilx": "1",
        "shenqingr": "2020-10-22",
        "gongkaiggh": null,
        "falvzt": "专利权有效",
        "gongkaiggr": "2023-02-10",
        "shouquanggr": null,
        "zhufenlh": "G01R31/08",
        "anjianbh": null,
        "mingcheng": null,
        "anjianjlwz": null,
        "anjianywzt": "专利权维持",
        "attention": false
      },
      {
        "zhuanlisqh": "2020223746703",
        "famingzlsqgbg": null,
        "shouquanggh": "CN213715362U",
        "zhuanlimc": "一种电缆路径定位车",
        "shenqingrxm": "xxxxxxxxxxxxxxxxxxxxxxxx有限公司",
        "zhuanlilx": "2",
        "shenqingr": "2020-10-22",
        "gongkaiggh": null,
        "falvzt": "专利权有效",
        "gongkaiggr": "2021-07-16",
        "shouquanggr": null,
        "zhufenlh": "G01R31/08",
        "anjianbh": null,
        "mingcheng": null,
        "anjianjlwz": null,
        "anjianywzt": "专利权维持",
        "attention": false
      },
      {
        "zhuanlisqh": "2020223755204",
        "famingzlsqgbg": null,
        "shouquanggh": "CN213715363U",
        "zhuanlimc": "一种电缆路径识别车的防跌落装置",
        "shenqingrxm": "xxxxxxxxxxxxxxxxxxxxxxxx有限公司",
        "zhuanlilx": "2",
        "shenqingr": "2020-10-22",
        "gongkaiggh": null,
        "falvzt": "专利权有效",
        "gongkaiggr": "2021-07-16",
        "shouquanggr": null,
        "zhufenlh": "G01R31/08",
        "anjianbh": null,
        "mingcheng": null,
        "anjianjlwz": null,
        "anjianywzt": "专利权维持",
        "attention": false
      },
      {
        "zhuanlisqh": "2020223746686",
        "famingzlsqgbg": null,
        "shouquanggh": "CN213705616U",
        "zhuanlimc": "一种用于电缆故障定位的四足机器人",
        "shenqingrxm": "xxxxxxxxxxxxxxxxxxxxxxxx有限公司",
        "zhuanlilx": "2",
        "shenqingr": "2020-10-22",
        "gongkaiggh": null,
        "falvzt": "专利权有效",
        "gongkaiggr": "2021-07-16",
        "shouquanggr": null,
        "zhufenlh": "B62D57/032",
        "anjianbh": null,
        "mingcheng": null,
        "anjianjlwz": null,
        "anjianywzt": "专利权维持",
        "attention": false
      },
      {
        "zhuanlisqh": "2020111215816",
        "famingzlsqgbg": "CN112240593A",
        "shouquanggh": null,
        "zhuanlimc": "供暖装置、供暖装置的控制方法、控制装置和供暖系统",
        "shenqingrxm": "xxxxxxxxxxxx公司,xxxxxxxxxxxxxxxxxxxxxxxx有限公司,xxxxxxxxxxxxxxxxxxxxxxxx有限公司,xxxxxxxxxxxxxxxxxxxxxxxx有限公司",
        "zhuanlilx": "1",
        "shenqingr": "2020-10-19",
        "gongkaiggh": null,
        "falvzt": null,
        "gongkaiggr": null,
        "shouquanggr": null,
        "zhufenlh": "F24D3/02",
        "anjianbh": null,
        "mingcheng": null,
        "anjianjlwz": null,
        "anjianywzt": "驳回失效",
        "attention": false
      },
      {
        "zhuanlisqh": "2020109890273",
        "famingzlsqgbg": "CN112271719A",
        "shouquanggh": null,
        "zhuanlimc": "一种发电机控制器",
        "shenqingrxm": "xxxxxxxxxxxxxxxxxxxxxxxx有限公司",
        "zhuanlilx": "1",
        "shenqingr": "2020-09-18",
        "gongkaiggh": null,
        "falvzt": null,
        "gongkaiggr": null,
        "shouquanggr": null,
        "zhufenlh": "H02J3/00",
        "anjianbh": null,
        "mingcheng": null,
        "anjianjlwz": null,
        "anjianywzt": "驳回失效",
        "attention": false
      },
      {
        "zhuanlisqh": "2020109900773",
        "famingzlsqgbg": "CN112097304A",
        "shouquanggh": null,
        "zhuanlimc": "一种集中式清洁供暖系统",
        "shenqingrxm": "xxxxxxxxxxxx公司,xxxxxxxxxxxxxxxxxxxxxxxx有限公司,xxxxxxxxxxxxxxxxxxxxxxxx有限公司,xxxxxxxxxxxxxxxxxxxxxxxx有限公司",
        "zhuanlilx": "1",
        "shenqingr": "2020-09-18",
        "gongkaiggh": null,
        "falvzt": null,
        "gongkaiggr": null,
        "shouquanggr": null,
        "zhufenlh": "F24D3/02",
        "anjianbh": null,
        "mingcheng": null,
        "anjianjlwz": null,
        "anjianywzt": "驳回失效",
        "attention": false
      },
      {
        "zhuanlisqh": "2020109863238",
        "famingzlsqgbg": "CN112332402A",
        "shouquanggh": null,
        "zhuanlimc": "一种双电源测控装置",
        "shenqingrxm": "xxxxxxxxxxxxxxxxxxxxxxxx有限公司",
        "zhuanlilx": "1",
        "shenqingr": "2020-09-18",
        "gongkaiggh": null,
        "falvzt": null,
        "gongkaiggr": null,
        "shouquanggr": null,
        "zhufenlh": "H02J3/00",
        "anjianbh": null,
        "mingcheng": null,
        "anjianjlwz": null,
        "anjianywzt": "驳回失效",
        "attention": false
      },
      {
        "zhuanlisqh": "2020305571265",
        "famingzlsqgbg": null,
        "shouquanggh": "CN306611568S",
        "zhuanlimc": "耐低温可视化配电设备",
        "shenqingrxm": "xxxxxxxxxxxxxxxxxxxxxxxx有限公司,xxxxxxxxxxxxxxxxxxxxxxxx有限公司",
        "zhuanlilx": "3",
        "shenqingr": "2020-09-18",
        "gongkaiggh": null,
        "falvzt": "专利权有效",
        "gongkaiggr": "2021-06-15",
        "shouquanggr": null,
        "zhufenlh": "1303",
        "anjianbh": null,
        "mingcheng": null,
        "anjianjlwz": null,
        "anjianywzt": "专利权维持",
        "attention": false
      },
      {
        "zhuanlisqh": "2020109863257",
        "famingzlsqgbg": "CN112467721A",
        "shouquanggh": null,
        "zhuanlimc": "一种三电源供电系统控制装置",
        "shenqingrxm": "xxxxxxxxxxxxxxxxxxxxxxxx有限公司",
        "zhuanlilx": "1",
        "shenqingr": "2020-09-18",
        "gongkaiggh": null,
        "falvzt": null,
        "gongkaiggr": null,
        "shouquanggr": null,
        "zhufenlh": "H02J3/00",
        "anjianbh": null,
        "mingcheng": null,
        "anjianjlwz": null,
        "anjianywzt": "驳回失效",
        "attention": false
      },
      {
        "zhuanlisqh": "2020109381042",
        "famingzlsqgbg": "CN112489239A",
        "shouquanggh": null,
        "zhuanlimc": "一种巡检系统",
        "shenqingrxm": "xxxxxxxxxxxxxxxxxxxxxxxx有限公司",
        "zhuanlilx": "1",
        "shenqingr": "2020-09-09",
        "gongkaiggh": null,
        "falvzt": null,
        "gongkaiggr": null,
        "shouquanggr": null,
        "zhufenlh": "G07C1/20",
        "anjianbh": null,
        "mingcheng": null,
        "anjianjlwz": null,
        "anjianywzt": "驳回失效",
        "attention": false
      },
      {
        "zhuanlisqh": "2020219558805",
        "famingzlsqgbg": null,
        "shouquanggh": "CN214124926U",
        "zhuanlimc": "一种户外UPS箱",
        "shenqingrxm": "xxxxxxxxxxxxxxxxxxxxxxxx有限公司",
        "zhuanlilx": "2",
        "shenqingr": "2020-09-09",
        "gongkaiggh": null,
        "falvzt": "专利权有效",
        "gongkaiggr": "2021-09-03",
        "shouquanggr": null,
        "zhufenlh": "H02J9/06",
        "anjianbh": null,
        "mingcheng": null,
        "anjianjlwz": null,
        "anjianywzt": "专利权维持",
        "attention": false
      },
      {
        "zhuanlisqh": "2020219558862",
        "famingzlsqgbg": null,
        "shouquanggh": "CN214280544U",
        "zhuanlimc": "一种低温户外SSTS箱",
        "shenqingrxm": "xxxxxxxxxxxxxxxxxxxxxxxx有限公司",
        "zhuanlilx": "2",
        "shenqingr": "2020-09-09",
        "gongkaiggh": null,
        "falvzt": "专利权有效",
        "gongkaiggr": "2021-09-24",
        "shouquanggr": null,
        "zhufenlh": "H02B1/46",
        "anjianbh": null,
        "mingcheng": null,
        "anjianjlwz": null,
        "anjianywzt": "专利权维持",
        "attention": false
      },
      {
        "zhuanlisqh": "2020305319490",
        "famingzlsqgbg": null,
        "shouquanggh": "CN306350070S",
        "zhuanlimc": "箱式充电站",
        "shenqingrxm": "xxxxxxxxxxxxxxxxxxxxxxxx有限公司,xxxxxxxxxxxxxxxxxxxxxxxx有限公司",
        "zhuanlilx": "3",
        "shenqingr": "2020-09-09",
        "gongkaiggh": null,
        "falvzt": "专利权有效",
        "gongkaiggr": "2021-02-26",
        "shouquanggr": null,
        "zhufenlh": "1302",
        "anjianbh": null,
        "mingcheng": null,
        "anjianjlwz": null,
        "anjianywzt": "专利权维持",
        "attention": false
      },
      {
        "zhuanlisqh": "2020305317669",
        "famingzlsqgbg": null,
        "shouquanggh": "CN306350292S",
        "zhuanlimc": "电气设备箱(电视机型)",
        "shenqingrxm": "xxxxxxxxxxxxxxxxxxxxxxxx有限公司,xxxxxxxxxxxxxxxxxxxxxxxx有限公司",
        "zhuanlilx": "3",
        "shenqingr": "2020-09-09",
        "gongkaiggh": null,
        "falvzt": "专利权有效",
        "gongkaiggr": "2021-02-26",
        "shouquanggr": null,
        "zhufenlh": "1303",
        "anjianbh": null,
        "mingcheng": null,
        "anjianjlwz": null,
        "anjianywzt": "专利权维持",
        "attention": false
      },
      {
        "zhuanlisqh": "2020219604061",
        "famingzlsqgbg": null,
        "shouquanggh": "CN214118539U",
        "zhuanlimc": "一种风机控制系统",
        "shenqingrxm": "xxxxxxxxxxxxxxxxxxxxxxxx有限公司,xxxxxxxxxxxxxxxxxxxxxxxx有限公司",
        "zhuanlilx": "2",
        "shenqingr": "2020-09-09",
        "gongkaiggh": null,
        "falvzt": "专利权有效",
        "gongkaiggr": "2021-09-03",
        "shouquanggr": null,
        "zhufenlh": "F04D27/00",
        "anjianbh": null,
        "mingcheng": null,
        "anjianjlwz": null,
        "anjianywzt": "专利权维持",
        "attention": false
      },
      {
        "zhuanlisqh": "2020109410721",
        "famingzlsqgbg": "CN112448275A",
        "shouquanggh": null,
        "zhuanlimc": "一种全封闭式户外低温SSTS方舱",
        "shenqingrxm": "xxxxxxxxxxxxxxxxxxxxxxxx有限公司",
        "zhuanlilx": "1",
        "shenqingr": "2020-09-09",
        "gongkaiggh": null,
        "falvzt": null,
        "gongkaiggr": null,
        "shouquanggr": null,
        "zhufenlh": "H02B1/26",
        "anjianbh": null,
        "mingcheng": null,
        "anjianjlwz": null,
        "anjianywzt": "等年登印费",
        "attention": false
      },
      {
        "zhuanlisqh": "2020109410878",
        "famingzlsqgbg": "CN112271589A",
        "shouquanggh": null,
        "zhuanlimc": "一种低温户外SSTS箱",
        "shenqingrxm": "xxxxxxxxxxxxxxxxxxxxxxxx有限公司",
        "zhuanlilx": "1",
        "shenqingr": "2020-09-09",
        "gongkaiggh": null,
        "falvzt": null,
        "gongkaiggr": null,
        "shouquanggr": null,
        "zhufenlh": "H02B1/46",
        "anjianbh": null,
        "mingcheng": null,
        "anjianjlwz": null,
        "anjianywzt": "等待实审提案",
        "attention": false
      },
      {
        "zhuanlisqh": "2020109402759",
        "famingzlsqgbg": "CN112271808A",
        "shouquanggh": null,
        "zhuanlimc": "一种户外UPS箱",
        "shenqingrxm": "xxxxxxxxxxxxxxxxxxxxxxxx有限公司",
        "zhuanlilx": "1",
        "shenqingr": "2020-09-09",
        "gongkaiggh": null,
        "falvzt": null,
        "gongkaiggr": null,
        "shouquanggr": null,
        "zhufenlh": "H02J9/06",
        "anjianbh": null,
        "mingcheng": null,
        "anjianjlwz": null,
        "anjianywzt": "等待实审提案",
        "attention": false
      },
      {
        "zhuanlisqh": "2020219499205",
        "famingzlsqgbg": null,
        "shouquanggh": "CN214121269U",
        "zhuanlimc": "一种电缆隧道监控系统",
        "shenqingrxm": "xxxxxxxxxxxxxxxxxxxxxxxx有限公司",
        "zhuanlilx": "2",
        "shenqingr": "2020-09-09",
        "gongkaiggh": null,
        "falvzt": "专利权有效",
        "gongkaiggr": "2021-09-03",
        "shouquanggr": null,
        "zhufenlh": "G01D21/02",
        "anjianbh": null,
        "mingcheng": null,
        "anjianjlwz": null,
        "anjianywzt": "专利权维持",
        "attention": false
      },
      {
        "zhuanlisqh": "202030530217X",
        "famingzlsqgbg": null,
        "shouquanggh": "CN306477955S",
        "zhuanlimc": "雪地运转车",
        "shenqingrxm": "xxxxxxxxxxxxxxxxxxxxxxxx有限公司,xxxxxxxxxxxxxxxxxxxxxxxx有限公司",
        "zhuanlilx": "3",
        "shenqingr": "2020-09-09",
        "gongkaiggh": null,
        "falvzt": "专利权有效",
        "gongkaiggr": "2021-04-20",
        "shouquanggr": null,
        "zhufenlh": "1202",
        "anjianbh": null,
        "mingcheng": null,
        "anjianjlwz": null,
        "anjianywzt": "专利权维持",
        "attention": false
      },
      {
        "zhuanlisqh": "2020305317601",
        "famingzlsqgbg": null,
        "shouquanggh": "CN306802126S",
        "zhuanlimc": "设备壳体（帆船形）",
        "shenqingrxm": "xxxxxxxxxxxxxxxxxxxxxxxx有限公司,xxxxxxxxxxxxxxxxxxxxxxxx有限公司",
        "zhuanlilx": "3",
        "shenqingr": "2020-09-09",
        "gongkaiggh": null,
        "falvzt": "专利权有效",
        "gongkaiggr": "2021-09-03",
        "shouquanggr": null,
        "zhufenlh": "1302",
        "anjianbh": null,
        "mingcheng": null,
        "anjianjlwz": null,
        "anjianywzt": "专利权维持",
        "attention": false
      },
      {
        "zhuanlisqh": "2020219549079",
        "famingzlsqgbg": null,
        "shouquanggh": "CN213717675U",
        "zhuanlimc": "一种维修旁路免开门操作的户外UPS箱",
        "shenqingrxm": "xxxxxxxxxxxxxxxxxxxxxxxx有限公司,xxxxxxxxxxxxxxxxxxxxxxxx有限公司",
        "zhuanlilx": "2",
        "shenqingr": "2020-09-09",
        "gongkaiggh": null,
        "falvzt": "专利权有效",
        "gongkaiggr": "2021-07-16",
        "shouquanggr": null,
        "zhufenlh": "H02J9/06",
        "anjianbh": null,
        "mingcheng": null,
        "anjianjlwz": null,
        "anjianywzt": "专利权维持",
        "attention": false
      },
      {
        "zhuanlisqh": "2020219548593",
        "famingzlsqgbg": null,
        "shouquanggh": "CN213717674U",
        "zhuanlimc": "一种可快速灵活组网的UPS箱",
        "shenqingrxm": "xxxxxxxxxxxxxxxxxxxxxxxx有限公司,xxxxxxxxxxxxxxxxxxxxxxxx有限公司",
        "zhuanlilx": "2",
        "shenqingr": "2020-09-09",
        "gongkaiggh": null,
        "falvzt": "专利权有效",
        "gongkaiggr": "2021-07-16",
        "shouquanggr": null,
        "zhufenlh": "H02J9/06",
        "anjianbh": null,
        "mingcheng": null,
        "anjianjlwz": null,
        "anjianywzt": "专利权维持",
        "attention": false
      },
      {
        "zhuanlisqh": "2020109381803",
        "famingzlsqgbg": "CN112485606A",
        "shouquanggh": null,
        "zhuanlimc": "设备健康状态监测系统",
        "shenqingrxm": "xxxxxxxxxxxxxxxxxxxxxxxx有限公司",
        "zhuanlilx": "1",
        "shenqingr": "2020-09-09",
        "gongkaiggh": null,
        "falvzt": null,
        "gongkaiggr": null,
        "shouquanggr": null,
        "zhufenlh": "G01R31/12",
        "anjianbh": null,
        "mingcheng": null,
        "anjianjlwz": null,
        "anjianywzt": "驳回失效",
        "attention": false
      },
      {
        "zhuanlisqh": "2020109380745",
        "famingzlsqgbg": "CN112388629A",
        "shouquanggh": null,
        "zhuanlimc": "一种基于5G数据传输的隧道机器人巡检系统及方法",
        "shenqingrxm": "xxxxxxxxxxxxxxxxxxxxxxxx有限公司",
        "zhuanlilx": "1",
        "shenqingr": "2020-09-09",
        "gongkaiggh": null,
        "falvzt": null,
        "gongkaiggr": null,
        "shouquanggr": null,
        "zhufenlh": "B25J9/16",
        "anjianbh": null,
        "mingcheng": null,
        "anjianjlwz": null,
        "anjianywzt": "等待合议组成立",
        "attention": false
      },
      {
        "zhuanlisqh": "2020305302165",
        "famingzlsqgbg": null,
        "shouquanggh": "CN306801487S",
        "zhuanlimc": "电力巡检机器人",
        "shenqingrxm": "xxxxxxxxxxxxxxxxxxxxxxxx有限公司",
        "zhuanlilx": "3",
        "shenqingr": "2020-09-09",
        "gongkaiggh": null,
        "falvzt": "专利权有效",
        "gongkaiggr": "2021-09-03",
        "shouquanggr": null,
        "zhufenlh": "1005",
        "anjianbh": null,
        "mingcheng": null,
        "anjianjlwz": null,
        "anjianywzt": "专利权维持",
        "attention": false
      },
      {
        "zhuanlisqh": "2020219558792",
        "famingzlsqgbg": null,
        "shouquanggh": "CN214280450U",
        "zhuanlimc": "一种全封闭式户外低温SSTS方舱",
        "shenqingrxm": "xxxxxxxxxxxxxxxxxxxxxxxx有限公司",
        "zhuanlilx": "2",
        "shenqingr": "2020-09-09",
        "gongkaiggh": null,
        "falvzt": "专利权有效",
        "gongkaiggr": "2021-09-24",
        "shouquanggr": null,
        "zhufenlh": "H02B1/26",
        "anjianbh": null,
        "mingcheng": null,
        "anjianjlwz": null,
        "anjianywzt": "专利权维持",
        "attention": false
      },
      {
        "zhuanlisqh": "202010938188X",
        "famingzlsqgbg": "CN112367478A",
        "shouquanggh": null,
        "zhuanlimc": "一种隧道机器人全景图像处理方法及装置",
        "shenqingrxm": "xxxxxxxxxxxxxxxxxxxxxxxx有限公司",
        "zhuanlilx": "1",
        "shenqingr": "2020-09-09",
        "gongkaiggh": null,
        "falvzt": null,
        "gongkaiggr": null,
        "shouquanggr": null,
        "zhufenlh": "H04N5/262",
        "anjianbh": null,
        "mingcheng": null,
        "anjianjlwz": null,
        "anjianywzt": "驳回失效",
        "attention": false
      },
      {
        "zhuanlisqh": "2020109381216",
        "famingzlsqgbg": "CN112636218A",
        "shouquanggh": "CN112636218B",
        "zhuanlimc": "一种适用于低温环境的自循环式电力箱及其控制方法",
        "shenqingrxm": "xxxxxxxxxxxxxxxxxxxxxxxx有限公司",
        "zhuanlilx": "1",
        "shenqingr": "2020-09-09",
        "gongkaiggh": null,
        "falvzt": "专利权有效",
        "gongkaiggr": "2023-05-02",
        "shouquanggr": null,
        "zhufenlh": "H02B1/56",
        "anjianbh": null,
        "mingcheng": null,
        "anjianjlwz": null,
        "anjianywzt": "专利权维持",
        "attention": false
      },
      {
        "zhuanlisqh": "2020305302767",
        "famingzlsqgbg": null,
        "shouquanggh": "CN306349676S",
        "zhuanlimc": "用于雪地运输的雪橇",
        "shenqingrxm": "xxxxxxxxxxxxxxxxxxxxxxxx有限公司,xxxxxxxxxxxxxxxxxxxxxxxx有限公司",
        "zhuanlilx": "3",
        "shenqingr": "2020-09-09",
        "gongkaiggh": null,
        "falvzt": "专利权有效",
        "gongkaiggr": "2021-02-26",
        "shouquanggr": null,
        "zhufenlh": "1214",
        "anjianbh": null,
        "mingcheng": null,
        "anjianjlwz": null,
        "anjianywzt": "专利权维持",
        "attention": false
      },
      {
        "zhuanlisqh": "202021949551X",
        "famingzlsqgbg": null,
        "shouquanggh": "CN214267711U",
        "zhuanlimc": "一种雪地转运车",
        "shenqingrxm": "xxxxxxxxxxxxxxxxxxxxxxxx有限公司,xxxxxxxxxxxxxxxxxxxxxxxx有限公司",
        "zhuanlilx": "2",
        "shenqingr": "2020-09-09",
        "gongkaiggh": null,
        "falvzt": "专利权有效",
        "gongkaiggr": "2021-09-24",
        "shouquanggr": null,
        "zhufenlh": "B62B3/04",
        "anjianbh": null,
        "mingcheng": null,
        "anjianjlwz": null,
        "anjianywzt": "专利权维持",
        "attention": false
      }
    ],
    "total": 550,
    "pageSize": 50,
    "currentPage": 5,
    "pages": 11
  },
  "msg": "成功"
}