{
  "code": 200,
  "data": {
    "records": [
      {
        "zhuanlisqh": "202010938082X",
        "famingzlsqgbg": "CN112365666A",
        "shouquanggh": null,
        "zhuanlimc": "一种配电室智能安防监控方法及装置",
        "shenqingrxm": "xxxxxxxxxxxxxxxxxxxxxxxx有限公司",
        "zhuanlilx": "1",
        "shenqingr": "2020-09-09",
        "gongkaiggh": null,
        "falvzt": null,
        "gongkaiggr": null,
        "shouquanggr": null,
        "zhufenlh": "G08B13/196",
        "anjianbh": null,
        "mingcheng": null,
        "anjianjlwz": null,
        "anjianywzt": "驳回失效",
        "attention": false
      },
      {
        "zhuanlisqh": "2020109402621",
        "famingzlsqgbg": "CN112367497A",
        "shouquanggh": null,
        "zhuanlimc": "智能配电巡视机器人及智能配电系统",
        "shenqingrxm": "xxxxxxxxxxxxxxxxxxxxxxxx有限公司",
        "zhuanlilx": "1",
        "shenqingr": "2020-09-09",
        "gongkaiggh": null,
        "falvzt": null,
        "gongkaiggr": null,
        "shouquanggr": null,
        "zhufenlh": "H04N7/18",
        "anjianbh": null,
        "mingcheng": null,
        "anjianjlwz": null,
        "anjianywzt": "合议组审查",
        "attention": false
      },
      {
        "zhuanlisqh": "2020109382026",
        "famingzlsqgbg": "CN112328817A",
        "shouquanggh": null,
        "zhuanlimc": "一种电力数据处理方法、装置、计算机设备及存储介质",
        "shenqingrxm": "xxxxxxxxxxxxxxxxxxxxxxxx有限公司,xxxxxxxxxxxxxxxxxxxxxxxx有限公司",
        "zhuanlilx": "1",
        "shenqingr": "2020-09-09",
        "gongkaiggh": null,
        "falvzt": null,
        "gongkaiggr": null,
        "shouquanggr": null,
        "zhufenlh": "G06F16/51",
        "anjianbh": null,
        "mingcheng": null,
        "anjianjlwz": null,
        "anjianywzt": "驳回等复审请求",
        "attention": false
      },
      {
        "zhuanlisqh": "2020109380834",
        "famingzlsqgbg": "CN112330938A",
        "shouquanggh": "CN112330938B",
        "zhuanlimc": "一种交通隧道移动巡检机器人",
        "shenqingrxm": "xxxxxxxxxxxxxxxxxxxxxxxx有限公司",
        "zhuanlilx": "1",
        "shenqingr": "2020-09-09",
        "gongkaiggh": null,
        "falvzt": "专利权有效",
        "gongkaiggr": "2022-12-16",
        "shouquanggr": null,
        "zhufenlh": "G08B21/24",
        "anjianbh": null,
        "mingcheng": null,
        "anjianjlwz": null,
        "anjianywzt": "专利权维持",
        "attention": false
      },
      {
        "zhuanlisqh": "2020305301995",
        "famingzlsqgbg": null,
        "shouquanggh": "CN306477169S",
        "zhuanlimc": "电力巡检机器人",
        "shenqingrxm": "xxxxxxxxxxxxxxxxxxxxxxxx有限公司",
        "zhuanlilx": "3",
        "shenqingr": "2020-09-09",
        "gongkaiggh": null,
        "falvzt": "专利权有效",
        "gongkaiggr": "2021-04-20",
        "shouquanggr": null,
        "zhufenlh": "1005",
        "anjianbh": null,
        "mingcheng": null,
        "anjianjlwz": null,
        "anjianywzt": "专利权维持",
        "attention": false
      },
      {
        "zhuanlisqh": "2020109410505",
        "famingzlsqgbg": "CN112365698A",
        "shouquanggh": null,
        "zhuanlimc": "一种通讯控制器及配电站室电量采集系统",
        "shenqingrxm": "xxxxxxxxxxxxxxxxxxxxxxxx有限公司",
        "zhuanlilx": "1",
        "shenqingr": "2020-09-09",
        "gongkaiggh": null,
        "falvzt": null,
        "gongkaiggr": null,
        "shouquanggr": null,
        "zhufenlh": "G08C19/00",
        "anjianbh": null,
        "mingcheng": null,
        "anjianjlwz": null,
        "anjianywzt": "驳回失效",
        "attention": false
      },
      {
        "zhuanlisqh": "2020109380872",
        "famingzlsqgbg": "CN112363553A",
        "shouquanggh": null,
        "zhuanlimc": "一种城市隧道应急处理方法及系统",
        "shenqingrxm": "xxxxxxxxxxxxxxxxxxxxxxxx有限公司",
        "zhuanlilx": "1",
        "shenqingr": "2020-09-09",
        "gongkaiggh": null,
        "falvzt": null,
        "gongkaiggr": null,
        "shouquanggr": null,
        "zhufenlh": "G05D27/02",
        "anjianbh": null,
        "mingcheng": null,
        "anjianjlwz": null,
        "anjianywzt": "等待合议组成立",
        "attention": false
      },
      {
        "zhuanlisqh": "2020109381875",
        "famingzlsqgbg": "CN112330930A",
        "shouquanggh": null,
        "zhuanlimc": "一种城市隧道交通监测方法、系统及平台",
        "shenqingrxm": "xxxxxxxxxxxxxxxxxxxxxxxx有限公司",
        "zhuanlilx": "1",
        "shenqingr": "2020-09-09",
        "gongkaiggh": null,
        "falvzt": null,
        "gongkaiggr": null,
        "shouquanggr": null,
        "zhufenlh": "G08B21/18",
        "anjianbh": null,
        "mingcheng": null,
        "anjianjlwz": null,
        "anjianywzt": "等待合议组成立",
        "attention": false
      },
      {
        "zhuanlisqh": "202021954856X",
        "famingzlsqgbg": null,
        "shouquanggh": "CN214281010U",
        "zhuanlimc": "一种全天候户外ATS箱",
        "shenqingrxm": "xxxxxxxxxxxxxxxxxxxxxxxx有限公司,xxxxxxxxxxxxxxxxxxxxxxxx有限公司",
        "zhuanlilx": "2",
        "shenqingr": "2020-09-09",
        "gongkaiggh": null,
        "falvzt": "专利权有效",
        "gongkaiggr": "2021-09-24",
        "shouquanggr": null,
        "zhufenlh": "H02J9/06",
        "anjianbh": null,
        "mingcheng": null,
        "anjianjlwz": null,
        "anjianywzt": "专利权维持",
        "attention": false
      },
      {
        "zhuanlisqh": "2020219548502",
        "famingzlsqgbg": null,
        "shouquanggh": "CN214885860U",
        "zhuanlimc": "一种多用途设备箱体",
        "shenqingrxm": "xxxxxxxxxxxxxxxxxxxxxxxx有限公司,xxxxxxxxxxxxxxxxxxxxxxxx有限公司",
        "zhuanlilx": "2",
        "shenqingr": "2020-09-09",
        "gongkaiggh": null,
        "falvzt": "专利权有效",
        "gongkaiggr": "2021-11-26",
        "shouquanggr": null,
        "zhufenlh": "E04H1/12",
        "anjianbh": null,
        "mingcheng": null,
        "anjianjlwz": null,
        "anjianywzt": "专利权维持",
        "attention": false
      },
      {
        "zhuanlisqh": "2020219499192",
        "famingzlsqgbg": null,
        "shouquanggh": "CN213705549U",
        "zhuanlimc": "一种用于雪地运输的雪橇",
        "shenqingrxm": "xxxxxxxxxxxxxxxxxxxxxxxx有限公司,xxxxxxxxxxxxxxxxxxxxxxxx有限公司",
        "zhuanlilx": "2",
        "shenqingr": "2020-09-09",
        "gongkaiggh": null,
        "falvzt": "专利权有效",
        "gongkaiggr": "2021-07-16",
        "shouquanggr": null,
        "zhufenlh": "B62B13/00",
        "anjianbh": null,
        "mingcheng": null,
        "anjianjlwz": null,
        "anjianywzt": "专利权维持",
        "attention": false
      },
      {
        "zhuanlisqh": "2020109382079",
        "famingzlsqgbg": "CN112448276A",
        "shouquanggh": null,
        "zhuanlimc": "一种适用于低温环境的自循环式壳体",
        "shenqingrxm": "xxxxxxxxxxxxxxxxxxxxxxxx有限公司",
        "zhuanlilx": "1",
        "shenqingr": "2020-09-09",
        "gongkaiggh": null,
        "falvzt": null,
        "gongkaiggr": null,
        "shouquanggr": null,
        "zhufenlh": "H02B1/28",
        "anjianbh": null,
        "mingcheng": null,
        "anjianjlwz": null,
        "anjianywzt": "驳回失效",
        "attention": false
      },
      {
        "zhuanlisqh": "2020109402725",
        "famingzlsqgbg": "CN112260387A",
        "shouquanggh": null,
        "zhuanlimc": "一种维修旁路免开门操作的户外UPS箱",
        "shenqingrxm": "xxxxxxxxxxxxxxxxxxxxxxxx有限公司,xxxxxxxxxxxxxxxxxxxxxxxx有限公司",
        "zhuanlilx": "1",
        "shenqingr": "2020-09-09",
        "gongkaiggh": null,
        "falvzt": null,
        "gongkaiggr": null,
        "shouquanggr": null,
        "zhufenlh": "H02J9/06",
        "anjianbh": null,
        "mingcheng": null,
        "anjianjlwz": null,
        "anjianywzt": "进入审查",
        "attention": false
      },
      {
        "zhuanlisqh": "2020109380815",
        "famingzlsqgbg": "CN113360241A",
        "shouquanggh": null,
        "zhuanlimc": "一种交通隧道分析平台",
        "shenqingrxm": "xxxxxxxxxxxxxxxxxxxxxxxx有限公司",
        "zhuanlilx": "1",
        "shenqingr": "2020-09-09",
        "gongkaiggh": null,
        "falvzt": null,
        "gongkaiggr": null,
        "shouquanggr": null,
        "zhufenlh": "G06F9/455",
        "anjianbh": null,
        "mingcheng": null,
        "anjianjlwz": null,
        "anjianywzt": "等待实审提案",
        "attention": false
      },
      {
        "zhuanlisqh": "2020305302004",
        "famingzlsqgbg": null,
        "shouquanggh": "CN306477170S",
        "zhuanlimc": "电力巡检机器人",
        "shenqingrxm": "xxxxxxxxxxxxxxxxxxxxxxxx有限公司",
        "zhuanlilx": "3",
        "shenqingr": "2020-09-09",
        "gongkaiggh": null,
        "falvzt": "专利权有效",
        "gongkaiggr": "2021-04-20",
        "shouquanggr": null,
        "zhufenlh": "1005",
        "anjianbh": null,
        "mingcheng": null,
        "anjianjlwz": null,
        "anjianywzt": "专利权维持",
        "attention": false
      },
      {
        "zhuanlisqh": "202010938205X",
        "famingzlsqgbg": "CN113147475A",
        "shouquanggh": null,
        "zhuanlimc": "一种用于公交充电站的储能系统",
        "shenqingrxm": "xxxxxxxxxxxxxxxxxxxxxxxx有限公司,xxxxxxxxxxxxxxxxxxxxxxxx有限公司",
        "zhuanlilx": "1",
        "shenqingr": "2020-09-09",
        "gongkaiggh": null,
        "falvzt": null,
        "gongkaiggr": null,
        "shouquanggr": null,
        "zhufenlh": "B60L53/53",
        "anjianbh": null,
        "mingcheng": null,
        "anjianjlwz": null,
        "anjianywzt": "驳回失效",
        "attention": false
      },
      {
        "zhuanlisqh": "2020109381080",
        "famingzlsqgbg": "CN112332522A",
        "shouquanggh": null,
        "zhuanlimc": "一种户外UPS运行状态显示方法及装置",
        "shenqingrxm": "xxxxxxxxxxxxxxxxxxxxxxxx有限公司",
        "zhuanlilx": "1",
        "shenqingr": "2020-09-09",
        "gongkaiggh": null,
        "falvzt": null,
        "gongkaiggr": null,
        "shouquanggr": null,
        "zhufenlh": "H02J9/06",
        "anjianbh": null,
        "mingcheng": null,
        "anjianjlwz": null,
        "anjianywzt": "驳回失效",
        "attention": false
      },
      {
        "zhuanlisqh": "2020109380904",
        "famingzlsqgbg": "CN112333355A",
        "shouquanggh": null,
        "zhuanlimc": "一种隧道巡检系统",
        "shenqingrxm": "xxxxxxxxxxxxxxxxxxxxxxxx有限公司",
        "zhuanlilx": "1",
        "shenqingr": "2020-09-09",
        "gongkaiggh": null,
        "falvzt": null,
        "gongkaiggr": null,
        "shouquanggr": null,
        "zhufenlh": "H04N5/225",
        "anjianbh": null,
        "mingcheng": null,
        "anjianjlwz": null,
        "anjianywzt": "驳回失效",
        "attention": false
      },
      {
        "zhuanlisqh": "2020109380891",
        "famingzlsqgbg": "CN112367496A",
        "shouquanggh": null,
        "zhuanlimc": "一种配电室智能安全作业方法及装置",
        "shenqingrxm": "xxxxxxxxxxxxxxxxxxxxxxxx有限公司",
        "zhuanlilx": "1",
        "shenqingr": "2020-09-09",
        "gongkaiggh": null,
        "falvzt": null,
        "gongkaiggr": null,
        "shouquanggr": null,
        "zhufenlh": "H04N7/18",
        "anjianbh": null,
        "mingcheng": null,
        "anjianjlwz": null,
        "anjianywzt": "等待合议组成立",
        "attention": false
      },
      {
        "zhuanlisqh": "2020109382064",
        "famingzlsqgbg": "CN112348306A",
        "shouquanggh": null,
        "zhuanlimc": "一种面向配电运检中的TitanOS人工智能开发方法及装置",
        "shenqingrxm": "xxxxxxxxxxxxxxxxxxxxxxxx有限公司,xxxxxxxxxxxxxxxxxxxxxxxx有限公司",
        "zhuanlilx": "1",
        "shenqingr": "2020-09-09",
        "gongkaiggh": null,
        "falvzt": null,
        "gongkaiggr": null,
        "shouquanggr": null,
        "zhufenlh": "G06Q10/06",
        "anjianbh": null,
        "mingcheng": null,
        "anjianjlwz": null,
        "anjianywzt": "驳回等复审请求",
        "attention": false
      },
      {
        "zhuanlisqh": "2020214224348",
        "famingzlsqgbg": null,
        "shouquanggh": "CN212825401U",
        "zhuanlimc": "一种局放检测巡检机器人",
        "shenqingrxm": "xxxxxxxxxxxxxxxxxxxxxxxx有限公司",
        "zhuanlilx": "2",
        "shenqingr": "2020-07-17",
        "gongkaiggh": null,
        "falvzt": "专利权有效",
        "gongkaiggr": "2021-03-30",
        "shouquanggr": null,
        "zhufenlh": "B25J9/16",
        "anjianbh": null,
        "mingcheng": null,
        "anjianjlwz": null,
        "anjianywzt": "专利权维持",
        "attention": false
      },
      {
        "zhuanlisqh": "2020214224757",
        "famingzlsqgbg": null,
        "shouquanggh": "CN212825368U",
        "zhuanlimc": "一种局放检测管廊吊轨巡检机器人",
        "shenqingrxm": "xxxxxxxxxxxxxxxxxxxxxxxx有限公司",
        "zhuanlilx": "2",
        "shenqingr": "2020-07-17",
        "gongkaiggh": null,
        "falvzt": "专利权有效",
        "gongkaiggr": "2021-03-30",
        "shouquanggr": null,
        "zhufenlh": "B25J5/02",
        "anjianbh": null,
        "mingcheng": null,
        "anjianjlwz": null,
        "anjianywzt": "专利权维持",
        "attention": false
      },
      {
        "zhuanlisqh": "2020214186990",
        "famingzlsqgbg": null,
        "shouquanggh": "CN213143964U",
        "zhuanlimc": "生活舱",
        "shenqingrxm": "xxxxxxxxxxxx公司,xxxxxxxxxxxxxxxxxxxxxxxx有限公司,xxxxxxxxxxxxxxxxxxxxxxxx有限公司",
        "zhuanlilx": "2",
        "shenqingr": "2020-07-17",
        "gongkaiggh": null,
        "falvzt": "专利权有效",
        "gongkaiggr": "2021-05-07",
        "shouquanggr": null,
        "zhufenlh": "E04H1/02",
        "anjianbh": null,
        "mingcheng": null,
        "anjianjlwz": null,
        "anjianywzt": "专利权维持",
        "attention": false
      },
      {
        "zhuanlisqh": "2020214229407",
        "famingzlsqgbg": null,
        "shouquanggh": "CN212135263U",
        "zhuanlimc": "配电箱",
        "shenqingrxm": "xxxxxxxxxxxx公司,xxxxxxxxxxxxxxxxxxxxxxxx有限公司,xxxxxxxxxxxxxxxxxxxxxxxx有限公司",
        "zhuanlilx": "2",
        "shenqingr": "2020-07-17",
        "gongkaiggh": null,
        "falvzt": "专利权有效",
        "gongkaiggr": "2020-12-11",
        "shouquanggr": null,
        "zhufenlh": "G05D27/02",
        "anjianbh": null,
        "mingcheng": null,
        "anjianjlwz": null,
        "anjianywzt": "专利权维持",
        "attention": false
      },
      {
        "zhuanlisqh": "2020303916730",
        "famingzlsqgbg": null,
        "shouquanggh": "CN306293659S",
        "zhuanlimc": "生活舱（帆船式）",
        "shenqingrxm": "xxxxxxxxxxxx公司,xxxxxxxxxxxxxxxxxxxxxxxx有限公司,xxxxxxxxxxxxxxxxxxxxxxxx有限公司",
        "zhuanlilx": "3",
        "shenqingr": "2020-07-17",
        "gongkaiggh": null,
        "falvzt": "专利权有效",
        "gongkaiggr": "2021-01-22",
        "shouquanggr": null,
        "zhufenlh": "2503",
        "anjianbh": null,
        "mingcheng": null,
        "anjianjlwz": null,
        "anjianywzt": "专利权维持",
        "attention": false
      },
      {
        "zhuanlisqh": "2020214229360",
        "famingzlsqgbg": null,
        "shouquanggh": "CN212392541U",
        "zhuanlimc": "配电箱",
        "shenqingrxm": "xxxxxxxxxxxx公司,xxxxxxxxxxxxxxxxxxxxxxxx有限公司,xxxxxxxxxxxxxxxxxxxxxxxx有限公司",
        "zhuanlilx": "2",
        "shenqingr": "2020-07-17",
        "gongkaiggh": null,
        "falvzt": "专利权有效",
        "gongkaiggr": "2021-01-22",
        "shouquanggr": null,
        "zhufenlh": "H02B1/46",
        "anjianbh": null,
        "mingcheng": null,
        "anjianjlwz": null,
        "anjianywzt": "专利权维持",
        "attention": false
      },
      {
        "zhuanlisqh": "202021434025X",
        "famingzlsqgbg": null,
        "shouquanggh": "CN213151369U",
        "zhuanlimc": "便携式ATS配电箱",
        "shenqingrxm": "xxxxxxxxxxxx公司,xxxxxxxxxxxxxxxxxxxxxxxx有限公司,xxxxxxxxxxxxxxxxxxxxxxxx有限公司",
        "zhuanlilx": "2",
        "shenqingr": "2020-07-17",
        "gongkaiggh": null,
        "falvzt": "专利权有效",
        "gongkaiggr": "2021-05-07",
        "shouquanggr": null,
        "zhufenlh": "H02B1/46",
        "anjianbh": null,
        "mingcheng": null,
        "anjianjlwz": null,
        "anjianywzt": "专利权维持",
        "attention": false
      },
      {
        "zhuanlisqh": "2020214229375",
        "famingzlsqgbg": null,
        "shouquanggh": "CN212392542U",
        "zhuanlimc": "分支箱",
        "shenqingrxm": "xxxxxxxxxxxx公司,xxxxxxxxxxxxxxxxxxxxxxxx有限公司,xxxxxxxxxxxxxxxxxxxxxxxx有限公司",
        "zhuanlilx": "2",
        "shenqingr": "2020-07-17",
        "gongkaiggh": null,
        "falvzt": "专利权有效",
        "gongkaiggr": "2021-01-22",
        "shouquanggr": null,
        "zhufenlh": "H02B1/46",
        "anjianbh": null,
        "mingcheng": null,
        "anjianjlwz": null,
        "anjianywzt": "专利权维持",
        "attention": false
      },
      {
        "zhuanlisqh": "2020106878903",
        "famingzlsqgbg": "CN111917172A",
        "shouquanggh": "CN111917172B",
        "zhuanlimc": "不间断电源系统、配电设备",
        "shenqingrxm": "xxxxxxxxxxxx公司,xxxxxxxxxxxxxxxxxxxxxxxx有限公司,xxxxxxxxxxxxxxxxxxxxxxxx有限公司",
        "zhuanlilx": "1",
        "shenqingr": "2020-07-16",
        "gongkaiggh": null,
        "falvzt": "专利权有效",
        "gongkaiggr": "2022-12-23",
        "shouquanggr": null,
        "zhufenlh": "H02J9/06",
        "anjianbh": null,
        "mingcheng": null,
        "anjianjlwz": null,
        "anjianywzt": "专利权维持",
        "attention": false
      },
      {
        "zhuanlisqh": "2020106584257",
        "famingzlsqgbg": "CN111746330A",
        "shouquanggh": null,
        "zhuanlimc": "机器人的控制方法及机器人、充电系统",
        "shenqingrxm": "xxxxxxxxxxxxxxxxxxxxxxxx有限公司,xxxxxxxxxxxxxxxxxxxxxxxx有限公司",
        "zhuanlilx": "1",
        "shenqingr": "2020-07-09",
        "gongkaiggh": null,
        "falvzt": null,
        "gongkaiggr": null,
        "shouquanggr": null,
        "zhufenlh": "B60L53/60",
        "anjianbh": null,
        "mingcheng": null,
        "anjianjlwz": null,
        "anjianywzt": "驳回失效",
        "attention": false
      },
      {
        "zhuanlisqh": "2020106584632",
        "famingzlsqgbg": "CN111731142A",
        "shouquanggh": null,
        "zhuanlimc": "充电方法及装置、充电系统",
        "shenqingrxm": "xxxxxxxxxxxxxxxxxxxxxxxx有限公司,xxxxxxxxxxxxxxxxxxxxxxxx有限公司",
        "zhuanlilx": "1",
        "shenqingr": "2020-07-09",
        "gongkaiggh": null,
        "falvzt": null,
        "gongkaiggr": null,
        "shouquanggr": null,
        "zhufenlh": "B60L53/60",
        "anjianbh": null,
        "mingcheng": null,
        "anjianjlwz": null,
        "anjianywzt": "驳回失效",
        "attention": false
      },
      {
        "zhuanlisqh": "2020303453758",
        "famingzlsqgbg": null,
        "shouquanggh": "CN306350002S",
        "zhuanlimc": "充电桩",
        "shenqingrxm": "xxxxxxxxxxxxxxxxxxxxxxxx有限公司,xxxxxxxxxxxxxxxxxxxxxxxx有限公司",
        "zhuanlilx": "3",
        "shenqingr": "2020-06-30",
        "gongkaiggh": null,
        "falvzt": "专利权有效",
        "gongkaiggr": "2021-02-26",
        "shouquanggr": null,
        "zhufenlh": "1302",
        "anjianbh": null,
        "mingcheng": null,
        "anjianjlwz": null,
        "anjianywzt": "专利权维持",
        "attention": false
      },
      {
        "zhuanlisqh": "2020303453743",
        "famingzlsqgbg": null,
        "shouquanggh": "CN306175918S",
        "zhuanlimc": "机器人",
        "shenqingrxm": "xxxxxxxxxxxxxxxxxxxxxxxx有限公司,xxxxxxxxxxxxxxxxxxxxxxxx有限公司",
        "zhuanlilx": "3",
        "shenqingr": "2020-06-30",
        "gongkaiggh": null,
        "falvzt": "专利权有效",
        "gongkaiggr": "2020-11-17",
        "shouquanggr": null,
        "zhufenlh": "1599",
        "anjianbh": null,
        "mingcheng": null,
        "anjianjlwz": null,
        "anjianywzt": "专利权维持",
        "attention": false
      },
      {
        "zhuanlisqh": "2020303453870",
        "famingzlsqgbg": null,
        "shouquanggh": "CN306174908S",
        "zhuanlimc": "全自动智能充电机器人",
        "shenqingrxm": "xxxxxxxxxxxxxxxxxxxxxxxx有限公司,xxxxxxxxxxxxxxxxxxxxxxxx有限公司",
        "zhuanlilx": "3",
        "shenqingr": "2020-06-30",
        "gongkaiggh": null,
        "falvzt": "专利权有效",
        "gongkaiggr": "2020-11-17",
        "shouquanggr": null,
        "zhufenlh": "1302",
        "anjianbh": null,
        "mingcheng": null,
        "anjianjlwz": null,
        "anjianywzt": "专利权维持",
        "attention": false
      },
      {
        "zhuanlisqh": "2020303453885",
        "famingzlsqgbg": null,
        "shouquanggh": "CN306174909S",
        "zhuanlimc": "全自动智能充电机器人",
        "shenqingrxm": "xxxxxxxxxxxxxxxxxxxxxxxx有限公司,xxxxxxxxxxxxxxxxxxxxxxxx有限公司",
        "zhuanlilx": "3",
        "shenqingr": "2020-06-30",
        "gongkaiggh": null,
        "falvzt": "专利权有效",
        "gongkaiggr": "2020-11-17",
        "shouquanggr": null,
        "zhufenlh": "1302",
        "anjianbh": null,
        "mingcheng": null,
        "anjianjlwz": null,
        "anjianywzt": "专利权维持",
        "attention": false
      },
      {
        "zhuanlisqh": "2020210508213",
        "famingzlsqgbg": null,
        "shouquanggh": "CN212835380U",
        "zhuanlimc": "一种用于冰雪地面的新型固定锚",
        "shenqingrxm": "xxxxxxxxxxxxxxxxxxxxxxxx有限公司,xxxxxxxxxxxxxxxxxxxxxxxx有限公司",
        "zhuanlilx": "2",
        "shenqingr": "2020-06-10",
        "gongkaiggh": null,
        "falvzt": "专利权有效",
        "gongkaiggr": "2021-03-30",
        "shouquanggr": null,
        "zhufenlh": "E02D5/80",
        "anjianbh": null,
        "mingcheng": null,
        "anjianjlwz": null,
        "anjianywzt": "专利权维持",
        "attention": false
      },
      {
        "zhuanlisqh": "2020302897107",
        "famingzlsqgbg": null,
        "shouquanggh": "CN306289384S",
        "zhuanlimc": "机柜（氢燃料发电车）",
        "shenqingrxm": "xxxxxxxxxxxxxxxxxxxxxxxx有限公司,xxxxxxxxxxxxxxxxxxxxxxxx有限公司",
        "zhuanlilx": "3",
        "shenqingr": "2020-06-09",
        "gongkaiggh": null,
        "falvzt": "专利权有效",
        "gongkaiggr": "2021-01-19",
        "shouquanggr": null,
        "zhufenlh": "1402",
        "anjianbh": null,
        "mingcheng": null,
        "anjianjlwz": null,
        "anjianywzt": "专利权维持",
        "attention": false
      },
      {
        "zhuanlisqh": "2020302891825",
        "famingzlsqgbg": null,
        "shouquanggh": "CN306479570S",
        "zhuanlimc": "带有能量管理图形用户界面的显示屏幕面板",
        "shenqingrxm": "xxxxxxxxxxxxxxxxxxxxxxxx有限公司,xxxxxxxxxxxxxxxxxxxxxxxx有限公司",
        "zhuanlilx": "3",
        "shenqingr": "2020-06-09",
        "gongkaiggh": null,
        "falvzt": "专利权有效",
        "gongkaiggr": "2021-04-20",
        "shouquanggr": null,
        "zhufenlh": "1404",
        "anjianbh": null,
        "mingcheng": null,
        "anjianjlwz": null,
        "anjianywzt": "专利权维持",
        "attention": false
      },
      {
        "zhuanlisqh": "2020210207930",
        "famingzlsqgbg": null,
        "shouquanggh": "CN212380990U",
        "zhuanlimc": "一种氢能源发电控制系统及具有其的发电车",
        "shenqingrxm": "xxxxxxxxxxxxxxxxxxxxxxxx有限公司,xxxxxxxxxxxxxxxxxxxxxxxx有限公司",
        "zhuanlilx": "2",
        "shenqingr": "2020-06-06",
        "gongkaiggh": null,
        "falvzt": "专利权有效",
        "gongkaiggr": "2021-01-19",
        "shouquanggr": null,
        "zhufenlh": "H02J9/06",
        "anjianbh": null,
        "mingcheng": null,
        "anjianjlwz": null,
        "anjianywzt": "专利权维持",
        "attention": false
      },
      {
        "zhuanlisqh": "2020302815056",
        "famingzlsqgbg": null,
        "shouquanggh": "CN306341598S",
        "zhuanlimc": "氢能源发电车",
        "shenqingrxm": "xxxxxxxxxxxxxxxxxxxxxxxx有限公司,xxxxxxxxxxxxxxxxxxxxxxxx有限公司",
        "zhuanlilx": "3",
        "shenqingr": "2020-06-06",
        "gongkaiggh": null,
        "falvzt": "专利权有效",
        "gongkaiggr": "2021-02-23",
        "shouquanggr": null,
        "zhufenlh": "1213",
        "anjianbh": null,
        "mingcheng": null,
        "anjianjlwz": null,
        "anjianywzt": "专利权维持",
        "attention": false
      },
      {
        "zhuanlisqh": "2020210207413",
        "famingzlsqgbg": null,
        "shouquanggh": "CN212136603U",
        "zhuanlimc": "一种氢燃料电池发电系统过载保护装置",
        "shenqingrxm": "xxxxxxxxxxxxxxxxxxxxxxxx有限公司,xxxxxxxxxxxxxxxxxxxxxxxx有限公司",
        "zhuanlilx": "2",
        "shenqingr": "2020-06-06",
        "gongkaiggh": null,
        "falvzt": "专利权有效",
        "gongkaiggr": "2020-12-11",
        "shouquanggr": null,
        "zhufenlh": "H01M8/04089",
        "anjianbh": null,
        "mingcheng": null,
        "anjianjlwz": null,
        "anjianywzt": "专利权维持",
        "attention": false
      },
      {
        "zhuanlisqh": "202010508832X",
        "famingzlsqgbg": "CN111810836A",
        "shouquanggh": null,
        "zhuanlimc": "一种氢能源发电装置的在线加氢系统",
        "shenqingrxm": "xxxxxxxxxxxxxxxxxxxxxxxx有限公司,xxxxxxxxxxxxxxxxxxxxxxxx有限公司",
        "zhuanlilx": "1",
        "shenqingr": "2020-06-06",
        "gongkaiggh": null,
        "falvzt": null,
        "gongkaiggr": null,
        "shouquanggr": null,
        "zhufenlh": "F17C5/06",
        "anjianbh": null,
        "mingcheng": null,
        "anjianjlwz": null,
        "anjianywzt": "驳回失效",
        "attention": false
      },
      {
        "zhuanlisqh": "2020210266163",
        "famingzlsqgbg": null,
        "shouquanggh": "CN212849504U",
        "zhuanlimc": "一种氢能源发电箱及氢能源发电车",
        "shenqingrxm": "xxxxxxxxxxxxxxxxxxxxxxxx有限公司,xxxxxxxxxxxxxxxxxxxxxxxx有限公司",
        "zhuanlilx": "2",
        "shenqingr": "2020-06-06",
        "gongkaiggh": null,
        "falvzt": "专利权有效",
        "gongkaiggr": "2021-03-30",
        "shouquanggr": null,
        "zhufenlh": "H02B1/52",
        "anjianbh": null,
        "mingcheng": null,
        "anjianjlwz": null,
        "anjianywzt": "专利权维持",
        "attention": false
      },
      {
        "zhuanlisqh": "2020210270116",
        "famingzlsqgbg": null,
        "shouquanggh": "CN212361583U",
        "zhuanlimc": "一种氢能源发电装置以及氢能源发电车",
        "shenqingrxm": "xxxxxxxxxxxxxxxxxxxxxxxx有限公司,xxxxxxxxxxxxxxxxxxxxxxxx有限公司",
        "zhuanlilx": "2",
        "shenqingr": "2020-06-06",
        "gongkaiggh": null,
        "falvzt": "专利权有效",
        "gongkaiggr": "2021-01-15",
        "shouquanggr": null,
        "zhufenlh": "F17C1/00",
        "anjianbh": null,
        "mingcheng": null,
        "anjianjlwz": null,
        "anjianywzt": "专利权维持",
        "attention": false
      },
      {
        "zhuanlisqh": "2020210270281",
        "famingzlsqgbg": null,
        "shouquanggh": "CN213007799U",
        "zhuanlimc": "一种氢能源发电车及其飞轮平衡装置",
        "shenqingrxm": "xxxxxxxxxxxxxxxxxxxxxxxx有限公司,xxxxxxxxxxxxxxxxxxxxxxxx有限公司",
        "zhuanlilx": "2",
        "shenqingr": "2020-06-06",
        "gongkaiggh": null,
        "falvzt": "专利权有效",
        "gongkaiggr": "2021-04-20",
        "shouquanggr": null,
        "zhufenlh": "B60P3/00",
        "anjianbh": null,
        "mingcheng": null,
        "anjianjlwz": null,
        "anjianywzt": "专利权维持",
        "attention": false
      },
      {
        "zhuanlisqh": "202021026469X",
        "famingzlsqgbg": null,
        "shouquanggh": "CN213018710U",
        "zhuanlimc": "可调式监控装置及氢能源发电车",
        "shenqingrxm": "xxxxxxxxxxxxxxxxxxxxxxxx有限公司,xxxxxxxxxxxxxxxxxxxxxxxx有限公司",
        "zhuanlilx": "2",
        "shenqingr": "2020-06-06",
        "gongkaiggh": null,
        "falvzt": "专利权有效",
        "gongkaiggr": "2021-04-20",
        "shouquanggr": null,
        "zhufenlh": "F16M13/02",
        "anjianbh": null,
        "mingcheng": null,
        "anjianjlwz": null,
        "anjianywzt": "专利权维持",
        "attention": false
      },
      {
        "zhuanlisqh": "2020210276733",
        "famingzlsqgbg": null,
        "shouquanggh": "CN212625679U",
        "zhuanlimc": "氢能源发电配套用冷却系统及应用该系统的氢能源发电车",
        "shenqingrxm": "xxxxxxxxxxxxxxxxxxxxxxxx有限公司,xxxxxxxxxxxxxxxxxxxxxxxx有限公司",
        "zhuanlilx": "2",
        "shenqingr": "2020-06-06",
        "gongkaiggh": null,
        "falvzt": "专利权有效",
        "gongkaiggr": "2021-02-26",
        "shouquanggr": null,
        "zhufenlh": "H01M8/04029",
        "anjianbh": null,
        "mingcheng": null,
        "anjianjlwz": null,
        "anjianywzt": "专利权维持",
        "attention": false
      },
      {
        "zhuanlisqh": "202021027575X",
        "famingzlsqgbg": null,
        "shouquanggh": "CN212830593U",
        "zhuanlimc": "一种顶盖及应用该顶盖的氢能源发电车、集装箱",
        "shenqingrxm": "xxxxxxxxxxxxxxxxxxxxxxxx有限公司,xxxxxxxxxxxxxxxxxxxxxxxx有限公司",
        "zhuanlilx": "2",
        "shenqingr": "2020-06-06",
        "gongkaiggh": null,
        "falvzt": "专利权有效",
        "gongkaiggr": "2021-03-30",
        "shouquanggr": null,
        "zhufenlh": "B65D90/54",
        "anjianbh": null,
        "mingcheng": null,
        "anjianjlwz": null,
        "anjianywzt": "专利权维持",
        "attention": false
      },
      {
        "zhuanlisqh": "2020105088368",
        "famingzlsqgbg": "CN111697253A",
        "shouquanggh": "CN111697253B",
        "zhuanlimc": "氢燃料电池不间断供电方法、装置及氢燃料电池",
        "shenqingrxm": "xxxxxxxxxxxxxxxxxxxxxxxx有限公司,xxxxxxxxxxxxxxxxxxxxxxxx有限公司",
        "zhuanlilx": "1",
        "shenqingr": "2020-06-06",
        "gongkaiggh": null,
        "falvzt": "专利权有效",
        "gongkaiggr": "2021-02-26",
        "shouquanggr": null,
        "zhufenlh": "H01M8/04082",
        "anjianbh": null,
        "mingcheng": null,
        "anjianjlwz": null,
        "anjianywzt": "专利权维持",
        "attention": false
      },
      {
        "zhuanlisqh": "2020105088423",
        "famingzlsqgbg": "CN111799881A",
        "shouquanggh": "CN111799881B",
        "zhuanlimc": "一种负载不间断供电系统和控制方法",
        "shenqingrxm": "xxxxxxxxxxxxxxxxxxxxxxxx有限公司,xxxxxxxxxxxxxxxxxxxxxxxx有限公司",
        "zhuanlilx": "1",
        "shenqingr": "2020-06-06",
        "gongkaiggh": null,
        "falvzt": "专利权有效",
        "gongkaiggr": "2021-07-16",
        "shouquanggr": null,
        "zhufenlh": "H02J9/06",
        "anjianbh": null,
        "mingcheng": null,
        "anjianjlwz": null,
        "anjianywzt": "专利权维持",
        "attention": false
      }
    ],
    "total": 550,
    "pageSize": 50,
    "currentPage": 6,
    "pages": 11
  },
  "msg": "成功"
}