{
  "code": 200,
  "data": {
    "records": [
      {
        "zhuanlisqh": "2019221878230",
        "famingzlsqgbg": null,
        "shouquanggh": "CN211790171U",
        "zhuanlimc": "一种户外SSTS配电设备",
        "shenqingrxm": "xxxxxxxxxxxxxxxxxxxxxxxx有限公司,xxxxxxxxxxxxxxxxxxxxxxxx有限公司",
        "zhuanlilx": "2",
        "shenqingr": "2019-12-09",
        "gongkaiggh": null,
        "falvzt": "专利权有效",
        "gongkaiggr": "2020-10-27",
        "shouquanggr": null,
        "zhufenlh": "H02B1/46",
        "anjianbh": null,
        "mingcheng": null,
        "anjianjlwz": null,
        "anjianywzt": "专利权维持",
        "attention": false
      },
      {
        "zhuanlisqh": "2019221863080",
        "famingzlsqgbg": null,
        "shouquanggh": "CN211789283U",
        "zhuanlimc": "一种氢燃料发电系统",
        "shenqingrxm": "xxxxxxxxxxxxxxxxxxxxxxxx有限公司,xxxxxxxxxxxxxxxxxxxxxxxx有限公司",
        "zhuanlilx": "2",
        "shenqingr": "2019-12-09",
        "gongkaiggh": null,
        "falvzt": "专利权有效",
        "gongkaiggr": "2020-10-27",
        "shouquanggr": null,
        "zhufenlh": "H01M8/04007",
        "anjianbh": null,
        "mingcheng": null,
        "anjianjlwz": null,
        "anjianywzt": "专利权维持",
        "attention": false
      },
      {
        "zhuanlisqh": "2019221863288",
        "famingzlsqgbg": null,
        "shouquanggh": "CN211655664U",
        "zhuanlimc": "一种防燃弧电缆过线装置",
        "shenqingrxm": "xxxxxxxxxxxxxxxxxxxxxxxx有限公司,xxxxxxxxxxxxxxxxxxxxxxxx有限公司",
        "zhuanlilx": "2",
        "shenqingr": "2019-12-09",
        "gongkaiggh": null,
        "falvzt": "专利权有效",
        "gongkaiggr": "2020-10-09",
        "shouquanggr": null,
        "zhufenlh": "H02G3/22",
        "anjianbh": null,
        "mingcheng": null,
        "anjianjlwz": null,
        "anjianywzt": "专利权维持",
        "attention": false
      },
      {
        "zhuanlisqh": "2019221863061",
        "famingzlsqgbg": null,
        "shouquanggh": "CN210959124U",
        "zhuanlimc": "一种外置百叶结构及IPx5防护等级的设备外壳",
        "shenqingrxm": "xxxxxxxxxxxxxxxxxxxxxxxx有限公司,xxxxxxxxxxxxxxxxxxxxxxxx有限公司",
        "zhuanlilx": "2",
        "shenqingr": "2019-12-09",
        "gongkaiggh": null,
        "falvzt": "专利权有效",
        "gongkaiggr": "2020-07-07",
        "shouquanggr": null,
        "zhufenlh": "H05K5/02",
        "anjianbh": null,
        "mingcheng": null,
        "anjianjlwz": null,
        "anjianywzt": "专利权维持",
        "attention": false
      },
      {
        "zhuanlisqh": "2019306856391",
        "famingzlsqgbg": null,
        "shouquanggh": "CN306289244S",
        "zhuanlimc": "电气接线装置",
        "shenqingrxm": "xxxxxxxxxxxxxxxxxxxxxxxx有限公司,xxxxxxxxxxxxxxxxxxxxxxxx有限公司",
        "zhuanlilx": "3",
        "shenqingr": "2019-12-09",
        "gongkaiggh": null,
        "falvzt": "专利权有效",
        "gongkaiggr": "2021-01-19",
        "shouquanggr": null,
        "zhufenlh": "1303",
        "anjianbh": null,
        "mingcheng": null,
        "anjianjlwz": null,
        "anjianywzt": "专利权维持",
        "attention": false
      },
      {
        "zhuanlisqh": "2019112358392",
        "famingzlsqgbg": "CN111038323A",
        "shouquanggh": null,
        "zhuanlimc": "充电的控制方法及装置、存储介质和处理器",
        "shenqingrxm": "xxxxxxxxxxxxxxxxxxxxxxxx有限公司,xxxxxxxxxxxxxxxxxxxxxxxx有限公司",
        "zhuanlilx": "1",
        "shenqingr": "2019-12-05",
        "gongkaiggh": null,
        "falvzt": null,
        "gongkaiggr": null,
        "shouquanggr": null,
        "zhufenlh": "B60L53/66",
        "anjianbh": null,
        "mingcheng": null,
        "anjianjlwz": null,
        "anjianywzt": "驳回失效",
        "attention": false
      },
      {
        "zhuanlisqh": "2019306313840",
        "famingzlsqgbg": null,
        "shouquanggh": "CN305790512S",
        "zhuanlimc": "开关",
        "shenqingrxm": "xxxxxxxxxxxxxxxxxxxxxxxx有限公司,xxxxxxxxxxxxxxxxxxxxxxxx有限公司",
        "zhuanlilx": "3",
        "shenqingr": "2019-11-15",
        "gongkaiggh": null,
        "falvzt": "专利权有效",
        "gongkaiggr": "2020-05-19",
        "shouquanggr": null,
        "zhufenlh": "1303",
        "anjianbh": null,
        "mingcheng": null,
        "anjianjlwz": null,
        "anjianywzt": "专利权维持",
        "attention": false
      },
      {
        "zhuanlisqh": "2019110261725",
        "famingzlsqgbg": "CN110723001A",
        "shouquanggh": null,
        "zhuanlimc": "一种全自动充电机器人插拔枪控制方法及装置",
        "shenqingrxm": "xxxxxxxxxxxxxxxxxxxxxxxx有限公司,xxxxxxxxxxxxxxxxxxxxxxxx有限公司",
        "zhuanlilx": "1",
        "shenqingr": "2019-10-25",
        "gongkaiggh": null,
        "falvzt": null,
        "gongkaiggr": null,
        "shouquanggr": null,
        "zhufenlh": "B60L53/16",
        "anjianbh": null,
        "mingcheng": null,
        "anjianjlwz": null,
        "anjianywzt": "驳回失效",
        "attention": false
      },
      {
        "zhuanlisqh": "2019305852923",
        "famingzlsqgbg": null,
        "shouquanggh": "CN305790297S",
        "zhuanlimc": "充电机器人气动式抓手",
        "shenqingrxm": "xxxxxxxxxxxxxxxxxxxxxxxx有限公司,xxxxxxxxxxxxxxxxxxxxxxxx有限公司",
        "zhuanlilx": "3",
        "shenqingr": "2019-10-25",
        "gongkaiggh": null,
        "falvzt": "专利权有效",
        "gongkaiggr": "2020-05-19",
        "shouquanggr": null,
        "zhufenlh": "1302",
        "anjianbh": null,
        "mingcheng": null,
        "anjianjlwz": null,
        "anjianywzt": "专利权维持",
        "attention": false
      },
      {
        "zhuanlisqh": "2019305852849",
        "famingzlsqgbg": null,
        "shouquanggh": "CN305790293S",
        "zhuanlimc": "充电机器人吸盘式枪头",
        "shenqingrxm": "xxxxxxxxxxxxxxxxxxxxxxxx有限公司,xxxxxxxxxxxxxxxxxxxxxxxx有限公司",
        "zhuanlilx": "3",
        "shenqingr": "2019-10-25",
        "gongkaiggh": null,
        "falvzt": "专利权有效",
        "gongkaiggr": "2020-05-19",
        "shouquanggr": null,
        "zhufenlh": "1302",
        "anjianbh": null,
        "mingcheng": null,
        "anjianjlwz": null,
        "anjianywzt": "专利权维持",
        "attention": false
      },
      {
        "zhuanlisqh": "2019305852919",
        "famingzlsqgbg": null,
        "shouquanggh": "CN305790296S",
        "zhuanlimc": "充电机器人气动式枪头",
        "shenqingrxm": "xxxxxxxxxxxxxxxxxxxxxxxx有限公司,xxxxxxxxxxxxxxxxxxxxxxxx有限公司",
        "zhuanlilx": "3",
        "shenqingr": "2019-10-25",
        "gongkaiggh": null,
        "falvzt": "专利权有效",
        "gongkaiggr": "2020-05-19",
        "shouquanggr": null,
        "zhufenlh": "1302",
        "anjianbh": null,
        "mingcheng": null,
        "anjianjlwz": null,
        "anjianywzt": "专利权维持",
        "attention": false
      },
      {
        "zhuanlisqh": "2019305857185",
        "famingzlsqgbg": null,
        "shouquanggh": "CN305790300S",
        "zhuanlimc": "充电机器人弹簧式枪头",
        "shenqingrxm": "xxxxxxxxxxxxxxxxxxxxxxxx有限公司,xxxxxxxxxxxxxxxxxxxxxxxx有限公司",
        "zhuanlilx": "3",
        "shenqingr": "2019-10-25",
        "gongkaiggh": null,
        "falvzt": "专利权有效",
        "gongkaiggr": "2020-05-19",
        "shouquanggr": null,
        "zhufenlh": "1302",
        "anjianbh": null,
        "mingcheng": null,
        "anjianjlwz": null,
        "anjianywzt": "专利权维持",
        "attention": false
      },
      {
        "zhuanlisqh": "2019110253998",
        "famingzlsqgbg": "CN110722561A",
        "shouquanggh": null,
        "zhuanlimc": "一种全自动充电机器人控制方法及装置",
        "shenqingrxm": "xxxxxxxxxxxxxxxxxxxxxxxx有限公司,xxxxxxxxxxxxxxxxxxxxxxxx有限公司",
        "zhuanlilx": "1",
        "shenqingr": "2019-10-25",
        "gongkaiggh": null,
        "falvzt": null,
        "gongkaiggr": null,
        "shouquanggr": null,
        "zhufenlh": "B25J9/16",
        "anjianbh": null,
        "mingcheng": null,
        "anjianjlwz": null,
        "anjianywzt": "驳回失效",
        "attention": false
      },
      {
        "zhuanlisqh": "2019110261759",
        "famingzlsqgbg": "CN110729604A",
        "shouquanggh": null,
        "zhuanlimc": "一种充电枪",
        "shenqingrxm": "xxxxxxxxxxxxxxxxxxxxxxxx有限公司,xxxxxxxxxxxxxxxxxxxxxxxx有限公司",
        "zhuanlilx": "1",
        "shenqingr": "2019-10-25",
        "gongkaiggh": null,
        "falvzt": null,
        "gongkaiggr": null,
        "shouquanggr": null,
        "zhufenlh": "H01R13/627",
        "anjianbh": null,
        "mingcheng": null,
        "anjianjlwz": null,
        "anjianywzt": "驳回失效",
        "attention": false
      },
      {
        "zhuanlisqh": "2019110261674",
        "famingzlsqgbg": "CN110729591A",
        "shouquanggh": "CN110729591B",
        "zhuanlimc": "一种抓枪组件",
        "shenqingrxm": "xxxxxxxxxxxxxxxxxxxxxxxx有限公司,xxxxxxxxxxxxxxxxxxxxxxxx有限公司",
        "zhuanlilx": "1",
        "shenqingr": "2019-10-25",
        "gongkaiggh": null,
        "falvzt": "专利权有效",
        "gongkaiggr": "2021-02-26",
        "shouquanggr": null,
        "zhufenlh": "H01R13/502",
        "anjianbh": null,
        "mingcheng": null,
        "anjianjlwz": null,
        "anjianywzt": "专利权维持",
        "attention": false
      },
      {
        "zhuanlisqh": "2019305852868",
        "famingzlsqgbg": null,
        "shouquanggh": "CN305790294S",
        "zhuanlimc": "充电机器人吸盘式抓枪",
        "shenqingrxm": "xxxxxxxxxxxxxxxxxxxxxxxx有限公司,xxxxxxxxxxxxxxxxxxxxxxxx有限公司",
        "zhuanlilx": "3",
        "shenqingr": "2019-10-25",
        "gongkaiggh": null,
        "falvzt": "专利权有效",
        "gongkaiggr": "2020-05-19",
        "shouquanggr": null,
        "zhufenlh": "1302",
        "anjianbh": null,
        "mingcheng": null,
        "anjianjlwz": null,
        "anjianywzt": "专利权维持",
        "attention": false
      },
      {
        "zhuanlisqh": "2019305852872",
        "famingzlsqgbg": null,
        "shouquanggh": "CN305790295S",
        "zhuanlimc": "充电机器人弹簧式抓手",
        "shenqingrxm": "xxxxxxxxxxxxxxxxxxxxxxxx有限公司,xxxxxxxxxxxxxxxxxxxxxxxx有限公司",
        "zhuanlilx": "3",
        "shenqingr": "2019-10-25",
        "gongkaiggh": null,
        "falvzt": "专利权有效",
        "gongkaiggr": "2020-05-19",
        "shouquanggr": null,
        "zhufenlh": "1302",
        "anjianbh": null,
        "mingcheng": null,
        "anjianjlwz": null,
        "anjianywzt": "专利权维持",
        "attention": false
      },
      {
        "zhuanlisqh": "2019110261710",
        "famingzlsqgbg": "CN110581411A",
        "shouquanggh": null,
        "zhuanlimc": "一种充电枪、抓取结构及其抓枪组件",
        "shenqingrxm": "xxxxxxxxxxxxxxxxxxxxxxxx有限公司,xxxxxxxxxxxxxxxxxxxxxxxx有限公司",
        "zhuanlilx": "1",
        "shenqingr": "2019-10-25",
        "gongkaiggh": null,
        "falvzt": null,
        "gongkaiggr": null,
        "shouquanggr": null,
        "zhufenlh": "H01R13/629",
        "anjianbh": null,
        "mingcheng": null,
        "anjianjlwz": null,
        "anjianywzt": "驳回失效",
        "attention": false
      },
      {
        "zhuanlisqh": "2019305857166",
        "famingzlsqgbg": null,
        "shouquanggh": "CN305790299S",
        "zhuanlimc": "充电机器人弹簧式抓枪",
        "shenqingrxm": "xxxxxxxxxxxxxxxxxxxxxxxx有限公司,xxxxxxxxxxxxxxxxxxxxxxxx有限公司",
        "zhuanlilx": "3",
        "shenqingr": "2019-10-25",
        "gongkaiggh": null,
        "falvzt": "专利权有效",
        "gongkaiggr": "2020-05-19",
        "shouquanggr": null,
        "zhufenlh": "1302",
        "anjianbh": null,
        "mingcheng": null,
        "anjianjlwz": null,
        "anjianywzt": "专利权维持",
        "attention": false
      },
      {
        "zhuanlisqh": "201911025370X",
        "famingzlsqgbg": "CN110696664A",
        "shouquanggh": null,
        "zhuanlimc": "一种全自动充电机器人",
        "shenqingrxm": "xxxxxxxxxxxxxxxxxxxxxxxx有限公司,xxxxxxxxxxxxxxxxxxxxxxxx有限公司",
        "zhuanlilx": "1",
        "shenqingr": "2019-10-25",
        "gongkaiggh": null,
        "falvzt": null,
        "gongkaiggr": null,
        "shouquanggr": null,
        "zhufenlh": "B60L53/37",
        "anjianbh": null,
        "mingcheng": null,
        "anjianjlwz": null,
        "anjianywzt": "驳回失效",
        "attention": false
      },
      {
        "zhuanlisqh": "2019110253875",
        "famingzlsqgbg": "CN110920450A",
        "shouquanggh": null,
        "zhuanlimc": "一种电动汽车全自动充电系统",
        "shenqingrxm": "xxxxxxxxxxxxxxxxxxxxxxxx有限公司,xxxxxxxxxxxxxxxxxxxxxxxx有限公司",
        "zhuanlilx": "1",
        "shenqingr": "2019-10-25",
        "gongkaiggh": null,
        "falvzt": null,
        "gongkaiggr": null,
        "shouquanggr": null,
        "zhufenlh": "B60L53/37",
        "anjianbh": null,
        "mingcheng": null,
        "anjianjlwz": null,
        "anjianywzt": "驳回失效",
        "attention": false
      },
      {
        "zhuanlisqh": "201930585275X",
        "famingzlsqgbg": null,
        "shouquanggh": "CN305790292S",
        "zhuanlimc": "全自动智能充电机器人",
        "shenqingrxm": "xxxxxxxxxxxxxxxxxxxxxxxx有限公司,xxxxxxxxxxxxxxxxxxxxxxxx有限公司",
        "zhuanlilx": "3",
        "shenqingr": "2019-10-25",
        "gongkaiggh": null,
        "falvzt": "专利权有效",
        "gongkaiggr": "2020-05-19",
        "shouquanggr": null,
        "zhufenlh": "1302",
        "anjianbh": null,
        "mingcheng": null,
        "anjianjlwz": null,
        "anjianywzt": "专利权维持",
        "attention": false
      },
      {
        "zhuanlisqh": "2019110253818",
        "famingzlsqgbg": "CN110696645A",
        "shouquanggh": null,
        "zhuanlimc": "一种抓取结构",
        "shenqingrxm": "xxxxxxxxxxxxxxxxxxxxxxxx有限公司,xxxxxxxxxxxxxxxxxxxxxxxx有限公司",
        "zhuanlilx": "1",
        "shenqingr": "2019-10-25",
        "gongkaiggh": null,
        "falvzt": null,
        "gongkaiggr": null,
        "shouquanggr": null,
        "zhufenlh": "B60L53/14",
        "anjianbh": null,
        "mingcheng": null,
        "anjianjlwz": null,
        "anjianywzt": "驳回失效",
        "attention": false
      },
      {
        "zhuanlisqh": "2019218099166",
        "famingzlsqgbg": null,
        "shouquanggh": "CN210970722U",
        "zhuanlimc": "一种充电机器人防护装置",
        "shenqingrxm": "xxxxxxxxxxxxxxxxxxxxxxxx有限公司,xxxxxxxxxxxxxxxxxxxxxxxx有限公司",
        "zhuanlilx": "2",
        "shenqingr": "2019-10-25",
        "gongkaiggh": null,
        "falvzt": "专利权有效",
        "gongkaiggr": "2020-07-10",
        "shouquanggr": null,
        "zhufenlh": "B60L53/30",
        "anjianbh": null,
        "mingcheng": null,
        "anjianjlwz": null,
        "anjianywzt": "专利权维持",
        "attention": false
      },
      {
        "zhuanlisqh": "2019110261797",
        "famingzlsqgbg": "CN110739584A",
        "shouquanggh": null,
        "zhuanlimc": "一种充电枪、抓取结构及其组合装置",
        "shenqingrxm": "xxxxxxxxxxxxxxxxxxxxxxxx有限公司,xxxxxxxxxxxxxxxxxxxxxxxx有限公司",
        "zhuanlilx": "1",
        "shenqingr": "2019-10-25",
        "gongkaiggh": null,
        "falvzt": null,
        "gongkaiggr": null,
        "shouquanggr": null,
        "zhufenlh": "H01R13/629",
        "anjianbh": null,
        "mingcheng": null,
        "anjianjlwz": null,
        "anjianywzt": "驳回失效",
        "attention": false
      },
      {
        "zhuanlisqh": "2019305857151",
        "famingzlsqgbg": null,
        "shouquanggh": "CN305790298S",
        "zhuanlimc": "充电机器人吸盘式抓手",
        "shenqingrxm": "xxxxxxxxxxxxxxxxxxxxxxxx有限公司,xxxxxxxxxxxxxxxxxxxxxxxx有限公司",
        "zhuanlilx": "3",
        "shenqingr": "2019-10-25",
        "gongkaiggh": null,
        "falvzt": "专利权有效",
        "gongkaiggr": "2020-05-19",
        "shouquanggr": null,
        "zhufenlh": "1302",
        "anjianbh": null,
        "mingcheng": null,
        "anjianjlwz": null,
        "anjianywzt": "专利权维持",
        "attention": false
      },
      {
        "zhuanlisqh": "2019218099128",
        "famingzlsqgbg": null,
        "shouquanggh": "CN210577884U",
        "zhuanlimc": "一种充电机器人外壳",
        "shenqingrxm": "xxxxxxxxxxxxxxxxxxxxxxxx有限公司,xxxxxxxxxxxxxxxxxxxxxxxx有限公司",
        "zhuanlilx": "2",
        "shenqingr": "2019-10-25",
        "gongkaiggh": null,
        "falvzt": "专利权有效",
        "gongkaiggr": "2020-05-19",
        "shouquanggr": null,
        "zhufenlh": "H02J7/00",
        "anjianbh": null,
        "mingcheng": null,
        "anjianjlwz": null,
        "anjianywzt": "专利权维持",
        "attention": false
      },
      {
        "zhuanlisqh": "2019305852887",
        "famingzlsqgbg": null,
        "shouquanggh": "CN305912256S",
        "zhuanlimc": "充电机器人气动式抓枪",
        "shenqingrxm": "xxxxxxxxxxxxxxxxxxxxxxxx有限公司,xxxxxxxxxxxxxxxxxxxxxxxx有限公司",
        "zhuanlilx": "3",
        "shenqingr": "2019-10-25",
        "gongkaiggh": null,
        "falvzt": "专利权有效",
        "gongkaiggr": "2020-07-10",
        "shouquanggr": null,
        "zhufenlh": "1302",
        "anjianbh": null,
        "mingcheng": null,
        "anjianjlwz": null,
        "anjianywzt": "专利权维持",
        "attention": false
      },
      {
        "zhuanlisqh": "2019109940405",
        "famingzlsqgbg": "CN111384778A",
        "shouquanggh": "CN111384778B",
        "zhuanlimc": "一种配电网设备智能运维系统",
        "shenqingrxm": "xxxxxxxxxxxxxxxxxxxxxxxx有限公司,xxxxxxxxxxxxxxxxxxxxxxxx有限公司",
        "zhuanlilx": "1",
        "shenqingr": "2019-10-18",
        "gongkaiggh": null,
        "falvzt": "专利权有效",
        "gongkaiggr": "2021-11-26",
        "shouquanggr": null,
        "zhufenlh": "H02J13/00",
        "anjianbh": null,
        "mingcheng": null,
        "anjianjlwz": null,
        "anjianywzt": "专利权维持",
        "attention": false
      },
      {
        "zhuanlisqh": "201910994027X",
        "famingzlsqgbg": "CN110729815A",
        "shouquanggh": null,
        "zhuanlimc": "一种箱变车智能运维监测方法及装置",
        "shenqingrxm": "xxxxxxxxxxxxxxxxxxxxxxxx有限公司,xxxxxxxxxxxxxxxxxxxxxxxx有限公司",
        "zhuanlilx": "1",
        "shenqingr": "2019-10-18",
        "gongkaiggh": null,
        "falvzt": null,
        "gongkaiggr": null,
        "shouquanggr": null,
        "zhufenlh": "H02J13/00",
        "anjianbh": null,
        "mingcheng": null,
        "anjianjlwz": null,
        "anjianywzt": "驳回失效",
        "attention": false
      },
      {
        "zhuanlisqh": "2019109940301",
        "famingzlsqgbg": "CN110738745A",
        "shouquanggh": null,
        "zhuanlimc": "智能配电机器人及智能配电系统",
        "shenqingrxm": "xxxxxxxxxxxxxxxxxxxxxxxx有限公司,xxxxxxxxxxxxxxxxxxxxxxxx有限公司",
        "zhuanlilx": "1",
        "shenqingr": "2019-10-18",
        "gongkaiggh": null,
        "falvzt": null,
        "gongkaiggr": null,
        "shouquanggr": null,
        "zhufenlh": "B25J11/00",
        "anjianbh": null,
        "mingcheng": null,
        "anjianjlwz": null,
        "anjianywzt": "驳回失效",
        "attention": false
      },
      {
        "zhuanlisqh": "2019305372061",
        "famingzlsqgbg": null,
        "shouquanggh": "CN306092487S",
        "zhuanlimc": "L型终端接头",
        "shenqingrxm": "xxxxxxxxxxxxxxxxxxxxxxxx有限公司,xxxxxxxxxxxxxxxxxxxxxxxx有限公司",
        "zhuanlilx": "3",
        "shenqingr": "2019-09-29",
        "gongkaiggh": null,
        "falvzt": "专利权有效",
        "gongkaiggr": "2020-10-09",
        "shouquanggr": null,
        "zhufenlh": "1303",
        "anjianbh": null,
        "mingcheng": null,
        "anjianjlwz": null,
        "anjianywzt": "专利权维持",
        "attention": false
      },
      {
        "zhuanlisqh": "2019109328847",
        "famingzlsqgbg": "CN110571916A",
        "shouquanggh": null,
        "zhuanlimc": "0.4kV双电源切换装置及开关",
        "shenqingrxm": "xxxxxxxxxxxxxxxxxxxxxxxx有限公司,xxxxxxxxxxxxxxxxxxxxxxxx有限公司",
        "zhuanlilx": "1",
        "shenqingr": "2019-09-29",
        "gongkaiggh": null,
        "falvzt": null,
        "gongkaiggr": null,
        "shouquanggr": null,
        "zhufenlh": "H02J9/06",
        "anjianbh": null,
        "mingcheng": null,
        "anjianjlwz": null,
        "anjianywzt": "驳回失效",
        "attention": false
      },
      {
        "zhuanlisqh": "2019216424280",
        "famingzlsqgbg": null,
        "shouquanggh": "CN210326416U",
        "zhuanlimc": "一种快速插拔式终端组件",
        "shenqingrxm": "xxxxxxxxxxxxxxxxxxxxxxxx有限公司,xxxxxxxxxxxxxxxxxxxxxxxx有限公司",
        "zhuanlilx": "2",
        "shenqingr": "2019-09-29",
        "gongkaiggh": null,
        "falvzt": "专利权有效",
        "gongkaiggr": "2020-04-14",
        "shouquanggr": null,
        "zhufenlh": "H01R31/06",
        "anjianbh": null,
        "mingcheng": null,
        "anjianjlwz": null,
        "anjianywzt": "专利权维持",
        "attention": false
      },
      {
        "zhuanlisqh": "2019215435983",
        "famingzlsqgbg": null,
        "shouquanggh": "CN210898636U",
        "zhuanlimc": "一种具备智能监测功能的SSTS设备",
        "shenqingrxm": "xxxxxxxxxxxxxxxxxxxxxxxx有限公司,xxxxxxxxxxxxxxxxxxxxxxxx有限公司",
        "zhuanlilx": "2",
        "shenqingr": "2019-09-17",
        "gongkaiggh": null,
        "falvzt": "专利权有效",
        "gongkaiggr": "2020-06-30",
        "shouquanggr": null,
        "zhufenlh": "H02J13/00",
        "anjianbh": null,
        "mingcheng": null,
        "anjianjlwz": null,
        "anjianywzt": "专利权维持",
        "attention": false
      },
      {
        "zhuanlisqh": "201921543612X",
        "famingzlsqgbg": null,
        "shouquanggh": "CN210694575U",
        "zhuanlimc": "一种防辐射的户外电气设备壳体",
        "shenqingrxm": "xxxxxxxxxxxxxxxxxxxxxxxx有限公司,xxxxxxxxxxxxxxxxxxxxxxxx有限公司",
        "zhuanlilx": "2",
        "shenqingr": "2019-09-17",
        "gongkaiggh": null,
        "falvzt": "专利权有效",
        "gongkaiggr": "2020-06-05",
        "shouquanggr": null,
        "zhufenlh": "H05K5/02",
        "anjianbh": null,
        "mingcheng": null,
        "anjianjlwz": null,
        "anjianywzt": "专利权维持",
        "attention": false
      },
      {
        "zhuanlisqh": "2019104708591",
        "famingzlsqgbg": "CN110176807A",
        "shouquanggh": null,
        "zhuanlimc": "站室运维监测系统",
        "shenqingrxm": "xxxxxxxxxxxxxxxxxxxxxxxx有限公司,xxxxxxxxxxxxxxxxxxxxxxxx有限公司",
        "zhuanlilx": "1",
        "shenqingr": "2019-05-31",
        "gongkaiggh": null,
        "falvzt": null,
        "gongkaiggr": null,
        "shouquanggr": null,
        "zhufenlh": "H02J13/00",
        "anjianbh": null,
        "mingcheng": null,
        "anjianjlwz": null,
        "anjianywzt": "逾期视撤失效",
        "attention": false
      },
      {
        "zhuanlisqh": "2019103952127",
        "famingzlsqgbg": "CN110082655A",
        "shouquanggh": null,
        "zhuanlimc": "可视化设备检测方法及仪器及其在智能电网中的应用",
        "shenqingrxm": "xxxxxxxxxxxx公司,xxxxxxxxxxxxxxxxxxxxxxxx有限公司,xxxxxxxxxxxxxxxxxxxxxxxx有限公司",
        "zhuanlilx": "1",
        "shenqingr": "2019-05-13",
        "gongkaiggh": null,
        "falvzt": null,
        "gongkaiggr": null,
        "shouquanggr": null,
        "zhufenlh": "G01R31/12",
        "anjianbh": null,
        "mingcheng": null,
        "anjianjlwz": null,
        "anjianywzt": "驳回失效",
        "attention": false
      },
      {
        "zhuanlisqh": "2019205509938",
        "famingzlsqgbg": null,
        "shouquanggh": "CN209286554U",
        "zhuanlimc": "一种导轨灭火机器人",
        "shenqingrxm": "xxxxxxxxxxxxxxxxxxxxxxxx有限公司,xxxxxxxxxxxxxxxxxxxxxxxx有限公司",
        "zhuanlilx": "2",
        "shenqingr": "2019-04-22",
        "gongkaiggh": null,
        "falvzt": "专利权有效",
        "gongkaiggr": "2019-08-23",
        "shouquanggr": null,
        "zhufenlh": "A62C31/00",
        "anjianbh": null,
        "mingcheng": null,
        "anjianjlwz": null,
        "anjianywzt": "专利权维持",
        "attention": false
      },
      {
        "zhuanlisqh": "2019205570315",
        "famingzlsqgbg": null,
        "shouquanggh": "CN209123237U",
        "zhuanlimc": "一种轮式灭火机器人",
        "shenqingrxm": "xxxxxxxxxxxxxxxxxxxxxxxx有限公司,xxxxxxxxxxxxxxxxxxxxxxxx有限公司",
        "zhuanlilx": "2",
        "shenqingr": "2019-04-22",
        "gongkaiggh": null,
        "falvzt": "专利权有效",
        "gongkaiggr": "2019-07-19",
        "shouquanggr": null,
        "zhufenlh": "A62C27/00",
        "anjianbh": null,
        "mingcheng": null,
        "anjianjlwz": null,
        "anjianywzt": "专利权维持",
        "attention": false
      },
      {
        "zhuanlisqh": "2019103187563",
        "famingzlsqgbg": "CN109976351A",
        "shouquanggh": "CN109976351B",
        "zhuanlimc": "一种电力巡检机器人定点定位系统",
        "shenqingrxm": "xxxxxxxxxxxxxxxxxxxxxxxx有限公司,xxxxxxxxxxxxxxxxxxxxxxxx有限公司",
        "zhuanlilx": "1",
        "shenqingr": "2019-04-19",
        "gongkaiggh": null,
        "falvzt": "专利权有效",
        "gongkaiggr": "2022-06-24",
        "shouquanggr": null,
        "zhufenlh": "G05D1/02",
        "anjianbh": null,
        "mingcheng": null,
        "anjianjlwz": null,
        "anjianywzt": "专利权维持",
        "attention": false
      },
      {
        "zhuanlisqh": "2019103181355",
        "famingzlsqgbg": "CN110033197A",
        "shouquanggh": null,
        "zhuanlimc": "一种设备档案全生命周期管理系统",
        "shenqingrxm": "xxxxxxxxxxxxxxxxxxxxxxxx有限公司,xxxxxxxxxxxxxxxxxxxxxxxx有限公司",
        "zhuanlilx": "1",
        "shenqingr": "2019-04-19",
        "gongkaiggh": null,
        "falvzt": null,
        "gongkaiggr": null,
        "shouquanggr": null,
        "zhufenlh": "G06Q10/06",
        "anjianbh": null,
        "mingcheng": null,
        "anjianjlwz": null,
        "anjianywzt": "驳回失效",
        "attention": false
      },
      {
        "zhuanlisqh": "2019205387911",
        "famingzlsqgbg": null,
        "shouquanggh": "CN209044845U",
        "zhuanlimc": "操作人员安全操作规范智能检测预警系统",
        "shenqingrxm": "xxxxxxxxxxxxxxxxxxxxxxxx有限公司,xxxxxxxxxxxxxxxxxxxxxxxx有限公司",
        "zhuanlilx": "2",
        "shenqingr": "2019-04-19",
        "gongkaiggh": null,
        "falvzt": "专利权有效",
        "gongkaiggr": "2019-06-28",
        "shouquanggr": null,
        "zhufenlh": "G08B21/18",
        "anjianbh": null,
        "mingcheng": null,
        "anjianjlwz": null,
        "anjianywzt": "专利权维持",
        "attention": false
      },
      {
        "zhuanlisqh": "2019103187402",
        "famingzlsqgbg": "CN109917771A",
        "shouquanggh": null,
        "zhuanlimc": "站室运维监测系统",
        "shenqingrxm": "xxxxxxxxxxxxxxxxxxxxxxxx有限公司,xxxxxxxxxxxxxxxxxxxxxxxx有限公司电气设备分公司",
        "zhuanlilx": "1",
        "shenqingr": "2019-04-19",
        "gongkaiggh": null,
        "falvzt": null,
        "gongkaiggr": null,
        "shouquanggr": null,
        "zhufenlh": "G05B19/418",
        "anjianbh": null,
        "mingcheng": null,
        "anjianjlwz": null,
        "anjianywzt": "撤回专利申请",
        "attention": false
      },
      {
        "zhuanlisqh": "2019103187582",
        "famingzlsqgbg": "CN110018646A",
        "shouquanggh": null,
        "zhuanlimc": "一种电力设备操作规范监控系统",
        "shenqingrxm": "xxxxxxxxxxxxxxxxxxxxxxxx有限公司,xxxxxxxxxxxxxxxxxxxxxxxx有限公司",
        "zhuanlilx": "1",
        "shenqingr": "2019-04-19",
        "gongkaiggh": null,
        "falvzt": null,
        "gongkaiggr": null,
        "shouquanggr": null,
        "zhufenlh": "G05B19/04",
        "anjianbh": null,
        "mingcheng": null,
        "anjianjlwz": null,
        "anjianywzt": "驳回等复审请求",
        "attention": false
      },
      {
        "zhuanlisqh": "201930179966X",
        "famingzlsqgbg": null,
        "shouquanggh": "CN305366451S",
        "zhuanlimc": "配电设备（一）",
        "shenqingrxm": "xxxxxxxxxxxxxxxxxxxxxxxx有限公司,xxxxxxxxxxxxxxxxxxxxxxxx有限公司",
        "zhuanlilx": "3",
        "shenqingr": "2019-04-18",
        "gongkaiggh": null,
        "falvzt": "专利权有效",
        "gongkaiggr": "2019-09-27",
        "shouquanggr": null,
        "zhufenlh": "1303",
        "anjianbh": null,
        "mingcheng": null,
        "anjianjlwz": null,
        "anjianywzt": "专利权维持",
        "attention": false
      },
      {
        "zhuanlisqh": "2019205311664",
        "famingzlsqgbg": null,
        "shouquanggh": "CN209881210U",
        "zhuanlimc": "一种预装式配电室",
        "shenqingrxm": "xxxxxxxxxxxxxxxxxxxxxxxx有限公司,xxxxxxxxxxxxxxxxxxxxxxxx有限公司",
        "zhuanlilx": "2",
        "shenqingr": "2019-04-18",
        "gongkaiggh": null,
        "falvzt": "专利权有效",
        "gongkaiggr": "2019-12-31",
        "shouquanggr": null,
        "zhufenlh": "H02B7/06",
        "anjianbh": null,
        "mingcheng": null,
        "anjianjlwz": null,
        "anjianywzt": "专利权维持",
        "attention": false
      },
      {
        "zhuanlisqh": "2019301799496",
        "famingzlsqgbg": null,
        "shouquanggh": "CN305407695S",
        "zhuanlimc": "配电设备（二）",
        "shenqingrxm": "xxxxxxxxxxxxxxxxxxxxxxxx有限公司,xxxxxxxxxxxxxxxxxxxxxxxx有限公司",
        "zhuanlilx": "3",
        "shenqingr": "2019-04-18",
        "gongkaiggh": null,
        "falvzt": "专利权有效",
        "gongkaiggr": "2019-10-29",
        "shouquanggr": null,
        "zhufenlh": "1303",
        "anjianbh": null,
        "mingcheng": null,
        "anjianjlwz": null,
        "anjianywzt": "专利权维持",
        "attention": false
      },
      {
        "zhuanlisqh": "2019102708794",
        "famingzlsqgbg": "CN110033540A",
        "shouquanggh": null,
        "zhuanlimc": "操作人员权限验证方法、装置、设备及系统",
        "shenqingrxm": "xxxxxxxxxxxxxxxxxxxxxxxx有限公司,北京中科天演科技有限责任公司,xxxxxxxxxxxxxxxxxxxxxxxx有限公司",
        "zhuanlilx": "1",
        "shenqingr": "2019-04-04",
        "gongkaiggh": null,
        "falvzt": null,
        "gongkaiggr": null,
        "shouquanggr": null,
        "zhufenlh": "G07C9/00",
        "anjianbh": null,
        "mingcheng": null,
        "anjianjlwz": null,
        "anjianywzt": "驳回失效",
        "attention": false
      },
      {
        "zhuanlisqh": "2019102708830",
        "famingzlsqgbg": "CN110026992A",
        "shouquanggh": null,
        "zhuanlimc": "联动方法、装置、系统及巡检机器人",
        "shenqingrxm": "xxxxxxxxxxxxxxxxxxxxxxxx有限公司,北京中科天演科技有限责任公司,xxxxxxxxxxxxxxxxxxxxxxxx有限公司",
        "zhuanlilx": "1",
        "shenqingr": "2019-04-04",
        "gongkaiggh": null,
        "falvzt": null,
        "gongkaiggr": null,
        "shouquanggr": null,
        "zhufenlh": "B25J11/00",
        "anjianbh": null,
        "mingcheng": null,
        "anjianjlwz": null,
        "anjianywzt": "驳回失效",
        "attention": false
      }
    ],
    "total": 550,
    "pageSize": 50,
    "currentPage": 8,
    "pages": 11
  },
  "msg": "成功"
}