{
  "code": 200,
  "data": {
    "records": [
      {
        "zhuanlisqh": "2019102390156",
        "famingzlsqgbg": "CN109980783A",
        "shouquanggh": null,
        "zhuanlimc": "配变监测装置及负荷接入管理系统",
        "shenqingrxm": "xxxxxxxxxxxx公司,xxxxxxxxxxxxxxxxxxxxxxxx有限公司,xxxxxxxxxxxxxxxxxxxxxxxx有限公司",
        "zhuanlilx": "1",
        "shenqingr": "2019-03-27",
        "gongkaiggh": null,
        "falvzt": null,
        "gongkaiggr": null,
        "shouquanggr": null,
        "zhufenlh": "H02J13/00",
        "anjianbh": null,
        "mingcheng": null,
        "anjianjlwz": null,
        "anjianywzt": "驳回失效",
        "attention": false
      },
      {
        "zhuanlisqh": "2019102390071",
        "famingzlsqgbg": "CN109830958A",
        "shouquanggh": null,
        "zhuanlimc": "双电源测控装置及负荷接入管理系统",
        "shenqingrxm": "xxxxxxxxxxxx公司,xxxxxxxxxxxxxxxxxxxxxxxx有限公司,xxxxxxxxxxxxxxxxxxxxxxxx有限公司",
        "zhuanlilx": "1",
        "shenqingr": "2019-03-27",
        "gongkaiggh": null,
        "falvzt": null,
        "gongkaiggr": null,
        "shouquanggr": null,
        "zhufenlh": "H02J3/00",
        "anjianbh": null,
        "mingcheng": null,
        "anjianjlwz": null,
        "anjianywzt": "驳回失效",
        "attention": false
      },
      {
        "zhuanlisqh": "2018221149289",
        "famingzlsqgbg": null,
        "shouquanggh": "CN209874784U",
        "zhuanlimc": "一种井盖锁组件",
        "shenqingrxm": "xxxxxxxxxxxxxxxxxxxxxxxx有限公司,北京京电电力工程设计xxxxxxxxxxxx有限公司",
        "zhuanlilx": "2",
        "shenqingr": "2018-12-17",
        "gongkaiggh": null,
        "falvzt": "专利权有效",
        "gongkaiggr": "2019-12-31",
        "shouquanggr": null,
        "zhufenlh": "E05C9/00",
        "anjianbh": null,
        "mingcheng": null,
        "anjianjlwz": null,
        "anjianywzt": "专利权维持",
        "attention": false
      },
      {
        "zhuanlisqh": "2018307316127",
        "famingzlsqgbg": null,
        "shouquanggh": "CN305172518S",
        "zhuanlimc": "地埋式变电箱（二）",
        "shenqingrxm": "xxxxxxxxxxxxxxxxxxxxxxxx有限公司,北京京电电力工程设计xxxxxxxxxxxx有限公司",
        "zhuanlilx": "3",
        "shenqingr": "2018-12-17",
        "gongkaiggh": null,
        "falvzt": "专利权有效",
        "gongkaiggr": "2019-05-21",
        "shouquanggr": null,
        "zhufenlh": "1303",
        "anjianbh": null,
        "mingcheng": null,
        "anjianjlwz": null,
        "anjianywzt": "专利权维持",
        "attention": false
      },
      {
        "zhuanlisqh": "2018307316131",
        "famingzlsqgbg": null,
        "shouquanggh": "CN305172415S",
        "zhuanlimc": "地埋式变电箱（一）",
        "shenqingrxm": "xxxxxxxxxxxxxxxxxxxxxxxx有限公司,北京京电电力工程设计xxxxxxxxxxxx有限公司",
        "zhuanlilx": "3",
        "shenqingr": "2018-12-17",
        "gongkaiggh": null,
        "falvzt": "专利权有效",
        "gongkaiggr": "2019-05-21",
        "shouquanggr": null,
        "zhufenlh": "1302",
        "anjianbh": null,
        "mingcheng": null,
        "anjianjlwz": null,
        "anjianywzt": "专利权维持",
        "attention": false
      },
      {
        "zhuanlisqh": "2018307318334",
        "famingzlsqgbg": null,
        "shouquanggh": "CN305126687S",
        "zhuanlimc": "通风亭（一）",
        "shenqingrxm": "xxxxxxxxxxxxxxxxxxxxxxxx有限公司,北京京电电力工程设计xxxxxxxxxxxx有限公司",
        "zhuanlilx": "3",
        "shenqingr": "2018-12-17",
        "gongkaiggh": null,
        "falvzt": "专利权有效",
        "gongkaiggr": "2019-04-23",
        "shouquanggr": null,
        "zhufenlh": "2503",
        "anjianbh": null,
        "mingcheng": null,
        "anjianjlwz": null,
        "anjianywzt": "专利权维持",
        "attention": false
      },
      {
        "zhuanlisqh": "2018221154291",
        "famingzlsqgbg": null,
        "shouquanggh": "CN209817523U",
        "zhuanlimc": "一种地埋式变电站用井盖组件以及地埋式变电站",
        "shenqingrxm": "xxxxxxxxxxxxxxxxxxxxxxxx有限公司,北京京电电力工程设计xxxxxxxxxxxx有限公司",
        "zhuanlilx": "2",
        "shenqingr": "2018-12-17",
        "gongkaiggh": null,
        "falvzt": "专利权有效",
        "gongkaiggr": "2019-12-20",
        "shouquanggr": null,
        "zhufenlh": "E04H5/02",
        "anjianbh": null,
        "mingcheng": null,
        "anjianjlwz": null,
        "anjianywzt": "专利权维持",
        "attention": false
      },
      {
        "zhuanlisqh": "2018221149306",
        "famingzlsqgbg": null,
        "shouquanggh": "CN209448225U",
        "zhuanlimc": "一种地埋式变电站",
        "shenqingrxm": "xxxxxxxxxxxxxxxxxxxxxxxx有限公司,北京京电电力工程设计xxxxxxxxxxxx有限公司",
        "zhuanlilx": "2",
        "shenqingr": "2018-12-17",
        "gongkaiggh": null,
        "falvzt": "专利权有效",
        "gongkaiggr": "2019-09-27",
        "shouquanggr": null,
        "zhufenlh": "H02B1/20",
        "anjianbh": null,
        "mingcheng": null,
        "anjianjlwz": null,
        "anjianywzt": "专利权维持",
        "attention": false
      },
      {
        "zhuanlisqh": "2018221149359",
        "famingzlsqgbg": null,
        "shouquanggh": "CN209133964U",
        "zhuanlimc": "一种地埋式变电站",
        "shenqingrxm": "xxxxxxxxxxxxxxxxxxxxxxxx有限公司,北京京电电力工程设计xxxxxxxxxxxx有限公司",
        "zhuanlilx": "2",
        "shenqingr": "2018-12-17",
        "gongkaiggh": null,
        "falvzt": "专利权有效",
        "gongkaiggr": "2019-07-19",
        "shouquanggr": null,
        "zhufenlh": "H02B7/08",
        "anjianbh": null,
        "mingcheng": null,
        "anjianjlwz": null,
        "anjianywzt": "专利权维持",
        "attention": false
      },
      {
        "zhuanlisqh": "2018115422786",
        "famingzlsqgbg": "CN109403758A",
        "shouquanggh": "CN109403758B",
        "zhuanlimc": "一种井盖锁组件",
        "shenqingrxm": "xxxxxxxxxxxxxxxxxxxxxxxx有限公司,北京京电电力工程设计xxxxxxxxxxxx有限公司",
        "zhuanlilx": "1",
        "shenqingr": "2018-12-17",
        "gongkaiggh": null,
        "falvzt": "专利权有效",
        "gongkaiggr": "2024-04-12",
        "shouquanggr": null,
        "zhufenlh": "E05C9/00",
        "anjianbh": null,
        "mingcheng": null,
        "anjianjlwz": null,
        "anjianywzt": "专利权维持",
        "attention": false
      },
      {
        "zhuanlisqh": "2018221154412",
        "famingzlsqgbg": null,
        "shouquanggh": "CN209133965U",
        "zhuanlimc": "一种地埋式变电站",
        "shenqingrxm": "xxxxxxxxxxxxxxxxxxxxxxxx有限公司,北京京电电力工程设计xxxxxxxxxxxx有限公司",
        "zhuanlilx": "2",
        "shenqingr": "2018-12-17",
        "gongkaiggh": null,
        "falvzt": "专利权有效",
        "gongkaiggr": "2019-07-19",
        "shouquanggr": null,
        "zhufenlh": "H02B7/08",
        "anjianbh": null,
        "mingcheng": null,
        "anjianjlwz": null,
        "anjianywzt": "专利权维持",
        "attention": false
      },
      {
        "zhuanlisqh": "201830731832X",
        "famingzlsqgbg": null,
        "shouquanggh": "CN305126686S",
        "zhuanlimc": "通风亭（二）",
        "shenqingrxm": "xxxxxxxxxxxxxxxxxxxxxxxx有限公司,北京京电电力工程设计xxxxxxxxxxxx有限公司",
        "zhuanlilx": "3",
        "shenqingr": "2018-12-17",
        "gongkaiggh": null,
        "falvzt": "专利权有效",
        "gongkaiggr": "2019-04-23",
        "shouquanggr": null,
        "zhufenlh": "2503",
        "anjianbh": null,
        "mingcheng": null,
        "anjianjlwz": null,
        "anjianywzt": "专利权维持",
        "attention": false
      },
      {
        "zhuanlisqh": "2018306455616",
        "famingzlsqgbg": null,
        "shouquanggh": "CN305105335S",
        "zhuanlimc": "箱式变电站",
        "shenqingrxm": "xxxxxxxxxxxx公司,xxxxxxxxxxxx公司,xxxxxxxxxxxxxxxxxxxxxxxx有限公司",
        "zhuanlilx": "3",
        "shenqingr": "2018-11-14",
        "gongkaiggh": null,
        "falvzt": "专利权有效",
        "gongkaiggr": "2019-04-09",
        "shouquanggr": null,
        "zhufenlh": "2503",
        "anjianbh": null,
        "mingcheng": null,
        "anjianjlwz": null,
        "anjianywzt": "专利权维持",
        "attention": false
      },
      {
        "zhuanlisqh": "2018106184914",
        "famingzlsqgbg": "CN108808517A",
        "shouquanggh": null,
        "zhuanlimc": "一种电力设备箱",
        "shenqingrxm": "xxxxxxxxxxxxxxxxxxxxxxxx有限公司",
        "zhuanlilx": "1",
        "shenqingr": "2018-06-15",
        "gongkaiggh": null,
        "falvzt": null,
        "gongkaiggr": null,
        "shouquanggr": null,
        "zhufenlh": "H02B1/56",
        "anjianbh": null,
        "mingcheng": null,
        "anjianjlwz": null,
        "anjianywzt": "驳回失效",
        "attention": false
      },
      {
        "zhuanlisqh": "2018209294860",
        "famingzlsqgbg": null,
        "shouquanggh": "CN208056831U",
        "zhuanlimc": "一种电力设备箱用门锁及电力设备箱",
        "shenqingrxm": "xxxxxxxxxxxxxxxxxxxxxxxx有限公司",
        "zhuanlilx": "2",
        "shenqingr": "2018-06-15",
        "gongkaiggh": null,
        "falvzt": "专利权有效",
        "gongkaiggr": "2018-11-06",
        "shouquanggr": null,
        "zhufenlh": "E05B15/00",
        "anjianbh": null,
        "mingcheng": null,
        "anjianjlwz": null,
        "anjianywzt": "专利权维持",
        "attention": false
      },
      {
        "zhuanlisqh": "2018209294057",
        "famingzlsqgbg": null,
        "shouquanggh": "CN208062502U",
        "zhuanlimc": "一种配电设备",
        "shenqingrxm": "xxxxxxxxxxxxxxxxxxxxxxxx有限公司",
        "zhuanlilx": "2",
        "shenqingr": "2018-06-15",
        "gongkaiggh": null,
        "falvzt": "专利权有效",
        "gongkaiggr": "2018-11-06",
        "shouquanggr": null,
        "zhufenlh": "H02B1/26",
        "anjianbh": null,
        "mingcheng": null,
        "anjianjlwz": null,
        "anjianywzt": "专利权维持",
        "attention": false
      },
      {
        "zhuanlisqh": "201820929047X",
        "famingzlsqgbg": null,
        "shouquanggh": "CN207994409U",
        "zhuanlimc": "一种电力设备箱及引流板",
        "shenqingrxm": "xxxxxxxxxxxxxxxxxxxxxxxx有限公司",
        "zhuanlilx": "2",
        "shenqingr": "2018-06-15",
        "gongkaiggh": null,
        "falvzt": "专利权有效",
        "gongkaiggr": "2018-10-19",
        "shouquanggr": null,
        "zhufenlh": "H02B1/46",
        "anjianbh": null,
        "mingcheng": null,
        "anjianjlwz": null,
        "anjianywzt": "专利权维持",
        "attention": false
      },
      {
        "zhuanlisqh": "2018209289307",
        "famingzlsqgbg": null,
        "shouquanggh": "CN208047085U",
        "zhuanlimc": "一种电力设备箱",
        "shenqingrxm": "xxxxxxxxxxxxxxxxxxxxxxxx有限公司",
        "zhuanlilx": "2",
        "shenqingr": "2018-06-15",
        "gongkaiggh": null,
        "falvzt": "专利权有效",
        "gongkaiggr": "2018-11-02",
        "shouquanggr": null,
        "zhufenlh": "H05K5/02",
        "anjianbh": null,
        "mingcheng": null,
        "anjianjlwz": null,
        "anjianywzt": "专利权维持",
        "attention": false
      },
      {
        "zhuanlisqh": "2017112576400",
        "famingzlsqgbg": "CN108375702A",
        "shouquanggh": "CN108375702B",
        "zhuanlimc": "电采暖设备的监测方法及装置",
        "shenqingrxm": "xxxxxxxxxxxx公司,xxxxxxxxxxxx公司,xxxxxxxxxxxxxxxxxxxxxxxx有限公司,北京博利杰电气xxxxxxxxxxxx有限公司",
        "zhuanlilx": "1",
        "shenqingr": "2017-12-01",
        "gongkaiggh": null,
        "falvzt": "专利权有效",
        "gongkaiggr": "2021-05-07",
        "shouquanggr": null,
        "zhufenlh": "G01R31/00",
        "anjianbh": null,
        "mingcheng": null,
        "anjianjlwz": null,
        "anjianywzt": "专利权维持",
        "attention": false
      },
      {
        "zhuanlisqh": "2017112136932",
        "famingzlsqgbg": "CN108154259A",
        "shouquanggh": "CN108154259B",
        "zhuanlimc": "热泵的负荷预测方法及装置、存储介质、处理器",
        "shenqingrxm": "xxxxxxxxxxxx公司,xxxxxxxxxxxx公司,xxxxxxxxxxxxxxxxxxxxxxxx有限公司,中国农业大学",
        "zhuanlilx": "1",
        "shenqingr": "2017-11-27",
        "gongkaiggh": null,
        "falvzt": "专利权有效",
        "gongkaiggr": "2021-11-05",
        "shouquanggr": null,
        "zhufenlh": "G06Q10/04",
        "anjianbh": null,
        "mingcheng": null,
        "anjianjlwz": null,
        "anjianywzt": "专利权维持",
        "attention": false
      },
      {
        "zhuanlisqh": "2017112134091",
        "famingzlsqgbg": "CN108151131A",
        "shouquanggh": null,
        "zhuanlimc": "电采暖设备的控制方法和系统、存储介质、处理器",
        "shenqingrxm": "xxxxxxxxxxxx公司,xxxxxxxxxxxx公司,xxxxxxxxxxxxxxxxxxxxxxxx有限公司,xxxxxxxxxxxxxxxxxxxxxxxx有限公司",
        "zhuanlilx": "1",
        "shenqingr": "2017-11-27",
        "gongkaiggh": null,
        "falvzt": null,
        "gongkaiggr": null,
        "shouquanggr": null,
        "zhufenlh": "F24D19/10",
        "anjianbh": null,
        "mingcheng": null,
        "anjianjlwz": null,
        "anjianywzt": "驳回失效",
        "attention": false
      },
      {
        "zhuanlisqh": "2017211274004",
        "famingzlsqgbg": null,
        "shouquanggh": "CN207340371U",
        "zhuanlimc": "电力设备组件",
        "shenqingrxm": "xxxxxxxxxxxx公司,xxxxxxxxxxxx公司,xxxxxxxxxxxxxxxxxxxxxxxx有限公司,xxxxxxxxxxxxxxxxxxxxxxxx有限公司",
        "zhuanlilx": "2",
        "shenqingr": "2017-09-04",
        "gongkaiggh": null,
        "falvzt": "专利权有效",
        "gongkaiggr": "2018-05-08",
        "shouquanggr": null,
        "zhufenlh": "H05K5/06",
        "anjianbh": null,
        "mingcheng": null,
        "anjianjlwz": null,
        "anjianywzt": "专利权维持",
        "attention": false
      },
      {
        "zhuanlisqh": "201710769036X",
        "famingzlsqgbg": "CN107655069A",
        "shouquanggh": null,
        "zhuanlimc": "供暖设备的控制方法、装置及系统",
        "shenqingrxm": "xxxxxxxxxxxx公司,xxxxxxxxxxxx公司,xxxxxxxxxxxxxxxxxxxxxxxx有限公司,xxxxxxxxxxxxxxxxxxxxxxxx有限公司",
        "zhuanlilx": "1",
        "shenqingr": "2017-08-30",
        "gongkaiggh": null,
        "falvzt": null,
        "gongkaiggr": null,
        "shouquanggr": null,
        "zhufenlh": "F24D19/10",
        "anjianbh": null,
        "mingcheng": null,
        "anjianjlwz": null,
        "anjianywzt": "驳回失效",
        "attention": false
      },
      {
        "zhuanlisqh": "2017107690552",
        "famingzlsqgbg": "CN107606688A",
        "shouquanggh": null,
        "zhuanlimc": "供暖设备的控制方法、装置及系统",
        "shenqingrxm": "xxxxxxxxxxxx公司,xxxxxxxxxxxx公司,xxxxxxxxxxxxxxxxxxxxxxxx有限公司,xxxxxxxxxxxxxxxxxxxxxxxx有限公司",
        "zhuanlilx": "1",
        "shenqingr": "2017-08-30",
        "gongkaiggh": null,
        "falvzt": null,
        "gongkaiggr": null,
        "shouquanggr": null,
        "zhufenlh": "F24D19/10",
        "anjianbh": null,
        "mingcheng": null,
        "anjianjlwz": null,
        "anjianywzt": "驳回失效",
        "attention": false
      },
      {
        "zhuanlisqh": "2017107074512",
        "famingzlsqgbg": "CN107621991A",
        "shouquanggh": "CN107621991B",
        "zhuanlimc": "数据处理方法和装置",
        "shenqingrxm": "xxxxxxxxxxxx公司,xxxxxxxxxxxx公司,xxxxxxxxxxxxxxxxxxxxxxxx有限公司,xxxxxxxxxxxxxxxxxxxxxxxx有限公司",
        "zhuanlilx": "1",
        "shenqingr": "2017-08-17",
        "gongkaiggh": null,
        "falvzt": "专利权有效",
        "gongkaiggr": "2020-11-06",
        "shouquanggr": null,
        "zhufenlh": "G06F11/14",
        "anjianbh": null,
        "mingcheng": null,
        "anjianjlwz": null,
        "anjianywzt": "专利权维持",
        "attention": false
      },
      {
        "zhuanlisqh": "2017209074476",
        "famingzlsqgbg": null,
        "shouquanggh": "CN207021678U",
        "zhuanlimc": "低压联络箱",
        "shenqingrxm": "xxxxxxxxxxxx公司,xxxxxxxxxxxx公司,xxxxxxxxxxxxxxxxxxxxxxxx有限公司",
        "zhuanlilx": "2",
        "shenqingr": "2017-07-25",
        "gongkaiggh": null,
        "falvzt": "专利权有效",
        "gongkaiggr": "2018-02-16",
        "shouquanggr": null,
        "zhufenlh": "H02J3/00",
        "anjianbh": null,
        "mingcheng": null,
        "anjianjlwz": null,
        "anjianywzt": "专利权维持",
        "attention": false
      },
      {
        "zhuanlisqh": "2017105316983",
        "famingzlsqgbg": "CN107171235A",
        "shouquanggh": null,
        "zhuanlimc": "箱式变电站",
        "shenqingrxm": "xxxxxxxxxxxx公司,xxxxxxxxxxxx公司,xxxxxxxxxxxxxxxxxxxxxxxx有限公司",
        "zhuanlilx": "1",
        "shenqingr": "2017-06-30",
        "gongkaiggh": null,
        "falvzt": null,
        "gongkaiggr": null,
        "shouquanggr": null,
        "zhufenlh": "H02B7/01",
        "anjianbh": null,
        "mingcheng": null,
        "anjianjlwz": null,
        "anjianywzt": "驳回失效",
        "attention": false
      },
      {
        "zhuanlisqh": "2017104971588",
        "famingzlsqgbg": "CN107154317A",
        "shouquanggh": "CN107154317B",
        "zhuanlimc": "一种闭锁结构及具有其的低压联络箱",
        "shenqingrxm": "xxxxxxxxxxxxxxxxxxxxxxxx有限公司",
        "zhuanlilx": "1",
        "shenqingr": "2017-06-26",
        "gongkaiggh": null,
        "falvzt": "专利权有效",
        "gongkaiggr": "2020-03-06",
        "shouquanggr": null,
        "zhufenlh": "H01H9/26",
        "anjianbh": null,
        "mingcheng": null,
        "anjianjlwz": null,
        "anjianywzt": "专利权维持",
        "attention": false
      },
      {
        "zhuanlisqh": "2017207482057",
        "famingzlsqgbg": null,
        "shouquanggh": "CN206947206U",
        "zhuanlimc": "一种闭锁结构及具有其的低压联络箱",
        "shenqingrxm": "xxxxxxxxxxxxxxxxxxxxxxxx有限公司",
        "zhuanlilx": "2",
        "shenqingr": "2017-06-26",
        "gongkaiggh": null,
        "falvzt": "专利权有效",
        "gongkaiggr": "2018-01-30",
        "shouquanggr": null,
        "zhufenlh": "H01H9/26",
        "anjianbh": null,
        "mingcheng": null,
        "anjianjlwz": null,
        "anjianywzt": "专利权维持",
        "attention": false
      },
      {
        "zhuanlisqh": "2017302370173",
        "famingzlsqgbg": null,
        "shouquanggh": "CN304359017S",
        "zhuanlimc": "交流充电桩",
        "shenqingrxm": "xxxxxxxxxxxxxxxxxxxxxxxx有限公司",
        "zhuanlilx": "3",
        "shenqingr": "2017-06-12",
        "gongkaiggh": null,
        "falvzt": "专利权有效",
        "gongkaiggr": "2017-11-17",
        "shouquanggr": null,
        "zhufenlh": "1302",
        "anjianbh": null,
        "mingcheng": null,
        "anjianjlwz": null,
        "anjianywzt": "专利权维持",
        "attention": false
      },
      {
        "zhuanlisqh": "2017206758977",
        "famingzlsqgbg": null,
        "shouquanggh": "CN207046613U",
        "zhuanlimc": "一种交流充电桩自动收线器",
        "shenqingrxm": "xxxxxxxxxxxxxxxxxxxxxxxx有限公司",
        "zhuanlilx": "2",
        "shenqingr": "2017-06-12",
        "gongkaiggh": null,
        "falvzt": "专利权有效",
        "gongkaiggr": "2018-02-27",
        "shouquanggr": null,
        "zhufenlh": "B65H75/48",
        "anjianbh": null,
        "mingcheng": null,
        "anjianjlwz": null,
        "anjianywzt": "专利权维持",
        "attention": false
      },
      {
        "zhuanlisqh": "2017206759147",
        "famingzlsqgbg": null,
        "shouquanggh": "CN206938493U",
        "zhuanlimc": "一种交流充电桩",
        "shenqingrxm": "xxxxxxxxxxxxxxxxxxxxxxxx有限公司",
        "zhuanlilx": "2",
        "shenqingr": "2017-06-12",
        "gongkaiggh": null,
        "falvzt": "专利权有效",
        "gongkaiggr": "2018-01-30",
        "shouquanggr": null,
        "zhufenlh": "B60L11/18",
        "anjianbh": null,
        "mingcheng": null,
        "anjianjlwz": null,
        "anjianywzt": "专利权维持",
        "attention": false
      },
      {
        "zhuanlisqh": "2017206325913",
        "famingzlsqgbg": null,
        "shouquanggh": "CN206947809U",
        "zhuanlimc": "一种户外配电设备箱体",
        "shenqingrxm": "xxxxxxxxxxxxxxxxxxxxxxxx有限公司",
        "zhuanlilx": "2",
        "shenqingr": "2017-06-02",
        "gongkaiggh": null,
        "falvzt": "专利权有效",
        "gongkaiggr": "2018-01-30",
        "shouquanggr": null,
        "zhufenlh": "H02B1/56",
        "anjianbh": null,
        "mingcheng": null,
        "anjianjlwz": null,
        "anjianywzt": "专利权维持",
        "attention": false
      },
      {
        "zhuanlisqh": "2017302200100",
        "famingzlsqgbg": null,
        "shouquanggh": "CN304484116S",
        "zhuanlimc": "户外开关站（紧凑型）",
        "shenqingrxm": "xxxxxxxxxxxxxxxxxxxxxxxx有限公司",
        "zhuanlilx": "3",
        "shenqingr": "2017-06-02",
        "gongkaiggh": null,
        "falvzt": "专利权有效",
        "gongkaiggr": "2018-01-30",
        "shouquanggr": null,
        "zhufenlh": "2503",
        "anjianbh": null,
        "mingcheng": null,
        "anjianjlwz": null,
        "anjianywzt": "专利权维持",
        "attention": false
      },
      {
        "zhuanlisqh": "2017302195831",
        "famingzlsqgbg": null,
        "shouquanggh": "CN304332756S",
        "zhuanlimc": "箱式变电站（小型化）",
        "shenqingrxm": "xxxxxxxxxxxxxxxxxxxxxxxx有限公司",
        "zhuanlilx": "3",
        "shenqingr": "2017-06-02",
        "gongkaiggh": null,
        "falvzt": "专利权有效",
        "gongkaiggr": "2017-10-27",
        "shouquanggr": null,
        "zhufenlh": "1302",
        "anjianbh": null,
        "mingcheng": null,
        "anjianjlwz": null,
        "anjianywzt": "专利权维持",
        "attention": false
      },
      {
        "zhuanlisqh": "2017302200098",
        "famingzlsqgbg": null,
        "shouquanggh": "CN304332757S",
        "zhuanlimc": "箱式变电站（小型化）",
        "shenqingrxm": "xxxxxxxxxxxxxxxxxxxxxxxx有限公司",
        "zhuanlilx": "3",
        "shenqingr": "2017-06-02",
        "gongkaiggh": null,
        "falvzt": "专利权有效",
        "gongkaiggr": "2017-10-27",
        "shouquanggr": null,
        "zhufenlh": "1302",
        "anjianbh": null,
        "mingcheng": null,
        "anjianjlwz": null,
        "anjianywzt": "专利权维持",
        "attention": false
      },
      {
        "zhuanlisqh": "2017206328911",
        "famingzlsqgbg": null,
        "shouquanggh": "CN207053030U",
        "zhuanlimc": "一种箱式变电站",
        "shenqingrxm": "xxxxxxxxxxxxxxxxxxxxxxxx有限公司",
        "zhuanlilx": "2",
        "shenqingr": "2017-06-02",
        "gongkaiggh": null,
        "falvzt": "专利权有效",
        "gongkaiggr": "2018-02-27",
        "shouquanggr": null,
        "zhufenlh": "H02B7/06",
        "anjianbh": null,
        "mingcheng": null,
        "anjianjlwz": null,
        "anjianywzt": "专利权维持",
        "attention": false
      },
      {
        "zhuanlisqh": "2017206328930",
        "famingzlsqgbg": null,
        "shouquanggh": "CN207200036U",
        "zhuanlimc": "一种户外配电设备箱体",
        "shenqingrxm": "xxxxxxxxxxxxxxxxxxxxxxxx有限公司",
        "zhuanlilx": "2",
        "shenqingr": "2017-06-02",
        "gongkaiggh": null,
        "falvzt": "专利权有效",
        "gongkaiggr": "2018-04-06",
        "shouquanggr": null,
        "zhufenlh": "H02B1/46",
        "anjianbh": null,
        "mingcheng": null,
        "anjianjlwz": null,
        "anjianywzt": "专利权维持",
        "attention": false
      },
      {
        "zhuanlisqh": "2017205404087",
        "famingzlsqgbg": null,
        "shouquanggh": "CN206727513U",
        "zhuanlimc": "箱变",
        "shenqingrxm": "xxxxxxxxxxxx公司,xxxxxxxxxxxx公司,xxxxxxxxxxxxxxxxxxxxxxxx有限公司",
        "zhuanlilx": "2",
        "shenqingr": "2017-05-16",
        "gongkaiggh": null,
        "falvzt": "专利权有效",
        "gongkaiggr": "2017-12-08",
        "shouquanggr": null,
        "zhufenlh": "H02B7/06",
        "anjianbh": null,
        "mingcheng": null,
        "anjianjlwz": null,
        "anjianywzt": "专利权维持",
        "attention": false
      },
      {
        "zhuanlisqh": "2017205460725",
        "famingzlsqgbg": null,
        "shouquanggh": "CN206736975U",
        "zhuanlimc": "井盖",
        "shenqingrxm": "xxxxxxxxxxxx公司,xxxxxxxxxxxx公司,xxxxxxxxxxxxxxxxxxxxxxxx有限公司",
        "zhuanlilx": "2",
        "shenqingr": "2017-05-16",
        "gongkaiggh": null,
        "falvzt": "专利权有效",
        "gongkaiggr": "2017-12-12",
        "shouquanggr": null,
        "zhufenlh": "E02D29/14",
        "anjianbh": null,
        "mingcheng": null,
        "anjianjlwz": null,
        "anjianywzt": "专利权维持",
        "attention": false
      },
      {
        "zhuanlisqh": "2016111486864",
        "famingzlsqgbg": "CN106766372A",
        "shouquanggh": null,
        "zhuanlimc": "热泵系统",
        "shenqingrxm": "xxxxxxxxxxxx公司,xxxxxxxxxxxx公司,xxxxxxxxxxxxxxxxxxxxxxxx有限公司,xxxxxxxxxxxxxxxxxxxxxxxx有限公司",
        "zhuanlilx": "1",
        "shenqingr": "2016-12-13",
        "gongkaiggh": null,
        "falvzt": null,
        "gongkaiggr": null,
        "shouquanggr": null,
        "zhufenlh": "F25B30/02",
        "anjianbh": null,
        "mingcheng": null,
        "anjianjlwz": null,
        "anjianywzt": "驳回失效",
        "attention": false
      },
      {
        "zhuanlisqh": "2016111477545",
        "famingzlsqgbg": "CN106839847A",
        "shouquanggh": null,
        "zhuanlimc": "相变储能装置",
        "shenqingrxm": "xxxxxxxxxxxx公司,xxxxxxxxxxxx公司,xxxxxxxxxxxxxxxxxxxxxxxx有限公司,xxxxxxxxxxxxxxxxxxxxxxxx有限公司",
        "zhuanlilx": "1",
        "shenqingr": "2016-12-13",
        "gongkaiggh": null,
        "falvzt": null,
        "gongkaiggr": null,
        "shouquanggr": null,
        "zhufenlh": "F28D20/02",
        "anjianbh": null,
        "mingcheng": null,
        "anjianjlwz": null,
        "anjianywzt": "驳回失效",
        "attention": false
      },
      {
        "zhuanlisqh": "2016213694049",
        "famingzlsqgbg": null,
        "shouquanggh": "CN206226026U",
        "zhuanlimc": "一种电源换相装置及供暖系统",
        "shenqingrxm": "xxxxxxxxxxxx公司,xxxxxxxxxxxx公司,xxxxxxxxxxxxxxxxxxxxxxxx有限公司,xxxxxxxxxxxxxxxxxxxxxxxx有限公司",
        "zhuanlilx": "2",
        "shenqingr": "2016-12-13",
        "gongkaiggh": null,
        "falvzt": "专利权有效",
        "gongkaiggr": "2017-06-06",
        "shouquanggr": null,
        "zhufenlh": "H02J3/26",
        "anjianbh": null,
        "mingcheng": null,
        "anjianjlwz": null,
        "anjianywzt": "专利权维持",
        "attention": false
      },
      {
        "zhuanlisqh": "2016111487176",
        "famingzlsqgbg": "CN106684894A",
        "shouquanggh": null,
        "zhuanlimc": "低压电网三相负荷的调控方法和装置",
        "shenqingrxm": "xxxxxxxxxxxx公司,xxxxxxxxxxxx公司,xxxxxxxxxxxxxxxxxxxxxxxx有限公司,xxxxxxxxxxxxxxxxxxxxxxxx有限公司",
        "zhuanlilx": "1",
        "shenqingr": "2016-12-13",
        "gongkaiggh": null,
        "falvzt": null,
        "gongkaiggr": null,
        "shouquanggr": null,
        "zhufenlh": "H02J3/26",
        "anjianbh": null,
        "mingcheng": null,
        "anjianjlwz": null,
        "anjianywzt": "驳回失效",
        "attention": false
      },
      {
        "zhuanlisqh": "2016111469055",
        "famingzlsqgbg": "CN106786678A",
        "shouquanggh": null,
        "zhuanlimc": "三相不平衡调控方法及装置",
        "shenqingrxm": "xxxxxxxxxxxx公司,xxxxxxxxxxxx公司,xxxxxxxxxxxxxxxxxxxxxxxx有限公司,xxxxxxxxxxxxxxxxxxxxxxxx有限公司",
        "zhuanlilx": "1",
        "shenqingr": "2016-12-13",
        "gongkaiggh": null,
        "falvzt": null,
        "gongkaiggr": null,
        "shouquanggr": null,
        "zhufenlh": "H02J3/26",
        "anjianbh": null,
        "mingcheng": null,
        "anjianjlwz": null,
        "anjianywzt": "驳回失效",
        "attention": false
      },
      {
        "zhuanlisqh": "2016111477526",
        "famingzlsqgbg": "CN106839081A",
        "shouquanggh": null,
        "zhuanlimc": "电采暖设备的控制方法及装置",
        "shenqingrxm": "xxxxxxxxxxxx公司,xxxxxxxxxxxx公司,xxxxxxxxxxxxxxxxxxxxxxxx有限公司,xxxxxxxxxxxxxxxxxxxxxxxx有限公司",
        "zhuanlilx": "1",
        "shenqingr": "2016-12-13",
        "gongkaiggh": null,
        "falvzt": null,
        "gongkaiggr": null,
        "shouquanggr": null,
        "zhufenlh": "F24D19/10",
        "anjianbh": null,
        "mingcheng": null,
        "anjianjlwz": null,
        "anjianywzt": "驳回失效",
        "attention": false
      },
      {
        "zhuanlisqh": "2016111440752",
        "famingzlsqgbg": "CN106684744A",
        "shouquanggh": null,
        "zhuanlimc": "变电站",
        "shenqingrxm": "xxxxxxxxxxxx公司,xxxxxxxxxxxx公司,xxxxxxxxxxxxxxxxxxxxxxxx有限公司",
        "zhuanlilx": "1",
        "shenqingr": "2016-12-12",
        "gongkaiggh": null,
        "falvzt": null,
        "gongkaiggr": null,
        "shouquanggr": null,
        "zhufenlh": "H02B7/06",
        "anjianbh": null,
        "mingcheng": null,
        "anjianjlwz": null,
        "anjianywzt": "驳回失效",
        "attention": false
      },
      {
        "zhuanlisqh": "2016213624050",
        "famingzlsqgbg": null,
        "shouquanggh": "CN206293771U",
        "zhuanlimc": "开闭器壳体",
        "shenqingrxm": "xxxxxxxxxxxx公司,xxxxxxxxxxxx公司,xxxxxxxxxxxxxxxxxxxxxxxx有限公司",
        "zhuanlilx": "2",
        "shenqingr": "2016-12-12",
        "gongkaiggh": null,
        "falvzt": "专利权有效",
        "gongkaiggr": "2017-06-30",
        "shouquanggr": null,
        "zhufenlh": "H02B1/26",
        "anjianbh": null,
        "mingcheng": null,
        "anjianjlwz": null,
        "anjianywzt": "专利权维持",
        "attention": false
      },
      {
        "zhuanlisqh": "2016213555614",
        "famingzlsqgbg": null,
        "shouquanggh": "CN206225830U",
        "zhuanlimc": "电力箱",
        "shenqingrxm": "xxxxxxxxxxxx公司,xxxxxxxxxxxx公司,xxxxxxxxxxxxxxxxxxxxxxxx有限公司",
        "zhuanlilx": "2",
        "shenqingr": "2016-12-09",
        "gongkaiggh": null,
        "falvzt": "专利权有效",
        "gongkaiggr": "2017-06-06",
        "shouquanggr": null,
        "zhufenlh": "H02B1/46",
        "anjianbh": null,
        "mingcheng": null,
        "anjianjlwz": null,
        "anjianywzt": "专利权维持",
        "attention": false
      },
      {
        "zhuanlisqh": "2016111381260",
        "famingzlsqgbg": "CN106848855A",
        "shouquanggh": null,
        "zhuanlimc": "防凝露结构及具有其的环网柜",
        "shenqingrxm": "xxxxxxxxxxxx公司,xxxxxxxxxxxx公司,xxxxxxxxxxxxxxxxxxxxxxxx有限公司",
        "zhuanlilx": "1",
        "shenqingr": "2016-12-09",
        "gongkaiggh": null,
        "falvzt": null,
        "gongkaiggr": null,
        "shouquanggr": null,
        "zhufenlh": "H02B1/28",
        "anjianbh": null,
        "mingcheng": null,
        "anjianjlwz": null,
        "anjianywzt": "驳回失效",
        "attention": false
      }
    ],
    "total": 550,
    "pageSize": 50,
    "currentPage": 9,
    "pages": 11
  },
  "msg": "成功"
}